51	156.09	0.14	0.0156
50	156.10	0.14	0.0156
49	156.12	0.14	0.0156
48	156.12	0.14	0.0156
47	156.12	0.14	0.0156
46	156.13	0.14	0.0156
45	156.14	0.14	0.0156
44	156.15	0.14	0.0156
43	156.16	0.14	0.0156
42	156.17	0.14	0.0156
41	156.19	0.14	0.0156
40	156.20	0.14	0.0156
39	156.21	0.14	0.0156
38	156.22	0.14	0.0156
37	156.24	0.14	0.0156
36	156.25	0.14	0.0156
35	156.27	0.14	0.0156
34	156.28	0.14	0.0156
33	156.30	0.14	0.0156
32	156.31	0.14	0.0156
31	156.34	0.14	0.0156
30	156.35	0.14	0.0156
29	156.38	0.14	0.0156
28	156.40	0.14	0.0156
27	156.42	0.14	0.0156
26	156.45	0.14	0.0156
25	156.47	0.14	0.0156
24	156.50	0.14	0.0157
23	156.53	0.14	0.0157
22	156.58	0.14	0.0157
21	156.61	0.14	0.0157
20	156.66	0.14	0.0157
19	156.70	0.14	0.0157
18	156.77	0.14	0.0157
17	156.82	0.14	0.0157
16	156.89	0.14	0.0157
15	156.95	0.14	0.0157
14	157.04	0.14	0.0157
13	157.10	0.14	0.0157
12	157.20	0.14	0.0157
11	157.28	0.14	0.0157
10	157.37	0.14	0.0157
9	157.54	0.14	0.0158
8	157.64	0.14	0.0158
7	157.81	0.14	0.0158
6	157.99	0.14	0.0158
5	158.31	0.14	0.0158
4	158.53	0.14	0.0159
3	158.82	0.14	0.0159
2	158.92	0.14	0.0159
1	159.19	0.14	0.0159
-6.22E-15	159.37	0.14	0.0159
-1	159.69	0.14	0.0160
-2	159.94	0.14	0.0160
-3	160.41	0.14	0.0160
-4	160.66	0.14	0.0161
-5	161.02	0.14	0.0161
-6	161.40	0.14	0.0161
-7	161.65	0.14	0.0162
-8	162.14	0.14	0.0162
-9	162.48	0.14	0.0162
-10	162.95	0.14	0.0163
-11	163.25	0.14	0.0163
-12	163.68	0.14	0.0164
-13	163.89	0.14	0.0164
-14	164.19	0.14	0.0164
-15	164.31	0.14	0.0164
-16	164.48	0.14	0.0164
-17	164.59	0.14	0.0165
-18	164.70	0.14	0.0165
-19	164.79	0.14	0.0165
-20	164.85	0.14	0.0165
-21	164.92	0.14	0.0165
-22	164.97	0.14	0.0165
-23	165.03	0.14	0.0165
-24	165.07	0.14	0.0165
-25	165.11	0.14	0.0165
-26	165.14	0.14	0.0165
-27	165.17	0.14	0.0165
-28	165.19	0.14	0.0165
-29	165.22	0.14	0.0165
-30	165.24	0.14	0.0165
-31	165.26	0.14	0.0165
-32	165.27	0.14	0.0165
-33	165.29	0.14	0.0165
-34	165.30	0.14	0.0165
-35	165.32	0.14	0.0165
-36	165.33	0.14	0.0165
-37	165.34	0.14	0.0165
-38	165.35	0.14	0.0165
-39	165.36	0.14	0.0165
-40	165.37	0.14	0.0165
-41	165.37	0.14	0.0165
-42	165.38	0.14	0.0165
-43	165.39	0.14	0.0165
-44	165.39	0.14	0.0165
-45	165.40	0.14	0.0165
-46	165.41	0.14	0.0165
-47	165.41	0.14	0.0165
-48	165.42	0.14	0.0165
-49	165.42	0.14	0.0165
-5.00E+01	165.42	0.14	0.0165