1. 639.
2. 634.
3. 632.5
4. 633.5
5. 633.5
6. 633.
7. 636.
8. 636.
9. 631.
10. 633.
11. 636.
12. 635.5
13. 634.
14. 634.
14. 631.
15. 635.
16. 635.
17. 631.
18. 634.5
19. 632.5
20. 633.5
21. 639.
22. 639.
23. 632.
24. 631.5
25. 639.
26. 631.
27. 631.
28. 631.
29. 632.
30. 632.
31. 632.
32. 632.
33. 631.
34. 631.
35. 634.
36. 634.5
37. 632.5
38. 632.
39. 630.
40. 630.
41. 631.
42. 631.
43. 630.5
43. 628.
44. 629.5
45. 627.
46. 629.5
47. 635.
48. 635.
49. 628.5
50. 630.
51. 627.
52. 632.
53. 630.5
54. 630.
56. 624.
57. 631.
58. 631.
59. 634.5
60. 629.5
61. 627.
62. 627.
63. 627.
64. 626.5
65. 628.
66. 628.
67. 628.
68. 628.
71. 630.
72. 628.5
73. 631.
74. 631.
75. 628.
76. 628.
77. 625.
78. 629.
79. 630.
80. 629.
81. 624.
83. 629.
84. 627.5
87. 621.
88. 621.
89. 626.
90. 626.
91. 623.
93. 627.
94. 627.
95. 624.
96. 624.5
98. 630.5
99. 629.
100. 631.
101. 626.5
102. 626.
103. 624.
104. 623.5
105. 628.
106. 627.
107. 630.
108. 630.
111. 629.
112. 629.
113. 626.
114. 627.
115. 627.
116. 629.
117. 629.5
118. 627.
119. 623.5
120. 623.5
121. 623.
123. 630.5
124. 629.5
125. 622.5
126. 621.5
127. 621.5
128. 621.
129. 630.
130. 630.
131. 628.
132. 627.
133. 631.
134. 630.
135. 628.5
136. 627.
137. 627.
138. 627.
139. 627.
140. 624.5
141. 624.
142. 628.5
143. 630.
144. 638.
144. 636.
145. 623.
146. 624.
147. 627.
148. 627.
149. 626.
150. 626.
153. 626.
154. 626.
155. 625.5
156. 625.5
157. 625.5
158. 629.
159. 628.
160. 631.
162. 626.5
163. 625.5
164. 625.
165. 631.
166. 631.
167. 623.
168. 625.
169. 630.5
170. 629.
171. 627.
172. 627.
173. 630.
174. 629.
175. 630.
176. 628.
177. 627.
178. 628.
179. 628.
180. 624.
181. 627.
184. 624.
185. 628.
186. 628.
187. 626.
188. 626.
189. 629.
190. 628.5
191. 628.
192. 628.
193. 627.
194. 628.
197. 632.
198. 632.
199. 626.
200. 625.5
201. 631.
202. 631.
203. 631.
203. 628.
204. 633.
205. 632.
206. 627.
207. 628.
208. 628.
211. 629.
212. 630.
213. 631.
213. 628.
214. 631.
215. 629.5
216. 629.
217. 631.
218. 632.5
221. 634.5
222. 631.
224. 624.
225. 631.
226. 636.
227. 636.
229. 634.
230. 635.
231. 631.
232. 631.
233. 631.
234. 631.
235. 634.
236. 634.
237. 632.
238. 632.
239. 635.
240. 635.
241. 635.
242. 632.
243. 632.
244. 635.5
245. 636.
246. 636.
247. 636.
248. 636.
249. 639.
250. 639.
252. 635.
253. 635.
256. 635.
257. 639.
258. 639.
259. 639.
260. 638.
261. 633.5
262. 637.5
263. 637.
264. 637.
265. 639.
266. 639.
267. 639.
268. 639.
269. 635.5
273. 638.5
274. 639.
279. 630.
283. 633.5
284. 637.
285. 618.
286. 606.
348. 628.
359. 633.5
360. 629.5