1. 541.5
2. 543.
3. 545.
4. 545.
5. 547.
5. 544.5
6. 546.5
7. 544.
8. 541.
9. 544.
10. 545.
11. 543.
12. 543.
13. 542.5
14. 543.
15. 544.
16. 544.
17. 542.5
18. 542.5
19. 543.
20. 544.
21. 540.5
22. 542.
23. 541.
24. 544.
25. 542.5
26. 542.
27. 546.5
28. 544.
29. 544.
30. 541.5
31. 542.
32. 544.
33. 543.
34. 543.
35. 544.
36. 544.
37. 541.5
38. 539.
39. 539.
40. 539.
41. 543.
42. 540.
43. 540.
44. 540.
45. 542.
46. 541.
47. 541.5
48. 539.5
49. 543.
50. 543.
51. 538.5
52. 539.
53. 543.
54. 543.
55. 540.
56. 540.
57. 538.5
58. 539.
59. 540.
60. 540.
61. 539.
62. 539.
63. 539.
64. 539.
65. 539.
66. 539.
67. 539.
68. 539.
69. 540.
70. 540.
71. 540.
72. 540.
73. 540.
74. 540.
75. 539.
76. 539.
77. 539.
78. 539.
79. 539.5
80. 540.
81. 538.
82. 538.
84. 542.
86. 539.
87. 539.
88. 539.
89. 539.
90. 539.
91. 535.
92. 539.
93. 538.5
94. 538.
95. 540.
96. 534.
97. 534.5
98. 535.
101. 537.5
102. 538.
103. 540.
105. 539.
106. 539.
107. 536.
108. 536.
109. 539.
110. 535.
111. 535.
112. 536.
115. 535.
116. 535.
117. 539.5
118. 540.
119. 540.
120. 536.
121. 540.
122. 538.5
123. 535.
124. 535.
125. 538.5
126. 536.
127. 536.
128. 536.
129. 539.
130. 539.
131. 539.
132. 539.
133. 535.
134. 535.
135. 539.
136. 539.
137. 537.
138. 538.5
139. 538.
140. 534.
141. 536.5
144. 540.
145. 535.
147. 535.
148. 534.
149. 537.5
150. 536.
151. 535.
152. 540.
153. 539.
154. 538.5
155. 536.5
156. 536.
157. 535.
158. 537.5
159. 539.
161. 535.
163. 539.
164. 539.
165. 535.
166. 540.
167. 540.
168. 536.
169. 535.
171. 537.5
172. 538.
173. 535.
174. 537.
175. 538.
175. 536.
176. 538.5
176. 536.
180. 540.
181. 543.
181. 540.
182. 539.
183. 539.
184. 539.
185. 535.
186. 535.
187. 539.
188. 538.5
189. 539.
190. 537.
191. 536.
192. 536.5
193. 538.5
194. 538.
195. 538.
196. 537.5
197. 539.
198. 540.
199. 540.
200. 539.
201. 539.5
202. 540.
203. 540.
204. 539.
205. 536.
206. 539.
207. 539.
208. 543.
208. 539.
209. 539.
210. 540.
212. 543.
213. 540.
214. 540.
215. 542.
216. 543.
217. 540.
218. 540.
219. 543.
220. 543.
221. 543.
222. 543.
223. 540.
224. 540.
225. 543.
226. 543.
227. 540.
228. 540.
229. 543.
230. 542.
231. 542.
232. 540.
233. 540.
234. 546.
237. 540.
238. 540.
241. 543.
242. 543.
243. 544.5
244. 540.
245. 543.
246. 543.
247. 544.
248. 547.
249. 547.
250. 547.
251. 547.
252. 541.5
253. 547.
254. 547.
255. 543.
256. 544.
259. 544.
260. 544.
261. 546.
262. 546.
263. 544.
264. 543.
265. 546.
266. 546.
268. 549.5
269. 545.
270. 551.
271. 551.
273. 540.
274. 548.
275. 554.
278. 555.
279. 555.
281. 549.5
282. 551.
283. 553.5
284. 546.5
285. 543.
361. 548.
362. 548.
363. 559.
364. 567.
365. 574.5
366. 561.
367. 563.
368. 560.
371. 559.
372. 558.
373. 560.
374. 560.
375. 563.
376. 563.
377. 557.5
378. 559.
380. 563.
381. 557.5
382. 560.
383. 560.
384. 560.
387. 559.
388. 559.
389. 559.
392. 560.
393. 560.
394. 559.
395. 559.5
396. 560.
397. 560.
398. 561.
399. 560.5
400. 560.5
401. 564.
403. 558.
404. 558.
407. 564.
408. 564.
409. 561.
410. 561.
411. 561.
412. 561.
413. 561.5
416. 560.5
417. 563.
417. 561.
418. 562.5
420. 565.5
425. 563.
426. 563.
427. 563.
428. 563.
430. 563.
431. 563.
435. 563.
436. 563.
439. 563.
440. 563.
441. 564.
442. 564.
449. 568.
453. 568.
454. 563.
457. 567.
461. 566.
465. 568.
473. 575.
478. 571.
479. 571.
481. 566.
482. 566.
484. 570.
488. 565.5
489. 568.
493. 574.
497. 572.
498. 572.
504. 576.
505. 573.
506. 575.
507. 574.
508. 571.
509. 573.5
510. 575.
511. 571.
512. 571.
513. 575.
514. 575.
515. 575.
516. 577.5
516. 575.
517. 572.
518. 574.
520. 575.
521. 575.
522. 576.
522. 572.
523. 572.
524. 575.
525. 576.
526. 578.5
527. 578.5
528. 576.
529. 577.
529. 575.
530. 577.
531. 577.
532. 578.
533. 576.5
534. 577.5
535. 576.
536. 579.
537. 578.
538. 578.5
539. 580.
540. 580.
541. 577.
542. 576.5
543. 580.
544. 580.
545. 575.
546. 580.
547. 580.
548. 580.
549. 578.
550. 578.
551. 580.
552. 580.
553. 580.
554. 579.
555. 579.
556. 579.5
557. 582.
558. 582.5
559. 580.5
560. 581.
561. 580.5
562. 583.
563. 581.
564. 584.
565. 582.
566. 581.5
568. 584.5
569. 583.
570. 583.
571. 581.
572. 581.5
573. 583.5
574. 584.
575. 584.
576. 581.
577. 586.
578. 585.
579. 585.
580. 587.
581. 583.
582. 583.
583. 583.
584. 583.
585. 587.
586. 586.5
587. 586.
588. 585.
589. 587.
590. 585.5
591. 584.
592. 586.
593. 583.
594. 587.
595. 587.
596. 587.
597. 588.
598. 588.
599. 588.
600. 588.
601. 591.
602. 591.
603. 589.5
604. 591.
605. 588.5
606. 592.
607. 588.5
608. 588.5
609. 589.
610. 589.
611. 589.5
612. 589.5
613. 590.
614. 588.
615. 590.
616. 588.
617. 594.
618. 593.
619. 591.
620. 590.5
621. 589.5
622. 596.
623. 596.
624. 596.
625. 591.
626. 591.
627. 594.
628. 591.
629. 595.
630. 592.
631. 593.
632. 594.
633. 590.5
634. 599.
635. 599.
636. 598.
637. 595.
638. 595.
639. 595.
640. 595.