#Magnetic Field (Oe),Voltage (V) 
-50.00, 0.005257 
-48.00, 0.005257 
-46.00, 0.005256 
-44.00, 0.005257 
-42.00, 0.005257 
-40.00, 0.005257 
-38.00, 0.005257 
-36.00, 0.005257 
-34.00, 0.005258 
-32.00, 0.005257 
-30.00, 0.005258 
-28.00, 0.005258 
-26.00, 0.005258 
-24.00, 0.005258 
-22.00, 0.005259 
-20.00, 0.005260 
-18.00, 0.005261 
-16.00, 0.005261 
-14.00, 0.005263 
-12.00, 0.005264 
-10.00, 0.005267 
-8.00, 0.005271 
-6.00, 0.005278 
-4.00, 0.005287 
-2.00, 0.005302 
-6.22E-15, 0.005324 
2.00, 0.005353 
4.00, 0.005370 
6.00, 0.005372 
8.00, 0.005352 
10.00, 0.005325 
12.00, 0.005307 
14.00, 0.005292 
16.00, 0.005282 
18.00, 0.005275 
20.00, 0.005271 
22.00, 0.005268 
24.00, 0.005265 
26.00, 0.005264 
28.00, 0.005263 
30.00, 0.005262 
32.00, 0.005261 
34.00, 0.005260 
36.00, 0.005259 
38.00, 0.005259 
40.00, 0.005259 
42.00, 0.005258 
44.00, 0.005258 
46.00, 0.005257 
48.00, 0.005257 
50.00, 0.005256 
52.00, 0.005256 
52.00, 0.005256 
50.00, 0.005256 
48.00, 0.005257 
46.00, 0.005256 
44.00, 0.005257 
42.00, 0.005258 
40.00, 0.005258 
38.00, 0.005258 
36.00, 0.005259 
34.00, 0.005260 
32.00, 0.005260 
30.00, 0.005261 
28.00, 0.005262 
26.00, 0.005264 
24.00, 0.005265 
22.00, 0.005267 
20.00, 0.005270 
18.00, 0.005274 
16.00, 0.005281 
14.00, 0.005292 
12.00, 0.005308 
10.00, 0.005327 
8.00, 0.005354 
6.00, 0.005372 
4.00, 0.005370 
2.00, 0.005352 
-6.22E-15, 0.005324 
-2.00, 0.005301 
-4.00, 0.005287 
-6.00, 0.005278 
-8.00, 0.005271 
-10.00, 0.005267 
-12.00, 0.005265 
-14.00, 0.005263 
-16.00, 0.005261 
-18.00, 0.005260 
-20.00, 0.005259 
-22.00, 0.005259 
-24.00, 0.005258 
-26.00, 0.005258 
-28.00, 0.005257 
-30.00, 0.005257 
-32.00, 0.005257 
-34.00, 0.005257 
-36.00, 0.005256 
-38.00, 0.005255 
-40.00, 0.005256 
-42.00, 0.005255 
-44.00, 0.005255 
-46.00, 0.005255 
-48.00, 0.005255 
-50.00, 0.005256 
