1. 223.
2. 223.
3. 224.
4. 224.
5. 224.
6. 224.
7. 224.
8. 224.
9. 223.
10. 223.
11. 223.
12. 223.
13. 224.
14. 224.
15. 224.
16. 224.
17. 224.
18. 224.
19. 224.
20. 224.
21. 224.
22. 224.
23. 224.
24. 224.
25. 224.
26. 224.
27. 224.
28. 224.
29. 223.
30. 225.5
31. 225.5
32. 226.5
32. 224.
33. 223.
34. 223.5
35. 224.
36. 224.5
37. 226.
38. 227.
38. 224.5
39. 224.
40. 226.5
41. 224.
42. 224.
43. 227.
44. 227.
45. 231.
46. 225.
47. 225.
48. 228.
49. 227.
50. 227.
51. 225.
52. 225.
53. 226.
54. 225.
55. 227.
56. 227.
58. 226.5
59. 225.5
60. 226.
60. 224.
61. 227.
62. 227.
63. 227.
64. 222.
65. 227.
66. 227.
67. 227.
68. 227.5
69. 227.
70. 227.
71. 227.
72. 227.
73. 227.5
74. 228.
75. 228.
76. 228.
77. 228.
78. 228.
79. 228.
80. 228.
81. 227.
82. 227.
83. 227.
84. 227.
85. 227.
86. 228.
87. 228.
88. 228.
89. 228.
90. 228.
91. 228.
92. 228.
93. 228.
94. 228.
95. 228.
96. 228.
97. 227.5
98. 228.
99. 228.
100. 228.
101. 229.5
102. 229.5
103. 229.
104. 232.
104. 227.
105. 228.
106. 228.
107. 228.
108. 228.
109. 231.
110. 231.
111. 228.
112. 228.
113. 231.
114. 231.
115. 230.5
117. 231.
118. 231.
119. 231.
120. 231.
121. 228.
122. 228.
123. 231.
124. 230.
125. 228.5
126. 230.
127. 229.5
128. 228.
129. 231.
130. 231.
131. 231.
132. 231.
133. 231.
134. 231.
135. 231.
136. 231.
137. 231.
138. 231.
139. 231.
140. 231.5
141. 232.
142. 232.
143. 232.
144. 232.
145. 231.
146. 231.
147. 231.
149. 231.
150. 231.
151. 231.5
152. 232.
153. 231.
154. 231.
155. 231.
156. 232.
157. 233.5
158. 234.
161. 232.
162. 232.
163. 232.
164. 232.
165. 233.
166. 232.
167. 236.
169. 231.
170. 227.
171. 232.
172. 232.5
173. 235.
174. 231.
176. 235.
177. 232.
178. 232.
179. 232.
180. 232.
182. 234.
183. 233.5
184. 233.5
186. 233.
187. 233.
188. 233.
190. 233.
192. 233.
193. 233.5
194. 233.5
195. 230.
196. 230.
197. 234.
198. 235.
199. 234.5
201. 234.
202. 233.5
203. 233.
204. 234.
205. 234.5
205. 232.
206. 232.5
207. 233.5
209. 235.
210. 235.
211. 235.
212. 235.
213. 236.
214. 235.
215. 235.
216. 235.
217. 235.
218. 236.
219. 235.
220. 235.
221. 239.
222. 239.
223. 235.
224. 235.
225. 239.
225. 237.
226. 239.
227. 237.
227. 235.
228. 235.
229. 236.
230. 236.
231. 236.
232. 236.
233. 236.
234. 236.
235. 236.
236. 236.
237. 239.
238. 239.
239. 236.
240. 236.
241. 238.
242. 238.
243. 237.
244. 238.
245. 239.
246. 235.
246. 232.
247. 239.
248. 240.
249. 239.
250. 239.
251. 239.
253. 240.
254. 240.
255. 239.
256. 239.
257. 239.
258. 240.
259. 240.
260. 240.
261. 239.
262. 240.
263. 240.
264. 240.
265. 239.
267. 241.
268. 241.5
269. 242.5
270. 243.
271. 243.
272. 243.
273. 244.
274. 244.
275. 244.
276. 244.
277. 244.
278. 244.
279. 244.
280. 244.
281. 246.5
282. 247.
283. 244.
284. 244.
285. 247.
286. 247.
287. 247.
288. 248.
289. 249.
290. 250.
291. 252.
292. 248.5
293. 250.5
295. 249.5
296. 250.5
296. 248.
297. 252.
298. 252.
299. 248.
300. 248.
301. 249.5
302. 249.
302. 247.
303. 247.
304. 252.
305. 257.
306. 255.
310. 254.5
310. 251.
311. 256.