358. 456.
359. 460.
360. 460.
361. 464.5
362. 464.
363. 462.
364. 461.5
366. 456.
367. 456.
368. 459.
369. 459.
370. 459.
371. 455.
372. 455.
373. 455.
374. 455.
375. 454.
376. 454.
377. 452.
378. 455.
379. 454.
380. 453.
381. 452.
382. 451.
382. 448.5
383. 452.
384. 451.
385. 451.
386. 451.
387. 448.
388. 448.
389. 448.
390. 448.
391. 448.
392. 448.
393. 447.
394. 447.
395. 446.
396. 446.
397. 444.
398. 444.
399. 444.
400. 443.
401. 443.
402. 443.
403. 443.
404. 443.
405. 442.
406. 441.
407. 442.
408. 442.
409. 439.
410. 440.
411. 440.
412. 440.
413. 440.
414. 440.
415. 439.
416. 439.
417. 439.
418. 439.
419. 439.
420. 439.
421. 437.5
422. 437.
423. 436.
424. 436.
424. 434.
425. 436.
426. 436.
427. 436.
428. 436.
429. 435.
430. 435.
431. 435.
432. 435.
433. 435.
434. 435.
435. 435.
436. 435.
437. 434.
438. 434.
439. 434.
440. 434.
441. 434.
442. 433.
443. 432.
444. 435.
445. 432.
446. 432.
447. 432.
448. 431.
449. 431.
450. 431.
451. 431.
452. 432.
453. 432.
454. 432.
455. 432.
456. 432.
457. 431.
458. 431.
459. 432.
460. 432.
461. 431.
462. 431.
463. 431.
464. 431.
465. 431.
466. 431.
467. 431.
468. 431.
469. 432.
470. 431.
471. 431.
472. 431.
473. 431.
474. 431.
475. 431.
476. 431.
477. 431.
478. 431.
479. 431.
480. 431.
481. 432.
482. 431.
483. 431.
484. 431.
485. 432.
486. 431.
487. 431.
488. 431.
489. 431.
490. 431.
491. 431.
492. 432.
493. 431.
494. 431.
495. 431.
496. 431.
497. 431.
498. 431.
499. 431.
500. 431.
501. 431.
502. 431.
503. 431.
504. 431.
505. 431.
506. 431.
507. 431.
508. 431.
509. 431.
510. 431.
511. 431.
512. 431.
513. 431.
514. 431.
515. 431.
516. 431.
517. 431.5
518. 431.5
519. 432.
520. 432.
521. 431.
522. 431.
523. 431.
524. 431.
525. 432.
526. 432.
527. 432.
528. 432.
529. 431.
530. 432.
531. 432.
532. 432.
533. 432.
534. 432.
535. 432.
536. 432.
537. 431.
538. 431.
539. 434.
540. 433.
541. 432.
542. 432.
543. 432.
544. 432.
545. 432.
546. 432.
547. 432.
548. 432.
549. 433.
550. 433.
551. 433.
552. 433.
553. 432.
554. 432.
555. 432.
556. 432.
557. 432.
558. 435.
559. 435.
560. 432.
561. 434.5
562. 435.
562. 433.
563. 434.
564. 433.
565. 434.5
566. 432.5
567. 434.
567. 432.
568. 434.5
568. 432.
569. 434.
570. 434.
571. 434.
572. 434.
573. 435.
574. 435.
575. 435.
576. 435.
577. 435.
578. 435.
579. 435.
580. 435.
581. 435.
582. 435.
583. 435.
584. 436.
585. 435.
586. 435.
587. 435.
588. 435.
589. 435.
590. 435.
591. 435.
592. 435.
593. 435.5
594. 435.5
595. 435.5
596. 436.
597. 436.
598. 436.
599. 436.
600. 436.
601. 436.
602. 436.
603. 436.
604. 436.
605. 436.
606. 436.
607. 436.
608. 436.
609. 437.
610. 437.
611. 437.
612. 438.
613. 438.
614. 439.
615. 436.
616. 436.
617. 438.
618. 437.5
619. 437.5
620. 437.
621. 437.
622. 437.
623. 437.
624. 437.
625. 438.5
626. 439.
627. 436.
628. 436.
629. 439.
630. 439.
631. 439.
632. 439.
633. 439.
634. 439.
635. 437.
636. 438.
637. 439.
638. 439.
639. 439.
640. 439.