481. 639.
482. 639.
483. 639.
484. 639.
485. 638.5
486. 638.
486. 636.
487. 637.5
488. 637.
489. 636.
490. 636.
491. 635.
492. 635.
493. 635.
494. 635.
495. 635.5
496. 635.5
497. 632.
498. 632.
499. 632.
500. 631.
501. 632.
502. 632.
503. 631.
504. 631.
505. 631.
506. 631.
507. 631.
508. 631.
509. 630.
510. 630.5
511. 630.5
511. 628.
512. 628.5
513. 631.
514. 631.
515. 629.5
516. 628.
517. 628.
518. 628.
519. 628.
520. 628.
521. 626.5
522. 627.
523. 627.5
524. 628.
525. 626.
526. 626.
527. 626.
528. 626.5
529. 625.
530. 625.
531. 625.5
532. 625.
533. 627.
534. 625.
535. 625.
536. 625.
537. 623.
538. 623.
539. 624.
540. 625.
541. 624.
542. 624.
543. 624.
544. 624.
545. 623.
546. 623.
547. 624.
548. 624.
549. 622.5
550. 623.5
551. 623.
552. 624.
553. 624.
554. 623.
555. 623.
556. 623.
557. 624.
558. 624.
559. 624.
560. 624.
561. 623.
562. 623.
563. 623.
564. 624.
565. 623.5
566. 624.
567. 624.
568. 624.
569. 623.
570. 623.
571. 623.
572. 623.
573. 627.
574. 623.
575. 624.
576. 623.
577. 624.
578. 624.
579. 624.
580. 624.
581. 623.
582. 626.5
583. 627.
584. 625.5
585. 624.
586. 624.
587. 624.
588. 624.
589. 624.
590. 624.
591. 624.
592. 624.
593. 624.
594. 624.5
595. 624.
596. 624.
597. 624.
598. 624.
599. 627.
600. 627.
601. 624.5
602. 625.
603. 626.5
604. 627.
605. 625.
606. 626.
607. 626.
608. 626.5
609. 627.
610. 627.
611. 627.
612. 627.
613. 626.
614. 626.
615. 626.
616. 626.
617. 627.
618. 627.
619. 627.
620. 627.
621. 630.
622. 628.
623. 628.
624. 628.
625. 628.
626. 628.
627. 628.
628. 628.
629. 628.
630. 628.
631. 628.
632. 628.
633. 628.5
634. 628.
635. 631.
636. 631.
637. 628.
638. 628.
639. 631.
640. 630.5