1. 560.
2. 560.
3. 560.
4. 560.
5. 560.
6. 559.
7. 559.
8. 559.
9. 559.
10. 559.
11. 559.
12. 560.
13. 559.
14. 559.
15. 559.
16. 559.
17. 558.5
18. 558.
19. 558.
20. 558.
21. 559.
22. 559.
23. 559.
24. 559.
25. 558.5
26. 558.
27. 558.
28. 558.
29. 557.5
30. 558.
31. 557.5
32. 557.5
33. 559.
34. 559.
37. 558.5
38. 557.
39. 557.
40. 558.
41. 557.
42. 557.
43. 558.
44. 558.
45. 558.5
45. 556.
46. 558.
47. 558.
47. 556.
48. 556.
49. 558.
50. 557.
51. 557.
52. 556.5
53. 556.
54. 556.
55. 556.
56. 556.
57. 557.
58. 557.
59. 557.
60. 557.
61. 559.
62. 556.
63. 556.
64. 556.
65. 555.
66. 556.
67. 556.
68. 556.
71. 556.5
72. 555.
73. 556.
74. 556.
75. 556.
76. 555.
77. 552.
79. 555.
80. 556.5
81. 556.
82. 556.
83. 552.
84. 560.
84. 552.
85. 556.
86. 556.
87. 556.
88. 555.5
89. 556.
90. 556.
91. 556.
92. 556.
93. 556.
94. 556.
95. 556.
96. 556.
97. 556.
98. 556.
99. 556.
100. 556.
101. 556.
102. 556.
103. 556.
104. 555.
105. 556.
106. 556.
107. 556.
108. 556.
109. 557.
110. 557.
111. 557.
112. 557.
113. 557.
114. 557.
115. 558.
116. 558.
117. 558.
118. 556.
119. 556.
120. 555.5
121. 559.
122. 559.
123. 556.
124. 556.
125. 557.
126. 557.
127. 558.
128. 560.
129. 558.
130. 558.
131. 558.
132. 558.
133. 558.
134. 558.
135. 558.
136. 558.
137. 559.
138. 559.
139. 559.
140. 559.
141. 560.
142. 560.
143. 560.
144. 560.
145. 560.
146. 560.
147. 560.
148. 560.
149. 560.
150. 560.
151. 560.
152. 560.
153. 561.5
154. 561.5
155. 561.
156. 561.5
157. 563.
158. 563.
159. 563.
160. 563.
161. 563.
162. 563.
163. 563.
164. 563.
165. 563.
166. 563.
167. 564.
168. 564.
169. 564.
170. 564.
171. 563.
172. 563.
173. 564.
174. 564.
175. 564.
176. 564.
177. 566.
178. 566.
179. 566.
180. 566.
181. 567.
182. 567.
183. 567.
184. 567.
185. 568.
186. 568.
187. 568.
188. 568.
189. 568.
190. 569.
191. 568.5
192. 570.5
193. 571.
194. 571.
195. 571.
196. 571.
197. 571.
199. 572.5
200. 573.
201. 572.
202. 572.
203. 575.
204. 575.
205. 575.
206. 575.
207. 575.
208. 575.
211. 578.
211. 576.
212. 579.
212. 576.
213. 582.
214. 579.
215. 579.
216. 579.
217. 580.
218. 580.
219. 580.
220. 580.
221. 580.5
222. 581.5
223. 582.
224. 582.
225. 583.
226. 583.
227. 583.
228. 583.
229. 583.
230. 583.
231. 584.
232. 584.
233. 587.
234. 587.
235. 587.
236. 587.
237. 587.
238. 587.5
239. 587.
240. 587.5
241. 589.
242. 589.
243. 590.
244. 591.
244. 589.
245. 591.
246. 591.
247. 591.
248. 594.
249. 592.
250. 592.
251. 595.
252. 595.
253. 595.
254. 595.
255. 595.
256. 595.
257. 596.
258. 596.
259. 599.
260. 599.
261. 599.
262. 599.
263. 599.
264. 600.
265. 599.
266. 601.
267. 600.5
268. 600.
269. 600.5
270. 603.
271. 603.
272. 604.
273. 598.
274. 602.
275. 605.
276. 611.
277. 609.5
278. 599.
279. 596.