1. 524.
2. 524.
3. 524.
4. 523.
5. 521.5
6. 522.5
7. 523.
8. 523.
9. 523.5
10. 523.
11. 523.5
12. 524.
13. 524.
14. 523.
15. 523.
16. 523.
17. 523.
18. 523.
19. 523.
20. 523.
21. 523.
22. 523.
23. 523.
24. 523.
25. 523.
26. 523.
27. 522.
28. 522.
29. 522.
30. 522.
31. 522.
32. 522.
33. 522.
34. 522.
35. 522.
36. 522.
37. 522.5
38. 522.
39. 522.
40. 521.
41. 521.
42. 522.
43. 522.5
44. 522.
45. 521.5
46. 521.
47. 521.5
48. 521.5
49. 522.
50. 522.
51. 521.
52. 521.
53. 520.5
54. 520.5
55. 520.
56. 520.
57. 521.
58. 521.
59. 521.
60. 521.
61. 523.
62. 523.
63. 520.
64. 520.
65. 519.
66. 521.
67. 521.
68. 521.
69. 522.
70. 521.
71. 521.
72. 520.5
73. 521.
74. 521.
75. 521.
76. 521.
77. 520.
78. 520.
79. 520.
80. 520.
81. 521.
82. 521.
83. 521.
84. 524.
85. 516.
86. 520.
87. 523.
88. 520.
89. 519.
90. 519.
91. 520.
92. 520.
93. 519.5
94. 520.
95. 520.
96. 520.
97. 521.
98. 521.
99. 521.
100. 521.
101. 520.
102. 520.
103. 520.
104. 520.
105. 519.
106. 520.
107. 520.
108. 522.5
109. 522.
110. 520.5
111. 525.
112. 525.
113. 521.5
114. 521.
115. 521.
116. 520.5
117. 521.
118. 522.
119. 522.
120. 521.
121. 521.5
122. 522.
123. 522.
124. 521.5
125. 523.
126. 523.
127. 523.
128. 520.
129. 521.
130. 519.
131. 523.
131. 518.
132. 523.
133. 521.
134. 521.
137. 522.
138. 521.5
141. 523.5
142. 523.
143. 523.
144. 524.
145. 521.5
146. 522.
147. 523.
148. 520.
149. 523.
150. 524.
151. 524.
152. 524.
153. 524.
154. 524.
155. 524.
156. 529.5
157. 526.
158. 525.5
159. 526.
160. 525.5
161. 525.5
162. 526.
163. 525.5
164. 525.
165. 527.
166. 527.
167. 527.
168. 528.
169. 527.
170. 527.
173. 528.
174. 528.
175. 528.
176. 528.
177. 530.
178. 530.
179. 531.
180. 528.
181. 529.5
182. 529.5
183. 528.
184. 533.
184. 531.
185. 531.
186. 528.
187. 532.
188. 532.
189. 531.5
190. 532.
192. 532.
193. 534.
194. 534.
195. 535.
196. 535.
197. 535.
198. 535.
199. 536.
200. 536.
201. 536.
202. 536.
203. 536.
204. 536.
205. 538.
206. 538.
207. 538.
208. 538.
209. 539.
210. 539.
211. 539.
212. 539.
213. 540.
214. 539.
215. 541.
216. 543.
217. 541.
218. 541.
219. 541.5
220. 542.
221. 544.
222. 544.
223. 545.5
224. 546.
225. 545.
226. 545.
227. 546.
228. 546.
229. 547.
230. 547.
231. 547.
232. 547.
233. 549.
234. 549.
235. 549.
236. 549.
237. 548.
238. 550.
239. 551.
240. 551.
241. 551.
242. 551.
243. 552.
244. 552.
245. 553.
246. 553.5
247. 554.
248. 553.5
249. 555.
250. 555.
251. 555.
252. 555.
253. 556.
254. 556.
255. 556.
256. 556.
257. 559.
258. 559.
259. 563.
260. 559.
261. 559.
262. 560.
263. 560.
264. 563.
264. 560.
265. 559.
266. 560.
267. 563.
268. 563.
269. 564.
270. 564.
271. 565.
272. 565.
273. 564.
274. 559.
275. 567.
276. 567.
277. 571.5
277. 569.
278. 564.
279. 563.