1. 455.
2. 455.
3. 455.
4. 455.
5. 455.
6. 455.
7. 455.
8. 455.
9. 455.
10. 455.
12. 454.5
12. 452.
13. 453.
14. 456.
15. 456.
16. 458.
17. 455.
18. 454.
19. 454.
20. 453.5
21. 455.5
22. 455.
23. 455.
24. 455.
25. 453.
26. 453.
27. 453.5
28. 454.
29. 455.
30. 455.
31. 455.
32. 455.
33. 453.
34. 453.
35. 453.
36. 454.
37. 452.
38. 452.
39. 455.
40. 455.
43. 453.5
44. 452.5
45. 455.
46. 455.
47. 452.
48. 452.
51. 452.5
52. 455.
53. 453.
54. 453.
55. 453.
56. 453.
57. 452.
58. 451.
59. 451.
60. 452.
61. 452.
62. 452.
63. 452.
64. 451.
65. 452.
66. 452.
67. 455.
68. 455.
69. 454.
70. 453.
71. 453.
72. 453.
73. 453.
74. 453.
75. 453.
76. 453.
77. 452.
78. 452.
79. 452.
80. 452.
81. 454.
82. 453.
83. 453.
84. 453.
85. 454.
86. 454.
87. 453.
88. 453.
89. 453.
90. 453.
91. 454.
92. 454.
93. 452.
94. 452.
95. 452.
96. 452.
97. 452.
98. 452.
99. 452.
100. 452.
101. 452.
102. 452.
103. 455.
104. 455.
105. 453.
106. 453.
107. 453.
108. 453.
109. 454.
110. 453.
111. 453.
112. 452.
113. 452.
114. 452.
115. 452.
116. 452.
117. 453.
118. 453.
119. 453.5
120. 453.5
121. 455.
122. 455.
124. 451.
125. 455.
126. 455.
127. 452.
128. 452.
129. 455.
130. 455.
131. 455.
132. 458.
133. 453.
134. 453.
135. 455.
136. 455.
137. 455.
138. 455.
139. 455.
141. 455.
142. 455.
143. 455.
144. 455.
145. 455.
146. 455.
147. 455.
148. 455.
150. 455.
151. 455.
152. 455.
153. 455.
154. 456.
155. 456.
156. 459.
157. 455.5
158. 456.
159. 456.
160. 456.
161. 454.
163. 457.
164. 457.5
165. 459.
166. 459.
167. 459.
168. 459.
169. 459.
170. 459.
171. 459.
172. 461.
173. 459.
174. 459.
175. 459.
176. 459.
177. 459.
178. 460.
179. 460.
180. 459.5
182. 461.5
183. 461.
184. 461.5
185. 461.5
186. 461.5
187. 461.5
188. 461.5
189. 463.5
190. 463.
192. 464.
193. 463.
194. 463.
195. 467.
196. 464.
197. 464.
198. 467.
199. 465.
200. 466.
201. 467.
202. 467.
203. 467.
204. 467.
205. 468.
206. 468.
207. 467.
208. 467.
209. 469.
210. 469.
211. 469.
212. 469.
213. 470.
214. 470.
215. 469.
216. 470.
217. 470.
218. 471.
219. 471.
220. 475.
222. 470.
223. 472.
224. 473.
225. 475.
226. 475.
227. 475.
228. 475.
229. 479.
230. 478.5
231. 476.
232. 476.
233. 476.
234. 476.
235. 479.
236. 479.
237. 477.
238. 477.
239. 478.
240. 478.
241. 479.
242. 479.
243. 480.
244. 480.
245. 479.
246. 482.
247. 483.
248. 484.
249. 487.
250. 483.5
251. 484.
252. 484.
253. 485.5
254. 486.
255. 487.
256. 488.
257. 491.
258. 491.
260. 486.
261. 486.
263. 492.
264. 490.
265. 488.
266. 492.
267. 492.
268. 491.
269. 492.
270. 492.
271. 491.
272. 491.
273. 493.5
274. 494.
275. 494.
276. 493.
277. 493.5
278. 497.
279. 496.
280. 508.
280. 502.
280. 500.