1. -16.
2. -16.
3. -15.
4. -21.
5. -15.5
6. -16.
7. -17.
8. -17.
9. -17.
10. -16.
11. -16.
12. -16.
13. -15.
14. -16.5
15. -16.
16. -16.
17. -14.5
18. -14.5
19. -17.
20. -17.
21. -14.
22. -16.
23. -17.5
24. -16.
25. -16.5
26. -15.5
27. -14.
28. -15.5
29. -14.
30. -14.
31. -14.
32. -22.
33. -16.
34. -15.
35. -15.
36. -15.
37. -19.5
38. -13.
39. -12.
40. -12.
41. -13.
42. -13.5
43. -13.5
44. -14.
45. -15.
46. -13.5
47. -15.
48. -15.
49. -14.
50. -14.
51. -14.
52. -14.
53. -14.5
54. -13.5
55. -10.
56. -11.
57. -14.
58. -16.
59. -16.
60. -16.
61. -11.
62. -11.
63. -10.5
64. -11.5
65. -12.
66. -12.
67. -12.
68. -12.
69. -10.
70. -10.5
71. -11.5
72. -13.
73. -13.5
74. -12.5
75. -11.
76. -8.5
77. -11.
78. -11.
79. -11.
80. -9.
81. -11.
82. -11.
83. -8.
84. -8.
85. -9.
86. -10.
87. -11.
88. -12.
89. -7.5
90. -8.
91. -10.5
92. -6.25
93. -9.
94. -8.
95. -8.
96. -11.
97. -8.
98. -8.
99. -10.
100. -10.5
101. -9.5
102. -6.
103. -5.
104. -13.
105. -5.
106. -5.
107. -4.
108. -4.
109. -5.
110. -5.
111. -2.
112. -2.5
113. -5.
114. 3.
115. -5.5
116. -8.
117. -6.
118. -4.25
119. -2.
120. -2.
121. -1.5
122. -1.75
123. -0.5
124. 0.5
125. 0.5
126. 2.
127. 1.
128. 3.
129. 7.
130. 2.
131. -1.
132. 1.
133. 4.5
134. 6.
135. 3.
136. 3.
137. 0.
138. 2.5
139. 2.
140. 7.5
141. 4.
142. 7.
143. 7.
144. 11.5
145. 16.
146. 8.
147. 8.
148. 8.
149. 8.
150. 9.
151. 12.
152. 5.
153. 14.
154. 14.5
155. 15.
156. 14.5
157. 14.
158. 15.5
159. 13.
160. 12.
161. 16.
162. 16.
163. 15.
164. 16.
165. 17.5
166. 18.
168. 15.
169. 16.5
170. 15.
171. 16.
172. 16.33333333333337
480. 16.666666666666742
481. 16.
482. 16.
484. 14.
487. 12.
488. 13.5
490. 16.
491. 15.
492. 18.
493. 17.25
494. 18.
495. 15.5
497. 17.
498. 17.
499. 16.5
500. 16.5
501. 17.
502. 16.5
503. 14.
504. 14.5
505. 14.
506. 13.
507. 13.
508. 12.
509. 11.
510. 13.
511. 12.5
512. 12.5
513. 13.
514. 12.5
515. 9.
516. 12.
517. 16.
518. 13.5
519. 13.
520. 14.
521. 10.5
522. 11.
523. 11.
524. 11.
525. 11.
526. 8.
527. 8.
528. 11.
529. 11.
530. 9.5
531. 9.
532. 9.
533. 8.5
534. 10.
535. 10.
536. 9.
537. 19.
538. 11.
539. 11.
540. 11.
541. 10.
542. 10.
543. 10.
544. 10.
545. 11.
546. 11.
547. 11.
548. 11.
549. 12.
550. 11.
551. 11.
552. 7.
553. 7.
554. 8.5
555. 7.
556. 10.
557. 12.
558. 12.
559. 12.
560. 12.
561. 9.5
562. 8.
563. 11.
564. 12.
565. 11.
566. 10.
567. 10.
568. 12.
569. 11.
570. 10.
571. 10.
572. 10.
573. 11.
574. 13.
575. 12.
576. 12.
577. 12.
578. 12.
579. 12.
580. 12.
581. 12.
582. 12.5
583. 12.
584. 12.
585. 11.
586. 17.5
587. 16.5
588. 9.5
589. 11.
590. 6.5
591. 15.5
592. 20.75
593. 21.
594. 21.554794520547944
595. 23.109589041096
596. 21.664383561643945
597. 21.219178082191775
598. 22.273972602739832
599. 22.328767123287662
600. 21.883561643835606
601. 21.43835616438355
602. 20.993150684931493
603. 21.54794520547955
604. 21.85273972602738
605. 22.657534246575324
606. 22.21232876712338
607. 23.267123287671325
608. 22.821917808219155
609. 23.8767123287671
610. 23.931506849315156
611. 23.986301369862986
612. 24.041095890411043
613. 24.095890410958873
614. 24.650684931506817
615. 24.205479452054874
616. 24.260273972602818
617. 22.315068493150648
618. 24.369863013698705
619. 24.92465753424665
620. 25.479452054794592
621. 25.534246575342422
622. 25.58904109589048
623. 25.643835616438423
624. 25.698630136986367
625. 26.253424657534197
626. 25.808219178082254
627. 24.863013698630198
628. 28.91780821917814
629. 27.97260273972597
630. 28.02739726027403
631. 26.082191780821972
632. 27.136986301369916
633. 28.69178082191786
634. 29.246575342465803
635. 29.301369863013633
636. 29.35616438356169
637. 28.410958904109634
638. 28.465753424657578
639. 28.52054794520552
640. 28.575342465753465