#Magnetic Field (Oe),Voltage (V) 
-50.00, 0.195818 
-49.00, 0.195816 
-48.00, 0.195815 
-47.00, 0.195813 
-46.00, 0.195812 
-45.00, 0.195809 
-44.00, 0.195807 
-43.00, 0.195804 
-42.00, 0.195803 
-41.00, 0.195799 
-40.00, 0.195796 
-39.00, 0.195793 
-38.00, 0.195790 
-37.00, 0.195785 
-36.00, 0.195783 
-35.00, 0.195779 
-34.00, 0.195774 
-33.00, 0.195769 
-32.00, 0.195764 
-31.00, 0.195758 
-30.00, 0.195751 
-29.00, 0.195744 
-28.00, 0.195734 
-27.00, 0.195727 
-26.00, 0.195715 
-25.00, 0.195705 
-24.00, 0.195688 
-23.00, 0.195674 
-22.00, 0.195650 
-21.00, 0.195628 
-20.00, 0.195596 
-19.00, 0.195567 
-18.00, 0.195531 
-17.00, 0.195471 
-16.00, 0.195420 
-15.00, 0.195339 
-14.00, 0.195272 
-13.00, 0.195175 
-12.00, 0.195105 
-11.00, 0.194998 
-10.00, 0.194905 
-9.00, 0.194743 
-8.00, 0.194639 
-7.00, 0.194494 
-6.00, 0.194390 
-5.00, 0.194247 
-4.00, 0.194088 
-3.00, 0.193977 
-2.00, 0.193752 
-1.00, 0.193632 
-6.22E-15, 0.193432 
1.00, 0.193313 
2.00, 0.193127 
3.00, 0.193036 
4.00, 0.192857 
5.00, 0.192711 
6.00, 0.192526 
7.00, 0.192389 
8.00, 0.192165 
9.00, 0.192010 
10.00, 0.191717 
11.00, 0.191341 
12.00, 0.191178 
13.00, 0.190915 
14.00, 0.190756 
15.00, 0.190542 
16.00, 0.190392 
17.00, 0.190189 
18.00, 0.190048 
19.00, 0.189863 
20.00, 0.189730 
21.00, 0.189597 
22.00, 0.189503 
23.00, 0.189406 
24.00, 0.189336 
25.00, 0.189255 
26.00, 0.189200 
27.00, 0.189151 
28.00, 0.189087 
29.00, 0.189043 
30.00, 0.188990 
31.00, 0.188950 
32.00, 0.188808 
33.00, 0.188773 
34.00, 0.188727 
35.00, 0.188696 
36.00, 0.188655 
37.00, 0.188625 
38.00, 0.188586 
39.00, 0.188558 
40.00, 0.188523 
41.00, 0.188499 
42.00, 0.188466 
43.00, 0.188443 
44.00, 0.188422 
45.00, 0.188394 
46.00, 0.188375 
47.00, 0.188351 
48.00, 0.188334 
49.00, 0.188313 
50.00, 0.188299 
51.00, 0.188281 
51.00, 0.188261 
50.00, 0.188241 
49.00, 0.188254 
48.00, 0.188274 
47.00, 0.188290 
46.00, 0.188314 
45.00, 0.188333 
44.00, 0.188360 
43.00, 0.188381 
42.00, 0.188405 
41.00, 0.188437 
40.00, 0.188461 
39.00, 0.188496 
38.00, 0.188523 
37.00, 0.188562 
36.00, 0.188591 
35.00, 0.188632 
34.00, 0.188664 
33.00, 0.188709 
32.00, 0.188743 
31.00, 0.188791 
30.00, 0.188829 
29.00, 0.188880 
28.00, 0.188921 
27.00, 0.188979 
26.00, 0.189028 
25.00, 0.189077 
24.00, 0.189150 
23.00, 0.189205 
22.00, 0.189287 
21.00, 0.189365 
20.00, 0.189470 
19.00, 0.189554 
18.00, 0.189701 
17.00, 0.189816 
16.00, 0.190022 
15.00, 0.190142 
14.00, 0.190318 
13.00, 0.190452 
12.00, 0.190650 
11.00, 0.190773 
10.00, 0.190916 
9.00, 0.191101 
8.00, 0.191242 
7.00, 0.191434 
6.00, 0.191566 
5.00, 0.191759 
4.00, 0.191891 
3.00, 0.192164 
2.00, 0.192254 
1.00, 0.192425 
-6.22E-15, 0.192548 
-1.00, 0.192711 
-2.00, 0.192828 
-3.00, 0.193150 
-4.00, 0.193273 
-5.00, 0.193409 
-6.00, 0.193598 
-7.00, 0.193715 
-8.00, 0.193865 
-9.00, 0.193990 
-10.00, 0.194139 
-11.00, 0.194247 
-12.00, 0.194400 
-13.00, 0.194503 
-14.00, 0.194633 
-15.00, 0.194723 
-16.00, 0.194846 
-17.00, 0.194928 
-18.00, 0.195028 
-19.00, 0.195103 
-20.00, 0.195158 
-21.00, 0.195240 
-22.00, 0.195286 
-23.00, 0.195343 
-24.00, 0.195388 
-25.00, 0.195723 
-26.00, 0.195734 
-27.00, 0.195746 
-28.00, 0.195755 
-29.00, 0.195765 
-30.00, 0.195771 
-31.00, 0.195780 
-32.00, 0.195785 
-33.00, 0.195790 
-34.00, 0.195795 
-35.00, 0.195801 
-36.00, 0.195805 
-37.00, 0.195809 
-38.00, 0.195814 
-39.00, 0.195817 
-40.00, 0.195820 
-41.00, 0.195823 
-42.00, 0.195826 
-43.00, 0.195828 
-44.00, 0.195831 
-45.00, 0.195833 
-46.00, 0.195836 
-47.00, 0.195838 
-48.00, 0.195841 
-49.00, 0.195842 
-50.00, 0.195844 
