-319. 0.46556942600286716 0.5 0.19688782819016395
-318. 0.3678104649907055 0.5 0.19668567817344745
-317. 0.4663800279710633 0.5 0.19688970167043965
-316. 0.5649285740945338 0.5 0.1971415900848859
-315. 0.7616308737857755 0.5 0.1977868249339235
-314. 0.7619626157708349 0.5 0.19778807272210025
-313. 0.5659238000496003 0.5 0.19714437759421832
-312. 0.5662135083208849 0.5 0.19714518994715366
-311. 0.5664821997352822 0.5 0.19714594373664118
-310. 0.5667298742928146 0.5 0.19714663887943507
-309. 0.5669565319934372 0.5 0.19714727529880208
-308. 0.5671621728372396 0.5 0.1971478529245219
-307. 0.17464771512538568 0.5 0.19642537801833165
-306. 0.17481132225539098 0.5 0.19642552014343564
-305. 0.1749539125285312 0.5 0.19642564411969826
-304. 0.17507548594480646 0.5 0.19642574990245656
-303. 0.3715255833535564 0.5 0.19669249691639656
-302. 0.371605123056057 0.5 0.19669264365056707
-301. 0.3716636459016925 0.5 0.19669275163300565
-300. 0.3717011518904407 0.5 0.1966928208454561
-299. 0.17536810017293947 0.5 0.19642600481129938
-298. 0.6662374245713628 0.5 0.19745027536188767
-297. 0.17533802786608843 0.5 0.19642597859440816
-296. 0.1752914664273319 0.5 0.19642593801123473
-295. 0.7642725106797965 0.5 0.19779677582384114
-294. 0.17513529297920147 0.5 0.19642580196835263
-293. 0.17502568096980523 0.5 0.19642570655756106
-292. 0.17489505210354397 0.5 0.19642559293078557
-291. 0.37109294722977976 0.5 0.19669169934109723
-290. 0.3709202846497662 0.5 0.19669138129194502
-289. 0.5670761460622272 0.5 0.19714761125815128
-288. 0.5668614497684836 0.5 0.1971470082920532
-287. 0.17392665491910617 0.5 0.19642475321962705
-286. 0.1736699249115878 0.5 0.19642453138660032
-285. 0.17339217804720444 0.5 0.1964242917622516
-284. -0.02325612652345064 0.5 0.1963508858219508
-283. 0.1727736337477534 0.5 0.19642375949417132
-282. 0.17243283631275266 0.5 0.19642346704419114
-281. 0.17207102202084223 0.5 0.19642315719039172
-280. 0.17168819087206683 0.5 0.19642283004610897
-279. 0.17128434286638172 0.5 0.19642248573126306
-278. 0.17085947800387627 0.5 0.1964221243723588
-277. 0.17041359628446115 0.5 0.19642174610248542
-276. 0.16994669770815868 0.5 0.19642135106131733
-275. -0.026890758574348556 0.5 0.19635133907537652
-274. 0.16894984998495868 0.5 0.1964205112567192
-273. -0.027929640011323236 0.5 0.19635148070177094
-272. 0.16786893483427628 0.5 0.19641960620766263
-271. -0.029052588875780317 0.5 0.19635163982555728
-270. -0.029645588593317545 0.5 0.19635172638501416
-269. -0.030259605167742117 0.5 0.196351817855249
-268. -0.03089463859903171 0.5 0.1963519144288007
-267. 0.1647988519621311 0.5 0.19641706728854266
-266. 0.16412178481706682 0.5 0.196416513665319
-265. 0.16342370081515986 0.5 0.19641594524187525
-264. -0.03364494089301885 0.5 0.19635235583759558
-263. -0.03438505860870051 0.5 0.1963524810464553
-262. -0.03514619318124718 0.5 0.19635261265224824
-261. -0.03592834461070352 0.5 0.19635275089364013
-260. -0.036731512897024886 0.5 0.19635289601588599
-259. -0.03755569804018894 0.5 0.19635304827082975
-258. -0.03840090004026266 0.5 0.19635320791690447
-257. -0.03926711889722373 0.5 0.196353375219132
-256. 0.1561951862383346 0.5 0.19641020168200798
-255. -0.04106260718171859 0.5 0.1963537338850762
-254. -0.041991876609319356 0.5 0.1963539258117796
-253. 0.055232607530918215 0.5 0.19635712702444255
-252. -0.043913466035071305 0.5 0.19635433630952825
-251. -0.04490578603328945 0.5 0.19635455548308936
-250. -0.04591912288837262 0.5 0.1963547843524321
-249. -0.04695347660032081 0.5 0.19635502323528367
-248. -0.048008847169156335 0.5 0.1963552724559589
-247. -0.04908523459487921 0.5 0.1963555323453596
-246. -0.05018263887744477 0.5 0.19635580324097462
-245. -0.05130106001692 0.5 0.19635608548687958
-244. -0.05244049801328258 0.5 0.1963563794337365
-243. 0.1427485879828742 0.5 0.19640020815022993
-242. 0.1415671162727816 0.5 0.19639937302192564
-241. 0.14036462770580166 0.5 0.1963985301612028
-240. 0.1391411222819567 0.5 0.19639767994495516
-239. -0.25480248169747743 0.5 0.1965109280244831
-238. -0.2560680208350971 0.5 0.19651253447729802
-237. -0.06100503598021972 0.5 0.19635879552704635
-236. -0.062312608831547094 0.5 0.19635919649564385
-235. -0.06364119853978413 0.5 0.1963596126174982
-234. -0.06499080510490851 0.5 0.19636004430912035
-233. -0.0663614285268756 0.5 0.19636049199360414
-232. -0.06775306880575234 0.5 0.196360956100626
-231. -0.0691657259414941 0.5 0.19636143706644454
-230. -0.07059939993410087 0.5 0.19636193533389992
-229. -0.072054090783595 0.5 0.19636245135241356
-228. -0.07352979848997647 0.5 0.19636298557798765
-227. 0.12132301779613912 0.5 0.19638614127122853
-226. 0.11980527637602761 0.5 0.19638523134501368
-225. 0.11826651809902877 0.5 0.19638432050819518
-224. 0.11670674296514258 0.5 0.196383409243213
-223. -0.6702722124230346 0.5 0.19746361028261297
-222. 0.7025727646748614 0.5 0.1975732313154839
-221. 0.11190131642224925 0.5 0.19638067780266183
-220. 0.11025747386088067 0.5 0.19637976978139615
-219. -0.08775692640673734 0.5 0.19636869142300012
-218. -0.08944280268188061 0.5 0.196369434246668
-217. 0.3015493858848129 0.5 0.19657554019862142
-216. 0.2998214758959396 0.5 0.19657295908621808
-215. 0.10172300820081688 0.5 0.1963752714599563
-214. 0.09995306449816889 0.5 0.19637438389926629
-213. 0.09816210393865588 0.5 0.1963735016527793
-212. 0.09635012652225551 0.5 0.1963726252821244
-211. 0.48721621394769193 0.5 0.1969389708655873
-210. 0.48536220281756154 0.5 0.19693450011669425
-209. -0.1055614477175647 0.5 0.19637724980709576
-208. 0.8742902116853406 0.5 0.198241293202678
-207. -0.1093745542622399 0.5 0.19637928762196796
-206. -0.11131263281989733 0.5 0.1963803510832606
-205. 0.18125258303960098 0.5 0.19643122132230362
-204. 0.27744724119287223 0.5 0.19654087365132958
-203. 0.4717956529139595 0.5 0.19690230153572202
-202. 0.4697735069287973 0.5 0.19689757993571336
-201. 0.6640798849361099 0.5 0.19744317739229142
-200. 0.8583652460865797 0.5 0.19817331947269506
-199. 0.4635809678320537 0.5 0.19688324615194083
-198. 0.6578242952687265 0.5 0.19742272619969653
-197. 0.6556970649991947 0.5 0.19741581533885347
-196. 0.6535488178727754 0.5 0.1974088586718672
-195. 0.3568552426154257 0.5 0.19666596856582266
-194. 0.4528397321999352 0.5 0.19685883224143455
-193. 0.3524536640781952 0.5 0.19665821693180396
-192. 0.644745660798292 0.5 0.19738058734639205
-191. 0.6424923293874807 0.5 0.1973734117595594
-190. 0.6402179811198266 0.5 0.19736619445730114
-189. 0.8342721568446028 0.5 0.19807281360228063
-188. 0.8319557748631741 0.5 0.19806329879060883
-187. 1.0259679168742202 0.5 0.1989499479955555
-186. 1.023609501179039 0.5 0.1989380841946276
-185. 1.0212300686269482 0.5 0.19892614162473551
-184. 1.0188296192180373 0.5 0.1989141210082329
-183. 1.0164081529521942 0.5 0.19890202307406082
-182. 1.112140440254167 0.5 0.19940162920521368
-181. 1.2078517106992972 0.5 0.19994462944315555
-180. 1.2053671938628367 0.5 0.19992998695539052
-179. 1.3992112010188735 0.5 0.20115926135070744
-178. 1.3966846504686605 0.5 0.20114211398115708
-177. 1.3941370830615827 0.5 0.20112485387542492
-176. 1.3915684987976176 0.5 0.20110748178446944
-175. 1.3889788976767874 0.5 0.2010899984657563
-174. 1.3863682796990922 0.5 0.20107240468326476
-173. 1.3837366448644872 0.5 0.20105470120749483
-172. 1.3810839931730174 0.5 0.20103688881547493
-171. 1.3784103246246824 0.5 0.20101896829076832
-170. 1.37571563921946 0.5 0.2010009404234803
-169. 1.569349477806735 0.5 0.20238151285615733
-168. 1.5666127586877603 0.5 0.20236080560368155
-167. 2.152903645260007 0.5 0.2075560252634817
-166. 2.1501248924272574 0.5 0.20752789406212388
-165. 2.1473251227376657 0.5 0.20749958298879823
-164. 2.144504336191186 0.5 0.207471092800779
-163. 2.141662532787842 0.5 0.20744242426153012
-162. 2.1387997125275877 0.5 0.20741357814071457
-161. 2.3322654162598533 0.5 0.20944000757656372
-160. 2.329360562285869 0.5 0.20940843537485004
-159. 2.3264346914549976 0.5 0.20937666971806873
-158. 2.3234878037672835 0.5 0.20934471137871866
-157. 2.32051989922266 0.5 0.2093125611354181
-156. 2.3175309778211486 0.5 0.20928021977291894
-155. 2.903569662110881 0.5 0.2163013269720987
-154. 2.90053870699564 0.5 0.21626161094898774
-153. 2.897486735023511 0.5 0.21622165408512456
-152. 2.8944137461944957 0.5 0.21618145711622816
-151. 3.087669281357999 0.5 0.21877705010296916
-150. 3.084554258815231 0.5 0.2187341346477281
-149. 3.0814182194155975 0.5 0.2186909649074068
-148. 3.0782611631591217 0.5 0.21864754161452035
-147. 4.1550055647172055 0.5 0.2353987824200295
-146. 3.6609326226235495 0.5 0.22724755325567358
-145. 3.461362974947049 0.5 0.22417263517220498
-144. 3.6544713921124083 0.5 0.2271459701556138
-143. 3.651209251571496 0.5 0.22709473390439533
-142. 3.844275635023125 0.5 0.2301852021895008
-141. 4.037321001617822 0.5 0.23339038696777245
-140. 4.033995810506292 0.5 0.2333342304279299
-139. 4.226999143387259 0.5 0.23664719290273484
-138. 4.32180668898668 0.5 0.2383136364493282
-137. 4.416593217729214 0.5 0.24000470628370857
-136. 4.51135872961486 0.5 0.2417198614058758
-135. 4.409753683794279 0.5 0.23988185803953302
-134. 4.602651932390854 0.5 0.2433948181756235
-133. 5.188228245829288 0.5 0.2546369388753771
-132. 5.184734919862771 0.5 0.2545674444676976
-131. 5.181220577039344 0.5 0.25449756006376856
-130. 5.177685217359052 0.5 0.2544272861927166
-129. 5.370478381671258 0.5 0.2583005903458288
-128. 5.366900988277213 0.5 0.25822796792803554
-127. 5.559652118875644 0.5 0.2621801423417787
-126. 5.5560326917678475 0.5 0.26210520325732
-125. 5.552392247803208 0.5 0.26202985665592315
-124. 5.548730786981637 0.5 0.2619541030416339
-123. 5.741397850152585 0.5 0.26597782978218093
-122. 5.7376943556172835 0.5 0.2658997735483914
-121. 5.9303193850744575 0.5 0.2699954889910839
-120. 6.3192729385241275 0.5 0.27847875689698737
-119. 6.315506393418209 0.5 0.2783953016032234
-118. 6.508068372304765 0.5 0.2826931231873409
-117. 6.700609334334434 0.5 0.28705227205224937
-116. 6.696779738657898 0.5 0.286964985329453
-115. 6.692929126124453 0.5 0.28687724313475294
-114. 6.885407037583481 0.5 0.29129165420608727
-113. 6.8815143913362835 0.5 0.2912018098586728
-112. 6.877600728232243 0.5 0.2911115037214486
-111. 7.462714670819356 0.5 0.30486057241900666
-110. 7.45875897400154 0.5 0.3047660203897172
-109. 7.45478226032686 0.5 0.30467098697759176
-108. 7.647134070644632 0.5 0.3092914614150687
-107. 7.643115323256177 0.5 0.3091944382322247
-106. 7.639075559010856 0.5 0.30909692837916086
-105. 8.224063400456735 0.5 0.3234241187133653
-104. 8.21998160249764 0.5 0.3233227682223055
-103. 8.215878787681703 0.5 0.3232209145881238
-102. 8.60445403770758 0.5 0.33294825120409177
-101. 8.600309189177867 0.5 0.33284365428393653
-100. 8.69431809421595 0.5 0.3352202877746382
-99. 9.770053686643998 0.5 0.36300122493049314
-98. 8.980447624146198 0.5 0.34250749469216474
-97. 8.97621870818898 0.5 0.34239922089047686
-96. 9.168318316224262 0.5 0.3473342657161778
-95. 9.16404736655327 0.5 0.3472241791785814
-94. 9.159755400025412 0.5 0.3471135674440886
-93. 9.7444910391888 0.5 0.3623295979033253
-92. 9.74015703894719 0.5 0.3622157785925891
-91. 9.932151562698056 0.5 0.36727200127250886
-90. 9.927775528742695 0.5 0.3671564409117563
-89. 9.923378477930491 0.5 0.3670403402192372
-88. 9.918960410261377 0.5 0.3669236994199016
-87. 10.3072204074341 0.5 0.37722932417737587
-86. 10.49910984690062 0.5 0.3823622673561007
-85. 10.494628728660865 0.5 0.3822421130195058
-84. 10.490126593564247 0.5 0.3821214087802519
-83. 10.780127752884807 0.5 0.3899238356778929
-82. 10.677408813649755 0.5 0.38715392380920305
-81. 11.261892250530583 0.5 0.40300220351992166
-80. 11.060956507157119 0.5 0.3975304337523787
-79. 11.252698828625471 0.5 0.4027513390972589
-78. 11.248070592387595 0.5 0.4026250650706396
-77. 11.243421339292833 0.5 0.4024982300732908
-76. 11.435100610190567 0.5 0.40773759317988706
-75. 11.23405978253269 0.5 0.40224287789137037
-74. 11.769308716203055 0.5 0.41692119925512383
-73. 11.519138469619108 0.5 0.4100411668150208
-72. 11.710733673089337 0.5 0.4153073278063773
-71. 11.804133089277999 0.5 0.4178815336501085
-70. 11.799336718185113 0.5 0.4177492292611794
-69. 11.990868871084702 0.5 0.4230416206251552
-68. 11.986030466278043 0.5 0.4229076989358802
-67. 12.177520585463903 0.5 0.4282167160128236
-66. 12.172640146943513 0.5 0.4280811858868495
-65. 12.65861254368962 0.5 0.4416310424681418
-64. 12.653690071455477 0.5 0.4414932602614203
-63. 12.746921352789151 0.5 0.44410463555653434
-62. 12.741956846841234 0.5 0.44396548673213154
-61. 12.933320864885815 0.5 0.449336757541793
-60. 12.928314325224168 0.5 0.4491960362694113
-59. 13.119636309554995 0.5 0.454580930916897
-58. 13.114587736179574 0.5 0.4544386444146352
-57. 13.305867686796649 0.5 0.4598366435728671
-56. 13.300777079707476 0.5 0.45969279879724473
-55. 13.688364537460162 0.5 0.47067286994545354
-54. 13.683231896657256 0.5 0.4705271029716716
-53. 13.678078238997466 0.5 0.47038074869894037
-52. 13.672903564480787 0.5 0.47023380725371616
-51. 13.667707873107222 0.5 0.4700862787631659
-50. 13.662491164876812 0.5 0.46993816335517086
-49. 14.442651603186965 0.5 0.49219355446216284
-48. 15.615490106338955 0.5 0.5260053143163017
-47. 13.892151865105987 0.5 0.47646802449558334
-46. 14.230462785934435 0.5 0.48612033207033234
-45. 14.617840075118337 0.5 0.49721849964846343
-44. 15.39789542914412 0.5 0.5197031917083919
-43. 15.490706373340226 0.5 0.522389717680284
-42. 14.209049514733932 0.5 0.4855082566767399
-41. 13.614595032243539 0.5 0.4685787348548291
-40. 12.823769992046898 0.5 0.446259950883976
34. 12.952907953621926 0.5 0.44988740134181726
35. 13.731302975954412 0.5 0.4718926931925183
36. 14.313327440580672 0.5 0.4884903402576516
38. 15.477313319262596 0.5 0.5220018981075748
39. 14.881177488222042 0.5 0.5047894256986682
41. 15.259639102365238 0.5 0.5157054891144035
42. 15.154314072877472 0.5 0.5126635149056348
43. 14.950793256108138 0.5 0.5067943028696541
44. 14.64907665205728 0.5 0.4981154566626275
45. 14.445513801574196 0.5 0.4922755740601379
46. 14.438279475083606 0.5 0.49206827107963264
47. 13.743800738763385 0.5 0.47224786215684383
48. 13.834699148983725 0.5 0.4748327400287098
49. 14.318275624045901 0.5 0.4886319335200789
50. 14.40913200055249 0.5 0.4912332044418359
51. 13.812743967229421 0.5 0.4742081326123927
52. 13.805383539597575 0.5 0.47399877237255844
53. 13.60165255425948 0.5 0.4682115342782598
54. 13.594250092913882 0.5 0.46800154120615295
55. 13.586826614711397 0.5 0.4677909721401301
56. 13.579382119652045 0.5 0.4675798272795696
57. 13.179217526037105 0.5 0.4562609076210717
58. 13.17173099726398 0.5 0.45604973673023963
59. 13.164223451633989 0.5 0.4558379953629485
60. 13.156694889147134 0.5 0.4556256837384142
61. 12.95279576895403 0.5 0.44988424708798236
62. 12.748875631904037 0.5 0.44415941443557394
63. 12.741284018846542 0.5 0.44394662902991294
64. 12.733671388932182 0.5 0.44373327944474106
65. 12.726037742160933 0.5 0.4435193659227273
66. 12.7183830785328 0.5 0.4433048887077761
67. 12.121658775499736 0.5 0.42666611501862334
68. 12.113962078157849 0.5 0.4264525898182576
69. 12.106244363959096 0.5 0.426238510434694
70. 12.098505632903478 0.5 0.42602387714792583
71. 12.090745884990952 0.5 0.4258086902393866
72. 12.082965120221582 0.5 0.4255929499919614
73. 11.878813797745963 0.5 0.41994307050679747
74. 11.870990999262819 0.5 0.41972699100889743
75. 11.274098561374723 0.5 0.4033353569088169
76. 11.266233729177827 0.5 0.4031206880157245
77. 11.061998339274703 0.5 0.3975587427881061
78. 11.054091473364053 0.5 0.39734391086540355
79. 11.046163590596517 0.5 0.3971285455787013
80. 11.038214690972138 0.5 0.39691264728963643
81. 10.441196151942764 0.5 0.3808104467772763
82. 10.43320521860461 0.5 0.38059650542186
83. 10.425193268409613 0.5 0.3803820451615709
84. 10.417160301357685 0.5 0.3801670664158668
85. 10.212756776599552 0.5 0.3747118926879876
86. 10.204681775833894 0.5 0.3744969904418378
87. 10.196585758211347 0.5 0.37428157579215265
88. 10.188468723731937 0.5 0.37406564918633295
89. 9.591282049847553 0.5 0.3583151613422736
90. 9.583122981654412 0.5 0.3581019076404548
91. 9.57494289660436 0.5 0.3578881594102908
92. 9.566741794697446 0.5 0.3576739171733675
93. 9.362170135084304 0.5 0.3523479382270782
94. 9.353926999463612 0.5 0.3521340741360152
95. 8.756614224437971 0.5 0.3368000703426287
96. 8.748329055103573 0.5 0.33658974306628614
97. 8.740022868912266 0.5 0.33637895028783377
98. 8.73169566586407 0.5 0.33616769265296736
99. 8.52699790510967 0.5 0.3309965287271101
100. 8.518628668347723 0.5 0.3307860134776775
101. 8.510238414728912 0.5 0.33057504271659
102. 8.501827144253234 0.5 0.3303636171349426
103. 7.904346234372583 0.5 0.3155431623438395
104. 7.8958929301831535 0.5 0.31533641319330513
105. 7.691069068287452 0.5 0.31035350468244627
106. 7.682573730384292 0.5 0.3101479560086697
107. 7.6740573756242005 0.5 0.30994199023883895
108. 7.6655200040072655 0.5 0.3097356082338628
109. 7.460612074684082 0.5 0.30481031200080916
110. 7.452032669353373 0.5 0.3046052910079317
111. 7.247082706316436 0.5 0.2997372308785715
112. 7.2384612672719975 0.5 0.29953371823799546
113. 6.837119729671947 0.5 0.29017879691986825
114. 6.828456256913733 0.5 0.2899795124379172
115. 6.819771767298632 0.5 0.2897798608197603
116. 6.811066260826688 0.5 0.28957984315259633
117. 6.8023397374978565 0.5 0.28937946052970775
118. 6.7935921973121385 0.5 0.2891787140504989
119. 6.195775017721468 0.5 0.2757554355385963
120. 6.186985443821998 0.5 0.2755626461612625
121. 6.178174853065639 0.5 0.2753695353084404
122. 6.169343245452438 0.5 0.2751761042747626
123. 6.160490620982349 0.5 0.27498235436208723
124. 6.151616979655352 0.5 0.2747882868795408
125. 5.553673698923447 0.5 0.26205637580503516
126. 5.544758023882697 0.5 0.2618719405171985
127. 5.732170872834466 0.5 0.2657834096027217
128. 5.526863623230601 0.5 0.2615022688905572
129. 5.125185815920554 0.5 0.25338710822247895
130. 5.116186073452299 0.5 0.25320943333807944
131. 5.107165314127179 0.5 0.2530315320298022
132. 5.098123537945216 0.5 0.25285340601639184
133. 4.696361663207619 0.5 0.24513674132863547
134. 4.883627394161244 0.5 0.24868449618332203
135. 4.776347796983961 0.5 0.24664133697258453
136. 4.079998560401681 0.5 0.23411403358183855
137. 4.463550781634028 0.5 0.24085156376115666
138. 4.454382904310808 0.5 0.24068575666113845
139. 4.445194010130678 0.5 0.240519797197253
140. 4.435984099093662 0.5 0.24035368740786128
141. 4.230403630350418 0.5 0.23670659515006864
142. 4.221151685599671 0.5 0.23654524201662047
143. 3.6228301014439506 0.5 0.2266504474739083
144. 3.6135361229794514 0.5 0.22650551204927852
145. 3.4078715868087026 0.5 0.22337085185304326
146. 3.594885115479813 0.5 0.2262155028039491
147. 3.5855280864446515 0.5 0.2260704338855224
148. 3.379800499703308 0.5 0.2229539545330952
149. 3.370401436954394 0.5 0.22281496196610914
150. 3.360981357348638 0.5 0.2226759602872439
151. 3.351540260885994 0.5 0.22253695208582686
152. 2.654854754593696 0.5 0.21315769400154624
153. 2.7435463948419807 0.5 0.21425166009286073
154. 3.3230908703567836 0.5 0.2221199144241573
155. 3.3135657064666577 0.5 0.2219809062722348
156. 3.2058447552949407 0.5 0.2204307266985727
157. 2.5090541647182505 0.5 0.2114259862504143
158. 2.4994659502574845 0.5 0.21131505017513888
159. 2.4898567189398317 0.5 0.21120423895357832
160. 2.4802264707652912 0.5 0.21109355558522294
162. 1.0864561379000581 0.5 0.19926330272390747
163. 2.4512096251004127 0.5 0.21076230277735628
164. 2.4414953094983898 0.5 0.21065216106090384
165. 1.842711354491371 0.5 0.20461950860341346
166. 1.8329550051755732 0.5 0.20453391579468727
167. 1.8231776390028884 0.5 0.20444855878956555
168. 1.8133792559733608 0.5 0.2043634408293453
169. 1.4108607743881993 0.5 0.20123870729444607
170. 1.6955446689189402 0.5 0.20337314008987636
171. 1.5875084648940918 0.5 0.20251977317251638
172. 1.577626014437037 0.5 0.20244434383158327
173. 1.5677225471230951 0.5 0.20236919866297753
174. 1.5577980629523105 0.5 0.20229434099772178
175. 1.351503021075254 0.5 0.2008404655391473
176. 1.2433617327659914 0.5 0.20015708187489184
177. 1.233374198024567 0.5 0.20009672835884218
178. 1.3215404168509362 0.5 0.20064565381841373
179. 1.213336077971056 0.5 0.19997705445148795
180. 1.2032854926589698 0.5 0.19991774085018463
181. 0.8986895792159975 0.5 0.19834781576734498
182. 0.888596960190181 0.5 0.19830340489410261
183. 0.8784833243074772 0.5 0.19825939486390182
184. 0.08295050817046011 0.5 0.19636665121685068
185. 0.8581930019714522 0.5 0.19817259097429948
186. 0.8480163155181087 0.5 0.19812980395334803
187. 0.8378186122079225 0.5 0.19808743145221352
188. 0.8275998920408266 0.5 0.1980454769074503
189. 0.8173601550168658 0.5 0.1980039437624292
190. 0.6107498602866555 0.5 0.1972749731601787
191. 0.6004680895489646 0.5 0.19724414680331578
192. 0.5901653019543639 0.5 0.1972137776864578
193. 0.5798414975028984 0.5 0.1971838692380275
194. 0.5694966761945677 0.5 0.19715442489187848
195. 0.5591308380293497 0.5 0.19712544808721869
196. 0.5487439830072444 0.5 0.1970969422685333
197. 0.2928991850665715 0.5 0.19656276713259396
198. 0.5279072223924164 0.5 0.19704135739294285
199. 0.5174573167996938 0.5 0.19701428525068643
200. 0.506986394350106 0.5 0.19698769792354132
201. 0.4964944550436086 0.5 0.19696159888118916
202. 0.4859814988802462 0.5 0.19693599159810735
203. 0.47544752586004113 0.5 0.19691087955348535
204. 0.46489253598290403 0.5 0.19688626623114042
205. 0.4543165292489243 0.5 0.19686215511943322
206. 0.4437195056580571 0.5 0.19683854971118142
207. 0.433101465210325 0.5 0.19681545350357313
208. 0.42246240790570555 0.5 0.19679286999807938
209. 0.3136275633195177 0.5 0.19659399552130385
210. 0.2047717018764871 0.5 0.19645378813677256
211. 0.19406959400122792 0.5 0.19644317873710235
212. 0.08517169884442269 0.5 0.1963675797816389
213. 0.1726023276801145 0.5 0.1964236124184307
214. 0.1618371692342156 0.5 0.19641466239368627
215. 0.15105099393147403 0.5 0.196406272392414
216. 0.14024380177182277 0.5 0.1963984458679561
217. 0.12941559275532882 0.5 0.1963911862759643
218. 0.020391596457266497 0.5 0.19635057489919813
219. 0.1076961241516789 0.5 0.19637838172293773
220. -0.09954467628481682 0.5 0.1963741813192427
221. -0.3068064935781999 0.5 0.1965834841463552
222. -0.12139024602972383 0.5 0.19638618184116957
223. -0.03416978576279382 0.5 0.1963524443468751
224. 0.053029657647226516 0.5 0.19635653395470865
225. -0.2524909974983423 0.5 0.19650801437858656
226. -0.36168312865141405 0.5 0.19667458124555337
227. -0.37272150623669215 0.5 0.19669470644758277
228. 0.008918181019888895 0.5 0.19634973863397676
229. -0.19851177112852594 0.5 0.19644751338529992
230. -0.20961319928439906 0.5 0.19645877454413305
231. -0.2207356442972042 0.5 0.1964706706926076
232. -0.231879106166852 0.5 0.19648320520087698
233. -0.04669404404402511 0.5 0.19635496281971648
234. 0.040295230797233426 0.5 0.19635357863247546
235. 0.029088718356945906 0.5 0.19635164504930297
236. -0.22757573700190922 0.5 0.19647829158184202
237. -0.09156212751892756 0.5 0.19637038810315174
238. -0.10283169052985479 0.5 0.19637583535621245
239. -0.11412227039764702 0.5 0.1963819259424685
240. -0.12543386712230428 0.5 0.19638866334194802
241. -0.13676648070387123 0.5 0.19639605103442273
242. -0.14812011114230317 0.5 0.19640409249929325
243. -0.15949475843760014 0.5 0.19641279121547361
244. -0.17089042258978446 0.5 0.1964221506612753
245. -0.1823071035988338 0.5 0.19643217431429066
246. -0.19374480146474812 0.5 0.1964428656512758
247. -0.20520351618757215 0.5 0.19645422814803307
248. -0.21668324776726117 0.5 0.19646626527929256
249. -0.03183445535445316 0.5 0.1963520610331801
250. -0.04335622064789455 0.5 0.1963542153779882
251. -0.15307377322290433 0.5 0.19640780176496708
252. -0.06646280180539473 0.5 0.19636052547601332
253. -0.2743971585188379 0.5 0.19653669197864015
254. -0.286002991239784 0.5 0.19655284981119425
255. -0.29762984081761745 0.5 0.1965697065613116
256. -0.30927770725229364 0.5 0.19658726569083138
257. 0.0717524911548447 0.5 0.19636234350213075
258. 0.060062591006371534 0.5 0.19635851179784564
259. 0.048351674001055674 0.5 0.19635535460477996
260. -0.061555030285828566 0.5 0.19635896314737317
261. -0.17148275142960015 0.5 0.1964226547902231
262. -0.1832567190055334 0.5 0.19643303722812544
263. -0.1950517034383763 0.5 0.19644412863500813
264. -0.20686770472810653 0.5 0.19645593258755165
265. -0.12052995244999845 0.5 0.19638566437911897
266. -0.23056275787816208 0.5 0.19648169242621497
267. -0.2424418097385097 0.5 0.19649565545517914
268. -0.25434187845572237 0.5 0.19651034531523254
269. -0.06991342318046029 0.5 0.19636169565027348
270. -0.0818555256114253 0.5 0.19636620248890246
271. -0.09381864489929997 0.5 0.19637142825386056
272. -0.10580278104399501 0.5 0.1963773766387107
273. -0.2159827044703031 0.5 0.1964655119747378
274. -0.22800887432877281 0.5 0.19647878198085852
275. -0.24005606104412988 0.5 0.19649279496571603
276. -0.15394949419167095 0.5 0.1964084701821594
277. -0.16603871462080272 0.5 0.196418087001872
278. -0.17814895190677715 0.5 0.1964284485601139
279. -0.19028020604963897 0.5 0.19643955853492
280. -0.2024324770493881 0.5 0.19645142060155463
281. 0.17809331679269957 0.5 0.19642839929265687
282. -0.030450528770119365 0.5 0.1963518466793586
283. -0.0426658503405082 0.5 0.1963540676978874
284. 0.04327258165691897 0.5 0.19635419736022255
285. -0.06715954405188095 0.5 0.1963607569844607
286. -0.07943791619288718 0.5 0.19636523285626162
287. -0.09173730519075841 0.5 0.1963704679455975
288. -0.10405771104549467 0.5 0.19637646604815948
289. -0.018224363332459567 0.5 0.19635036678075699
290. 0.06758796752371052 0.5 0.1963609005364454
291. -0.042970259326346474 0.5 0.19635413252317785
292. -0.055374732608609784 0.5 0.19635716611555223
293. -0.06780022274776043 0.5 0.19636097199498306
294. 0.017928040680904932 0.5 0.19635034014037836
295. -0.09271425359665679 0.5 0.19637091601711243
296. -0.007028023881743786 0.5 0.1963496636799354
297. 0.2749867298256439 0.5 0.19653749668563178
298. 0.16428138497746483 0.5 0.1964166439617648
299. 0.1517297936970571 0.5 0.1964067833491485
300. 0.13915718555976203 0.5 0.19639769105916055
301. 0.12656356056562426 0.5 0.19638937114033184
302. 0.11394891871459915 0.5 0.19638182763938722
303. 0.1013132600066867 0.5 0.19637506460108595
304. 0.08865658444190921 0.5 0.19636908606806064
305. 0.0759788920202444 0.5 0.196363896080656
306. 0.06328018274171456 0.5 0.19635949867676653
307. 0.050560456606297384 0.5 0.19635589789167368
308. 0.037819713614015184 0.5 0.1963530977578823
309. 0.025057953764845643 0.5 0.19635110230495625
310. 0.01227517705878876 0.5 0.1963499155593536
311. 0.19582092434525125 0.5 0.19644487597204646
312. 0.08482134350076097 0.5 0.19636743168666612
313. 0.17015028664876775 0.5 0.19642152318400818
314. 0.15728344251522847 0.5 0.19641104977639248
315. 0.14439558152480184 0.5 0.19640138391028789
316. 0.13148670367748785 0.5 0.19639252974552043
317. 0.4130811202473743 0.5 0.19677342026333514
318. 0.49830497911098903 0.5 0.19696606390105886
319. 0.3871582802683766 0.5 0.19672193737076707
320. 0.2759905645688769 0.5 0.19653887078782953