1. 391.
2. 391.
2. 387.
3. 387.
4. 387.
5. 388.
6. 387.
7. 387.
8. 387.
9. 387.
10. 388.
11. 388.
12. 388.
13. 387.
14. 387.
15. 386.
16. 385.5
17. 389.
18. 389.
19. 388.
20. 388.
21. 385.
22. 385.5
23. 387.
24. 387.
25. 388.
26. 388.
27. 387.
28. 387.
29. 389.
30. 390.
31. 392.
32. 387.
33. 383.
34. 383.
35. 380.
36. 383.
36. 380.
40. 386.
41. 387.
42. 391.
43. 392.
44. 388.
45. 386.
46. 385.
47. 384.
48. 387.
49. 388.
50. 388.
51. 388.
52. 388.
53. 387.
54. 387.5
55. 388.
56. 388.
57. 387.
58. 387.
59. 388.
60. 388.
61. 386.
62. 386.
63. 387.
64. 387.
65. 387.
65. 385.
66. 385.
67. 388.
68. 388.
69. 387.
70. 387.
71. 387.
72. 387.
73. 387.
74. 387.
75. 387.
76. 387.
77. 387.
78. 387.
79. 387.
80. 387.
81. 388.
82. 388.
83. 388.
84. 388.
85. 387.
86. 388.
87. 388.
88. 387.
89. 385.
90. 386.
91. 385.
92. 386.5
93. 387.
94. 387.
95. 387.
96. 388.
97. 387.5
98. 387.
99. 387.
100. 387.
101. 387.
102. 387.
103. 387.5
104. 388.
105. 388.
106. 388.
107. 388.
108. 388.
109. 387.
110. 387.
111. 387.
112. 387.
113. 388.
114. 388.
115. 387.
116. 387.
117. 388.
118. 388.
119. 388.
120. 388.
121. 388.
122. 388.
123. 388.
124. 388.
125. 388.
126. 388.
127. 389.
128. 389.
129. 387.
130. 387.
133. 387.5
134. 390.
135. 390.
136. 390.
136. 388.
137. 391.
140. 388.
141. 388.
142. 388.
143. 391.
144. 387.
145. 391.
146. 391.
146. 389.
147. 390.5
149. 391.
150. 387.
151. 388.
152. 388.
153. 388.
154. 388.
155. 391.
156. 391.
157. 392.
158. 391.
159. 388.
160. 388.
161. 391.
162. 391.
163. 391.
164. 391.
165. 391.
166. 391.
167. 392.
168. 392.
169. 391.
170. 391.
171. 390.
172. 390.
173. 396.
174. 392.
176. 391.
177. 395.
178. 395.
179. 392.
180. 392.
182. 393.5
185. 395.
186. 395.
187. 395.
188. 395.
190. 395.
192. 396.
193. 392.
194. 395.
195. 395.
196. 392.
197. 399.
198. 398.
199. 396.5
200. 397.
201. 396.
202. 396.
203. 399.
204. 399.
205. 399.
206. 399.
207. 400.
208. 399.
209. 399.
210. 399.
211. 401.
212. 401.5
213. 404.
214. 402.
214. 399.
215. 401.
215. 399.
216. 404.
217. 400.
218. 400.
219. 403.
220. 403.
221. 406.
222. 403.
223. 403.
224. 403.
225. 404.
226. 404.
227. 404.
228. 407.
229. 406.
230. 406.
231. 407.
232. 407.
233. 407.
234. 407.
235. 408.
236. 408.
237. 409.
238. 410.
239. 410.5
240. 408.
241. 415.
242. 415.
243. 411.
244. 412.
245. 412.
246. 413.
247. 413.
248. 416.
248. 413.5
249. 412.
250. 415.
251. 415.
252. 415.
253. 416.
254. 416.
255. 419.
256. 419.
257. 416.
258. 415.
259. 419.
260. 419.
261. 419.
262. 419.
263. 420.
264. 420.
265. 421.
266. 421.
267. 422.
268. 422.
269. 423.
270. 423.
271. 423.
272. 423.
273. 424.
274. 424.
275. 421.5
276. 428.
277. 428.
278. 427.
278. 424.
279. 425.5
280. 425.
281. 429.5
357. 420.
358. 424.
359. 428.
360. 431.
361. 431.
362. 431.
363. 428.
364. 428.
365. 422.
366. 423.
366. 421.
367. 427.
368. 424.
369. 423.
370. 423.
371. 420.
372. 419.
373. 422.
374. 423.
374. 420.
375. 422.
375. 420.
376. 422.
377. 423.
379. 418.
380. 418.
381. 422.
382. 416.
383. 415.
384. 415.
385. 416.
386. 419.
387. 418.
388. 417.
393. 410.
394. 416.
395. 416.
396. 415.
397. 412.
401. 407.
402. 407.
403. 411.
404. 411.
405. 407.
406. 407.
407. 407.
408. 407.
409. 407.
410. 407.
411. 406.
412. 405.
413. 407.
414. 406.
415. 405.
416. 405.
417. 405.5
418. 405.
419. 404.
420. 404.
421. 403.
422. 404.
423. 403.
424. 403.
425. 403.
426. 403.
427. 402.
428. 402.
429. 402.
429. 400.
430. 401.
431. 402.5
433. 404.
434. 404.
436. 396.5
437. 402.
438. 401.
439. 402.5
440. 401.
441. 398.
442. 402.
443. 401.
444. 402.
445. 397.
446. 401.
447. 401.
448. 400.
449. 393.5
450. 400.
451. 400.
452. 400.
453. 399.
454. 399.
455. 399.
456. 400.
457. 398.
458. 398.
459. 398.
460. 398.
461. 399.
462. 399.
463. 399.
464. 399.
465. 399.
466. 399.
467. 398.
468. 397.5
469. 400.
470. 399.
471. 399.
472. 399.
473. 399.
474. 399.
475. 398.5
476. 398.
477. 398.
478. 398.
479. 398.
480. 398.
481. 397.5
482. 397.5
483. 397.5
484. 398.
485. 399.
486. 399.
487. 399.
488. 399.
489. 399.
490. 399.
491. 399.
492. 399.
493. 397.
494. 397.5
495. 398.
497. 399.
498. 399.
499. 399.
500. 399.
501. 399.
502. 399.
503. 399.
504. 399.
505. 399.
506. 399.
507. 399.
508. 399.
509. 399.
510. 399.
511. 399.
512. 399.
513. 399.
514. 399.
515. 399.
516. 399.
517. 400.
518. 399.
519. 399.
520. 399.
521. 399.
522. 399.
523. 399.
524. 399.
525. 399.
526. 399.
527. 399.
528. 399.
529. 399.
530. 399.
531. 399.
532. 399.
533. 399.
534. 399.
535. 399.5
536. 400.
537. 399.5
538. 399.
539. 399.5
540. 400.
541. 400.
542. 400.
543. 400.
544. 400.
545. 399.5
546. 400.
547. 400.
548. 400.
549. 400.
550. 400.
551. 400.
552. 400.
553. 400.
554. 400.
555. 400.
556. 400.
557. 400.
558. 400.
559. 400.
560. 400.
561. 402.
562. 402.
563. 401.
564. 401.
565. 401.
566. 401.
567. 401.
568. 401.
569. 400.
570. 400.
571. 400.
572. 400.
573. 401.5
574. 401.5
575. 401.
576. 402.
577. 401.5
578. 401.5
579. 402.
580. 401.5
581. 402.
582. 402.
583. 402.
584. 402.
585. 401.
586. 402.
587. 402.
588. 402.5
589. 401.
590. 402.
591. 402.
592. 402.
593. 403.
594. 403.
595. 403.
596. 403.
597. 403.
598. 403.
599. 403.
600. 403.
601. 403.
602. 403.
603. 403.
604. 403.
605. 403.
606. 403.
607. 403.
608. 403.
609. 402.
610. 402.
611. 402.
612. 402.
613. 403.
614. 403.
615. 403.
616. 403.
617. 403.
618. 403.
619. 403.
620. 403.
621. 404.
622. 404.
623. 404.
624. 404.
625. 403.
626. 403.
627. 403.
628. 403.
629. 404.
630. 404.
631. 404.
632. 404.
633. 404.
634. 404.
635. 404.
636. 404.
637. 404.5
638. 405.5
639. 405.
640. 405.