-400.00   128.771 0.01 0.001
-395.00   128.768 0.01 0.001
-390.00   128.768 0.01 0.001
-385.00   128.770 0.01 0.001
-380.00   128.771 0.01 0.001
-375.00   128.771 0.01 0.001
-370.00   128.772 0.01 0.001
-365.00   128.773 0.01 0.001
-360.00   128.774 0.01 0.001
-355.00   128.775 0.01 0.001
-350.00   128.776 0.01 0.001
-345.00   128.778 0.01 0.001
-340.00   128.778 0.01 0.001
-335.00   128.782 0.01 0.001
-330.00   128.784 0.01 0.001
-325.00   128.785 0.01 0.001
-320.00   128.788 0.01 0.001
-315.00   128.790 0.01 0.001
-310.00   128.792 0.01 0.001
-305.00   128.795 0.01 0.001
-300.00   128.797 0.01 0.001
-295.00   128.799 0.01 0.001
-290.00   128.802 0.01 0.001
-285.00   128.804 0.01 0.001
-280.00   128.807 0.01 0.001
-275.00   128.808 0.01 0.001
-270.00   128.810 0.01 0.001
-265.00   128.813 0.01 0.001
-260.00   128.816 0.01 0.001
-255.00   128.818 0.01 0.001
-250.00   128.821 0.01 0.001
-245.00   128.824 0.01 0.001
-240.00   128.826 0.01 0.001
-235.00   128.828 0.01 0.001
-230.00   128.832 0.01 0.001
-225.00   128.836 0.01 0.001
-220.00   128.838 0.01 0.001
-215.00   128.841 0.01 0.001
-210.00   128.844 0.01 0.001
-205.00   128.848 0.01 0.001
-200.00   128.851 0.01 0.001
-195.00   128.854 0.01 0.001
-190.00   128.858 0.01 0.001
-185.00   128.861 0.01 0.001
-180.00   128.864 0.01 0.001
-175.00   128.868 0.01 0.001
-170.00   128.871 0.01 0.001
-165.00   128.874 0.01 0.001
-160.00   128.878 0.01 0.001
-155.00   128.881 0.01 0.001
-150.00   128.886 0.01 0.001
-145.00   128.889 0.01 0.001
-140.00   128.894 0.01 0.001
-135.00   128.899 0.01 0.001
-130.00   128.903 0.01 0.001
-125.00   128.907 0.01 0.001
-120.00   128.912 0.01 0.001
-115.00   128.917 0.01 0.001
-110.00   128.923 0.01 0.001
-105.00   128.927 0.01 0.001
-100.00   128.933 0.01 0.001
-95.00    128.937 0.01 0.001
-90.00    128.942 0.01 0.001
-85.00    128.947 0.01 0.001
-80.00    128.951 0.01 0.001
-75.00    128.957 0.01 0.001
-70.00    128.964 0.01 0.001
-65.00    128.969 0.01 0.001
-60.00    128.976 0.01 0.001
-55.00    128.983 0.01 0.001
-50.00    128.991 0.01 0.001
-45.00    128.999 0.01 0.001
-40.00    129.005 0.01 0.001
-35.00    129.013 0.01 0.001
-30.00    129.024 0.01 0.001
-25.00    129.034 0.01 0.001
-20.00    129.046 0.01 0.001
-15.00    129.061 0.01 0.001
-10.00    129.076 0.01 0.001
-5.00     129.097 0.01 0.001
-3.06E-14 129.128 0.01 0.001
5.00      129.172 0.01 0.001
10.00     129.283 0.01 0.001
15.00     129.788 0.01 0.001
20.00     133.658 0.01 0.001
25.00     137.924 0.01 0.001
30.00     138.324 0.01 0.001
35.00     138.444 0.01 0.001
40.00     138.502 0.01 0.001
45.00     138.530 0.01 0.001
50.00     138.547 0.01 0.001
55.00     138.556 0.01 0.001
60.00     138.559 0.01 0.001
65.00     138.560 0.01 0.001
70.00     138.557 0.01 0.001
75.00     138.553 0.01 0.001
80.00     138.545 0.01 0.001
85.00     138.537 0.01 0.001
90.00     138.527 0.01 0.001
95.00     138.514 0.01 0.001
100.00    138.499 0.01 0.001
105.00    138.484 0.01 0.001
110.00    138.465 0.01 0.001
115.00    138.443 0.01 0.001
120.00    138.420 0.01 0.001
125.00    138.393 0.01 0.001
130.00    138.363 0.01 0.001
135.00    138.328 0.01 0.001
140.00    138.288 0.01 0.001
145.00    138.244 0.01 0.001
150.00    138.193 0.01 0.001
155.00    138.134 0.01 0.001
160.00    138.066 0.01 0.001
165.00    137.985 0.01 0.001
170.00    137.887 0.01 0.001
175.00    137.766 0.01 0.001
180.00    137.608 0.01 0.001
185.00    137.394 0.01 0.001
190.00    137.091 0.01 0.001
195.00    136.662 0.01 0.001
200.00    136.078 0.01 0.001
205.00    135.369 0.01 0.001
210.00    134.584 0.01 0.001
215.00    133.760 0.01 0.001
220.00    132.900 0.01 0.001
225.00    132.029 0.01 0.001
230.00    131.237 0.01 0.001
235.00    130.583 0.01 0.001
240.00    130.085 0.01 0.001
245.00    129.727 0.01 0.001
250.00    129.469 0.01 0.001
255.00    129.286 0.01 0.001
260.00    129.160 0.01 0.001
265.00    129.078 0.01 0.001
270.00    129.023 0.01 0.001
275.00    128.986 0.01 0.001
280.00    128.957 0.01 0.001
285.00    128.935 0.01 0.001
290.00    128.918 0.01 0.001
295.00    128.904 0.01 0.001
300.00    128.892 0.01 0.001
305.00    128.882 0.01 0.001
310.00    128.874 0.01 0.001
315.00    128.865 0.01 0.001
320.00    128.857 0.01 0.001
325.00    128.853 0.01 0.001
330.00    128.845 0.01 0.001
335.00    128.838 0.01 0.001
340.00    128.832 0.01 0.001
345.00    128.827 0.01 0.001
350.00    128.822 0.01 0.001
355.00    128.818 0.01 0.001
360.00    128.814 0.01 0.001
365.00    128.810 0.01 0.001
370.00    128.806 0.01 0.001
375.00    128.803 0.01 0.001
380.00    128.798 0.01 0.001
385.00    128.794 0.01 0.001
390.00    128.795 0.01 0.001
395.00    128.791 0.01 0.001
400.00    128.787 0.01 0.001
405.00    128.784 0.01 0.001
405.00    128.782 0.01 0.001
400.00    128.782 0.01 0.001
395.00    128.783 0.01 0.001
390.00    128.784 0.01 0.001
385.00    128.783 0.01 0.001
380.00    128.785 0.01 0.001
375.00    128.786 0.01 0.001
370.00    128.787 0.01 0.001
365.00    128.788 0.01 0.001
360.00    128.789 0.01 0.001
355.00    128.790 0.01 0.001
350.00    128.792 0.01 0.001
345.00    128.793 0.01 0.001
340.00    128.794 0.01 0.001
335.00    128.796 0.01 0.001
330.00    128.798 0.01 0.001
325.00    128.801 0.01 0.001
320.00    128.801 0.01 0.001
315.00    128.804 0.01 0.001
310.00    128.806 0.01 0.001
305.00    128.808 0.01 0.001
300.00    128.811 0.01 0.001
295.00    128.813 0.01 0.001
290.00    128.812 0.01 0.001
285.00    128.815 0.01 0.001
280.00    128.817 0.01 0.001
275.00    128.820 0.01 0.001
270.00    128.822 0.01 0.001
265.00    128.824 0.01 0.001
260.00    128.825 0.01 0.001
255.00    128.829 0.01 0.001
250.00    128.832 0.01 0.001
245.00    128.834 0.01 0.001
240.00    128.837 0.01 0.001
235.00    128.840 0.01 0.001
230.00    128.843 0.01 0.001
225.00    128.846 0.01 0.001
220.00    128.849 0.01 0.001
215.00    128.851 0.01 0.001
210.00    128.854 0.01 0.001
205.00    128.857 0.01 0.001
200.00    128.859 0.01 0.001
195.00    128.862 0.01 0.001
190.00    128.866 0.01 0.001
185.00    128.869 0.01 0.001
180.00    128.871 0.01 0.001
175.00    128.876 0.01 0.001
170.00    128.879 0.01 0.001
165.00    128.883 0.01 0.001
160.00    128.886 0.01 0.001
155.00    128.889 0.01 0.001
150.00    128.892 0.01 0.001
145.00    128.896 0.01 0.001
140.00    128.901 0.01 0.001
135.00    128.905 0.01 0.001
130.00    128.909 0.01 0.001
125.00    128.914 0.01 0.001
120.00    128.919 0.01 0.001
115.00    128.923 0.01 0.001
110.00    128.928 0.01 0.001
105.00    128.933 0.01 0.001
100.00    128.936 0.01 0.001
95.00     128.942 0.01 0.001
90.00     128.946 0.01 0.001
85.00     128.953 0.01 0.001
80.00     128.959 0.01 0.001
75.00     128.966 0.01 0.001
70.00     128.973 0.01 0.001
65.00     128.980 0.01 0.001
60.00     128.987 0.01 0.001
55.00     128.994 0.01 0.001
50.00     129.002 0.01 0.001
45.00     129.012 0.01 0.001
40.00     129.021 0.01 0.001
35.00     129.031 0.01 0.001
30.00     129.042 0.01 0.001
25.00     129.054 0.01 0.001
20.00     129.070 0.01 0.001
15.00     129.086 0.01 0.001
10.00     129.105 0.01 0.001
5.00      129.135 0.01 0.001
-3.06E-14 129.171 0.01 0.001
-5.00     129.238 0.01 0.001
-10.00    129.428 0.01 0.001
-15.00    130.615 0.01 0.001
-20.00    135.681 0.01 0.001
-25.00    138.028 0.01 0.001
-30.00    138.270 0.01 0.001
-35.00    138.367 0.01 0.001
-40.00    138.406 0.01 0.001
-45.00    138.426 0.01 0.001
-50.00    138.434 0.01 0.001
-55.00    138.434 0.01 0.001
-60.00    138.427 0.01 0.001
-65.00    138.417 0.01 0.001
-70.00    138.402 0.01 0.001
-75.00    138.383 0.01 0.001
-80.00    138.361 0.01 0.001
-85.00    138.335 0.01 0.001
-90.00    138.305 0.01 0.001
-95.00    138.269 0.01 0.001
-100.00   138.230 0.01 0.001
-105.00   138.185 0.01 0.001
-110.00   138.134 0.01 0.001
-115.00   138.075 0.01 0.001
-120.00   138.008 0.01 0.001
-125.00   137.934 0.01 0.001
-130.00   137.850 0.01 0.001
-135.00   137.752 0.01 0.001
-140.00   137.643 0.01 0.001
-145.00   137.515 0.01 0.001
-150.00   137.366 0.01 0.001
-155.00   137.191 0.01 0.001
-160.00   136.982 0.01 0.001
-165.00   136.717 0.01 0.001
-170.00   136.382 0.01 0.001
-175.00   135.938 0.01 0.001
-180.00   135.330 0.01 0.001
-185.00   134.514 0.01 0.001
-190.00   133.495 0.01 0.001
-195.00   132.346 0.01 0.001
-200.00   131.228 0.01 0.001
-205.00   130.299 0.01 0.001
-210.00   129.661 0.01 0.001
-215.00   129.310 0.01 0.001
-220.00   129.136 0.01 0.001
-225.00   129.053 0.01 0.001
-230.00   129.008 0.01 0.001
-235.00   128.983 0.01 0.001
-240.00   128.961 0.01 0.001
-245.00   128.946 0.01 0.001
-250.00   128.933 0.01 0.001
-255.00   128.923 0.01 0.001
-260.00   128.913 0.01 0.001
-265.00   128.904 0.01 0.001
-270.00   128.897 0.01 0.001
-275.00   128.890 0.01 0.001
-280.00   128.884 0.01 0.001
-285.00   128.878 0.01 0.001
-290.00   128.872 0.01 0.001
-295.00   128.866 0.01 0.001
-300.00   128.862 0.01 0.001
-305.00   128.857 0.01 0.001
-310.00   128.851 0.01 0.001
-315.00   128.846 0.01 0.001
-320.00   128.844 0.01 0.001
-325.00   128.839 0.01 0.001
-330.00   128.835 0.01 0.001
-335.00   128.831 0.01 0.001
-340.00   128.827 0.01 0.001
-345.00   128.822 0.01 0.001
-350.00   128.820 0.01 0.001
-355.00   128.817 0.01 0.001
-360.00   128.813 0.01 0.001
-365.00   128.811 0.01 0.001
-370.00   128.807 0.01 0.001
-375.00   128.804 0.01 0.001
-380.00   128.799 0.01 0.001
-385.00   128.798 0.01 0.001
-390.00   128.795 0.01 0.001
-395.00   128.791 0.01 0.001
-400.00   128.789 0.01 0.001
