-318. 0.5408452628234993 0.5 0.09229439442655599
-317. 0.5778046326911335 0.5 0.09298312759850035
-315. 0.7389898350261184 0.5 0.09644142142830509
-314. 0.5577830483944614 0.5 0.09260501261911747
-313. 0.5511091869622373 0.5 0.0924816037133358
-312. 0.5444353255300183 0.5 0.09235951834812636
-311. 0.6250279266975106 0.5 0.09392111559714748
-310. 0.6183540652652866 0.5 0.09378467013742345
-309. 0.34988081603391313 0.5 0.08940505836942228
-308. 0.34320695460168904 0.5 0.08932518125392883
-307. 0.24926663056974854 0.5 0.08835839884390763
-306. 0.2425927691375245 0.5 0.08830104846612252
-305. 0.6722512207038829 0.5 0.09492236600471311
-304. 0.4037779714725094 0.5 0.0901034684818815
-303. 0.52800380393986 0.5 0.09206460958035412
-302. 0.5649631738074992 0.5 0.09273925494364849
-300. 0.07164990664461049 0.5 0.08735719933645432
-299. 0.32677543301153583 0.5 0.08913478633771331
-298. 0.538267728078603 0.5 0.09224787540400706
-297. 0.2697944788472295 0.5 0.08854430015410483
-296. 0.4376535426144384 0.5 0.090590343073275
-295. 0.6055126063816474 0.5 0.09352570480426255
-294. 0.5115722823497069 0.5 0.0917778332717889
-293. 0.5048984209174827 0.5 0.0916636955026447
-292. 0.49822455948525873 0.5 0.09155091702021696
-291. 0.4479174667531814 0.5 0.09074504981388837
-290. 0.2230774488216662 0.5 0.08814208241658385
-289. 0.5654694377883079 0.5 0.09274877765899421
-288. 0.6024288076559422 0.5 0.09346421987482136
-287. -0.5823422988724541 0.5 0.09307045740264211
-283. 0.6999591943943967 0.5 0.09553849935131496
-279. 0.4987308234660725 0.5 0.09155942438136992
-278. 0.49205696203384847 0.5 0.0914479065457474
-277. 0.4853831006016244 0.5 0.09133775764192764
-276. 0.47870923916940034 0.5 0.09122898262841189
-275. 0.29750245253774343 0.5 0.08881783287632411
-274. 0.29082859110551934 0.5 0.08874958476127448
-273. 0.2841547296732953 0.5 0.08868283427278614
-272. -0.9442496081549594 0.5 0.10181998795340068
-271. 0.1835405442091357 0.5 0.0878601623168802
-270. 0.3513996079763446 0.5 0.08942344102532328
-269. 0.08292635874497115 0.5 0.087387986172618
-268. 0.425318347711613 0.5 0.09040882449644298
-267. 0.06957863588052306 0.5 0.08735203162221705
-266. 0.062904774448299 0.5 0.08733640987867593
-265. 0.3180303008152244 0.5 0.08903710511910538
-264. 0.31135643938300034 0.5 0.08896427242066486
-263. -0.0007500411482313627 0.5 0.08726647254799137
-262. 0.29800871651855226 0.5 0.08882307103869456
-261. 0.2913348550863331 0.5 0.08875470945704265
-260. 0.022861605854959697 0.5 0.0872757046449907
-259. -0.33287810597613027 0.5 0.0892044560579137
-258. -0.42681843000807074 0.5 0.09043064105128971
-257. 0.0028400215582875606 0.5 0.08726660523288855
-256. 0.2143323166253547 0.5 0.08807508444893031
-253. -0.02385542417060862 0.5 0.08727652558573223
-252. 0.01310394569702557 0.5 0.08726949910636142
-251. -0.03720314703505671 0.5 0.08729093497300786
-250. -0.13114347106699226 0.5 0.08757007265218034
-249. -0.1378173324992163 0.5 0.087601699582728
-248. -0.05722473133172389 0.5 0.08732435227619957
-247. 0.19790079503520147 0.5 0.08795632026483696
-246. 0.10396047100326097 0.5 0.08745737726972994
-245. 0.010020146971320447 0.5 0.08726823810262246
-244. -0.08392017706062008 0.5 0.08739091430142476
-243. 0.3893715058055965 0.5 0.08990755316815227
-242. 0.38269764437337245 0.5 0.08981906688203495
-240. -0.02334916018979482 0.5 0.08727610302435025
-239. 0.05724344097769761 0.5 0.08732439012393031
-238. 0.050569579545473566 0.5 0.0873116735694912
-237. -0.04337074448646696 0.5 0.08729972002538877
-236. -0.050044605918691 0.5 0.08731073998913477
-235. -0.14398492995063153 0.5 0.08763231196179422
-234. -0.23792525398257205 0.5 0.08826184260684213
-232. 0.09779287355184577 0.5 0.0874354179018573
-231. 0.003852549519905243 0.5 0.08726672506594371
-230. -0.002821311912313842 0.5 0.08726660335978743
-229. -0.009495173344537889 0.5 0.08726805693423982
-228. 0.027464196523096302 0.5 0.08727980021638297
-227. -0.19737582140841892 0.5 0.08795267939175153
-226. -0.20404968284064295 0.5 0.08799967335341499
-225. 0.13834230612599888 0.5 0.08760425348234742
-224. 0.17530167599363305 0.5 0.08780821866463952
-223. -0.31133772973703155 0.5 0.08896407032815162
-221. 0.024380397797386218 0.5 0.08727697333367684
-220. 0.017706536365167135 0.5 0.08727200669975704
-219. -0.11986701896663161 0.5 0.08752017761192618
-218. -0.12654088039885567 0.5 0.0875491695126769
-217. -0.1332147418310797 0.5 0.08757972149076275
-215. -0.2774621585951025 0.5 0.08861740398631318
-214. 0.1521962929712558 0.5 0.08767513006370065
-213. 0.14552243153903177 0.5 0.08764015016442943
-211. -0.08599144782470751 0.5 0.08739712875915093
-210. 0.03823438464264316 0.5 0.08729231027679889
-209. 0.03156052321042407 0.5 0.08728407514762059
-208. -0.06237980082151645 0.5 0.08733524771408431
-207. 0.2800121881451254 0.5 0.08864215627847749
-204. -0.00180878395069616 0.5 0.08726652045604492
-203. 0.20968351111637096 0.5 0.08804053981867133
-202. 0.24664288098400516 0.5 0.0883356710209965
-201. -0.021830368247368295 0.5 0.08727488971192615
-200. -0.02850422967959234 0.5 0.08728082941446921
-196. 0.20659971239066585 0.5 0.08801803514390304
-195. 0.025392925759008863 0.5 0.08727786443433957
-194. -0.02491416697307342 0.5 0.08727743857329058
-190. 0.16655654379732157 0.5 0.08775566146405585
-188. 0.2404752835325949 0.5 0.08828316993290701
-187. 0.40833434729980383 0.5 0.09016682137758165
-186. 0.31439402326786325 0.5 0.08899723782193948
-185. 0.22045369923592276 0.5 0.08812170550324036
-184. 0.12651337520398226 0.5 0.08754904682480337
-183. 0.2943724389711912 0.5 0.08878563852520147
-182. 0.33133180883882535 0.5 0.08918668636146378
-179. 0.44220991844173285 0.5 0.09065861062113674
-178. 0.4355360570095088 0.5 0.09055884038397645
-177. 0.5161286581770013 0.5 0.09185653555220831
-176. 0.5094547967447772 0.5 0.09174147267869065
-172. 0.4827593510158811 0.5 0.0912948298683794
-171. 0.3888190269839405 0.5 0.08990017330654339
-170. 0.38214516555171646 0.5 0.08981180646057965
-167. 0.3621235812550493 0.5 0.08955539337546181
-166. 0.35544971982282525 0.5 0.08947283199617084
-165. 0.697841708789467 0.5 0.09549067808550775
-164. 0.691167847357243 0.5 0.09534074844078651
-163. 0.4226945981258696 0.5 0.09037083790865352
-159. 0.7886982340956975 0.5 0.09764899986747083
-158. 0.7383911413636203 0.5 0.09642726706215392
-157. 0.9935166677305456 0.5 0.10325678869456792
-156. 0.9868428062983216 0.5 0.10305907188692662
-155. 1.1983351013653887 0.5 0.10976135891943839
-154. 1.1916612399331645 0.5 0.10953687032215872
-152. 0.26201565977169355 0.5 0.08847217087453482
-151. 0.6916741113380519 0.5 0.09535207949216587
-150. 0.9467996377049772 0.5 0.10189304871901216
-149. 0.9837590075726115 0.5 0.10296803539209627
-148. 1.0643516087401088 0.5 0.10541284866896523
-147. 1.2758439038071758 0.5 0.11242526690813343
-146. 1.3564365049746683 0.5 0.11530048092770998
-145. 1.611562031341594 0.5 0.12502509971624146
-144. 1.6048881699093698 0.5 0.12475985745199675
-143. 1.6854807710768622 0.5 0.12799795679723183
-142. 1.6788069096446383 0.5 0.12772696743568937
-140. 1.5345594928806154 0.5 0.12199820300060826
-139. 1.5278856314483913 0.5 0.12173939484141641
-135. 1.7193563422187912 0.5 0.12938109241097703
-134. 1.887215405986 0.5 0.1364110424287253
-133. 2.055074469753209 0.5 0.14370249807213561
-132. 1.873867683121552 0.5 0.13584192422412372
-131. 2.3907925972876267 0.5 0.1589247273443445
-128. 1.9344386999923722 0.5 0.1384376467956251
-126. 2.619222677925661 0.5 0.16967405696660712
-125. 2.481649122593862 0.5 0.1631668035026024
-124. 2.3440755672620632 0.5 0.1567621002212055
-123. 2.7737340188284216 0.5 0.17709069925838072
-122. 2.810693388696056 0.5 0.1788802484587921
-121. 2.673119833364257 0.5 0.17224883973338995
-120. 2.622812740632175 0.5 0.16984513436896304
-119. 3.183370886098108 0.5 0.19721245123471362
-118. 2.958530868166593 0.5 0.18609291783519435
-117. 3.0609400849840194 0.5 0.19113658828997288
-116. 3.076082839201724 0.5 0.1918854366116755
-115. 3.4621080594682248 0.5 0.21121045407999212
-114. 3.324534504136426 0.5 0.20427476933591343
-113. 3.2742274114043437 0.5 0.20175133088018454
-112. 3.1366538560725448 0.5 0.1948883703360571
-111. 3.5663123076389027 0.5 0.21649554906530913
-110. 3.821437834005828 0.5 0.22953783557672003
-109. 3.6402310473741717 0.5 0.220259969705688
-108. 3.6335571859419473 0.5 0.21991959055066307
-107. 3.8886827123088774 0.5 0.23299747215077027
-106. 3.9256420821765117 0.5 0.23490257277514245
-105. 4.049867914643863 0.5 0.24132371084212095
-104. 4.130460515811355 0.5 0.2455034206404031
-103. 4.472852504777997 0.5 0.2633697269141789
-102. 4.335278949446198 0.5 0.25617102619114857
-101. 4.3286050880139735 0.5 0.25582246392794156
-98. 4.570382891516451 0.5 0.26848799818762514
-97. 4.60734226138409 0.5 0.2704306340272782
-94. 5.110919452685717 0.5 0.29704770968231875
-93. 5.104245591253493 0.5 0.29669332046361524
-92. 5.0975717298212695 0.5 0.29633897132986686
-91. 5.439963718787911 0.5 0.3145671450924403
-90. 5.5205563199554035 0.5 0.31887119183410617
-89. 5.470249227223321 0.5 0.3161839776797488
-88. 5.419942134491238 0.5 0.31349864552400897
-87. 5.631434429558306 0.5 0.32480029398271215
-86. 5.6465771837760155 0.5 0.3256107034851769
-85. 6.098052250992303 0.5 0.3498396561993875
-84. 5.9604786956605045 0.5 0.342443594443818
-83. 6.084704528127855 0.5 0.34912160628051764
-82. 6.078030666695631 0.5 0.34876261818654825
-79. 6.363441701497966 0.5 0.3641360118830738
-78. 6.4004010713656 0.5 0.3661298046762294
-77. 6.655526597732526 0.5 0.3799099771266379
-76. 6.736119198900024 0.5 0.38426899883174787
-75. 7.078511187866666 0.5 0.40281693961733106
-74. 7.071837326434442 0.5 0.402454982805085
-73. 7.152429927601934 0.5 0.40682698331157374
-72. 7.1893892974695675 0.5 0.4088327239914919
-71. 7.313615129936918 0.5 0.4155777154263634
-70. 7.394207731104411 0.5 0.41995630677707574
-69. 7.474800332271903 0.5 0.42433695958563905
-68. 7.46812647083968 0.5 0.42397412163605436
-67. 7.461452609407456 0.5 0.4236112974232948
-66. 7.498411979275094 0.5 0.42562076419171285
-65. 8.058970124741027 0.5 0.4561459608141905
-64. 8.008663032008945 0.5 0.4534030606116749
-63. 7.871089476677146 0.5 0.4459054135229168
-60. 8.156500511479482 0.5 0.4614653983458411
-57. 8.529178008881534 0.5 0.48181203306705833
-56. 8.478870916149452 0.5 0.4790636865604156
-55. 8.77762967381624 0.5 0.4953929223382948
-54. 8.858222274983733 0.5 0.4998008954601301
-53. 9.026081338750942 0.5 0.5089857544697585
-52. 8.757608089519568 0.5 0.4942980449614886
-51. 9.318166234985501 0.5 0.5249797852754216
-50. 9.093326217053985 0.5 0.5126666630244716
-49. 8.999385893022046 0.5 0.5075246985165454
-48. 8.992712031589821 0.5 0.5071594545055431
-47. 9.422370483156179 0.5 0.5306892403482228
-46. 9.415696621723955 0.5 0.5303235210251562
-45. 9.234489835092303 0.5 0.5203963459090386
-44. 9.402348898859513 0.5 0.5295921034508744
-43. 10.442872588623885 0.5 0.5866861029043242
-41. 9.295060851963125 0.5 0.5237140551381922
-40. 9.8119857661292 0.5 0.5520513534413283
-39. 10.328910680295273 0.5 0.5804260805697181
-31. -0.8945874239262223 0.5 0.100426371274092
-23. -1.0352447779837262 0.5 0.10451435087553727
-22. -1.3037180272150997 0.5 0.1134079519437143
-21. -1.4412915825468984 0.5 0.11843530460609508
38. 7.807894710220583 0.5 0.4424630168899064
39. 8.193919930487084 0.5 0.4635069116892
40. 8.64539499770337 0.5 0.4881631474608137
44. 9.600447256221283 0.5 0.5404501684974168
45. 9.331974006989912 0.5 0.5257362267775733
46. 9.23803368295797 0.5 0.5205904394446441
49. 8.868946248262437 0.5 0.5003875308532967
50. 8.68773946163078 0.5 0.490477903925386
51. 8.681065600198558 0.5 0.4901130540252903
52. 8.674391738766333 0.5 0.48974821301752375
53. 8.405918489534958 0.5 0.4750791576439762
54. 8.31197816550302 0.5 0.46995003058530976
55. 8.218037841471077 0.5 0.46482290223785655
56. 8.211363980038852 0.5 0.46445873021939416
57. 8.030157193407197 0.5 0.45457491217070617
58. 8.285282719774127 0.5 0.46849282524401986
59. 8.191342395742186 0.5 0.4633662769548503
60. 7.966502377810671 0.5 0.45110482082346565
61. 7.65439589727944 0.5 0.434106069036785
62. 7.691355267147074 0.5 0.4361176466097114
63. 7.379248786615842 0.5 0.419143430454713
64. 7.459841387783334 0.5 0.4235237054859042
65. 7.322267832451536 0.5 0.4160477155031518
66. 7.271960739719454 0.5 0.41331546444459816
67. 7.265286878287229 0.5 0.41295306030178275
68. 6.909547166456145 0.5 0.39365822718771615
69. 6.859240073724061 0.5 0.3909334172147857
70. 6.80893298099198 0.5 0.3882096029237293
71. 6.889525582159473 0.5 0.39257366945463973
74. 6.782237535263083 0.5 0.38676462314843063
75. 6.688297211231143 0.5 0.3816821147044908
76. 6.332557499400053 0.5 0.3624704567930721
77. 6.2386171753681126 0.5 0.3574072674388678
78. 6.144676851336177 0.5 0.35234862220069113
79. 5.96347006470452 0.5 0.3426042975057993
80. 5.869529740672579 0.5 0.33756014771267545
81. 5.601056491441207 0.5 0.3231750038109919
82. 5.594382630008982 0.5 0.32281802250170166
83. 5.587708768576758 0.5 0.32246107231181786
84. 5.493768444544818 0.5 0.3174400537486028
85. 5.312561657913161 0.5 0.3077733276322951
86. 5.305887796480937 0.5 0.3074177919274892
87. 5.299213935048713 0.5 0.3070622922571149
88. 5.205273611016777 0.5 0.3020622251415576
89. 4.936800361785403 0.5 0.2878153070359319
90. 4.93012650035318 0.5 0.28746201257225207
91. 4.7052864824216645 0.5 0.2755864788984451
92. 4.69861262098944 0.5 0.27523481368044383
93. 4.561039065657641 0.5 0.2679971350197395
94. 4.554365204225418 0.5 0.26764659946069785
96. 4.235584862261962 0.5 0.2509708324114197
97. 4.272544232129596 0.5 0.2528970128782982
98. 4.047704214198081 0.5 0.2412116438255082
99. 3.9973971214660033 0.5 0.23860826441826052
101. 3.765883242102264 0.5 0.22668625795929825
102. 3.8901090745696143 0.5 0.23307094845419293
103. 3.5343693627385253 0.5 0.21487268619641384
104. 3.8767613517051664 0.5 0.23238351441674293
105. 3.564654871173935 0.5 0.2164112843271457
106. 3.514347778441853 0.5 0.2138567176967979
107. 3.420407454409912 0.5 0.2091029359487635
108. 3.37010036167783 0.5 0.2065664149620848
109. 3.1016271124464616 0.5 0.1931503911346787
110. 3.1385864823140954 0.5 0.19498437898208182
111. 3.1319126208818715 0.5 0.19465288641223824
112. 2.7761729090507816 0.5 0.17720861251486592
113. 3.031298435417707 0.5 0.18967297477661824
114. 3.024624573985483 0.5 0.18934385496512188
115. 2.930684249953542 0.5 0.18472795540976106
116. 2.662211000722169 0.5 0.17172660327851225
117. 2.655537139289945 0.5 0.17140737878311435
118. 2.5179635839581462 0.5 0.1648750154242516
119. 2.380390028626352 0.5 0.15844204638843
120. 2.286449704594412 0.5 0.15411288703527143
121. 2.628841693561054 0.5 0.1701325713119807
122. 2.2731019817299636 0.5 0.15350225919856977
123. 2.1791616576980233 0.5 0.14923825750127576
124. 2.085221333666083 0.5 0.145036703641651
125. 1.9912810096341425 0.5 0.14090318407588218
126. 2.0718736108016347 0.5 0.14444509999219346
127. 2.108832980669269 0.5 0.1460865805414464
129. 1.8773191013055346 0.5 0.13598892597886666
132. 1.5954981292097128 0.5 0.12438757853242662
133. 1.2397584173786231 0.5 0.11117223365667557
134. 1.233084555946399 0.5 0.11094290910841424
135. 1.5754765449130408 0.5 0.12359740802752227
136. 1.4815362208811003 0.5 0.11995820612287894
137. 1.3875958968491597 0.5 0.11643924226644221
138. 1.250022341517361 0.5 0.11152640381836516
139. 1.199715248785279 0.5 0.10980788187153016
140. 1.1930413873530596 0.5 0.10958322915372676
141. 1.3172672198204103 0.5 0.11389016298319483
142. 1.0924272018888952 0.5 0.10629562624852092
143. 1.260286265656104 0.5 0.11188235901272509
145. 0.8106062297930735 0.5 0.09820115975861632
146. 1.065731756159999 0.5 0.10545587802957367
147. 1.059057894727775 0.5 0.10524815949033788
149. 0.7839107840641775 0.5 0.09752994503184638
150. 0.7772369226319584 0.5 0.09736494815984313
151. 1.0323624489988836 0.5 0.10442631826126407
152. 1.0256885875666597 0.5 0.10422314289656173
153. 0.6699488757355697 0.5 0.09487211334230987
154. 0.6632750143033457 0.5 0.09472727006542342
155. 0.7438676154708381 0.5 0.09655709194562412
156. 0.6499272914388976 0.5 0.094441284006425
157. 0.73051989260639 0.5 0.09624204975608665
158. 0.723846031174166 0.5 0.09608628737097423
159. 0.6299057071422255 0.5 0.09402164020938272
160. 0.6232318457100063 0.5 0.09388427065859882
161. 0.6165579842777823 0.5 0.09374816620838645
162. 0.6098841228455583 0.5 0.09361333237673611
163. 0.38504410491404306 0.5 0.0898500132766088
164. 0.5092699373813937 0.5 0.09173830482519264
168. 0.6571074168519304 0.5 0.09459450917093765
169. 0.30136770502084054 0.5 0.08885804315328161
170. 0.5564932313877708 0.5 0.09258105919220432
171. 0.5498193699555468 0.5 0.0924579056680753
172. 0.28134612072417337 0.5 0.08865519175119407
173. 0.4928384157912405 0.5 0.0914608936932084
174. 0.18073193526000883 0.5 0.08784219037315148
175. 0.17405807382778476 0.5 0.08780058271511716
176. 0.16738421239556073 0.5 0.08776052177134705
177. 0.24797681356305315 0.5 0.08834719668181126
178. 0.19766972083097084 0.5 0.08795471651257719
179. 0.1473626280988886 0.5 0.08764964002434215
180. 0.14068876666666455 0.5 0.08761578634285566
181. 0.22128136783416194 0.5 0.08812810793088705
182. 0.2146075064019379 0.5 0.08807715266301158
183. 0.12066718236999735 0.5 0.08752357123735462
184. 0.11399332093777331 0.5 0.08749595365407296
185. 0.19458592210526574 0.5 0.08793349025190797
186. 0.013379135473608753 0.5 0.08726962797967566
187. 0.18123819924081763 0.5 0.08784540968945041
188. 0.0436646439090189 0.5 0.08730017219942644
189. 0.42968986417551897 0.5 0.09047260139871273
190. 0.07395015234442905 0.5 0.0873631155979912
191. 0.15454275351192642 0.5 0.08768779781476467
192. 0.038785813830056796 0.5 0.08729306110663472
193. -0.29513728235110404 0.5 0.08879347510552008
194. 0.3963205570144037 0.5 0.09000121885636503
195. 0.3023802329824632 0.5 0.08886865925308511
196. 0.2084399089505227 0.5 0.08803142494312706
197. 0.027233122318865686 0.5 0.08727957674119496
198. 0.020559260886641638 0.5 0.08727393695984395
199. 0.013885399454417597 0.5 0.08726987206203121
200. 0.269010925821343 0.5 0.08853694176471273
201. 0.0005376765899695045 0.5 0.08726646771205808
202. 0.08113027775746688 0.5 0.08738278254856657
203. 0.07445641632524284 0.5 0.08736444275937072
204. -0.01948390770669767 0.5 0.08727317554405126
205. -0.026157769138921715 0.5 0.08727856158426364
206. -0.03283163057114576 0.5 0.08728552225768728
207. 0.047760970596346666 0.5 0.087306792167589
208. 0.1283535717638391 0.5 0.08755731349858285
209. -0.009219983567959663 0.5 0.08726796585997319
210. 0.027739386299674526 0.5 0.0872800688189403
211. 0.021065524867455443 0.5 0.08727430958188494
212. 0.014391663435231397 0.5 0.08727012520819616
213. 0.09498426460272383 0.5 0.08742586119767845
214. 0.0010439405707833062 0.5 0.08726648187182028
215. -0.005629920861440739 0.5 0.08726702310641572
216. -0.23046993879295594 0.5 0.08820076517961889
217. 0.24282174407326057 0.5 0.08830299093943043
218. -0.0692847364579711 0.5 0.08735131061399529
219. -0.03232536659033692 0.5 0.08728493905123375
220. -0.038999228022560964 0.5 0.0872933545767808
221. 0.08522660444478969 0.5 0.08739481639813643
222. 0.20945243691214532 0.5 0.0880388421502855
223. -0.1462872749189446 0.5 0.08764408009058307
224. 0.06520502014812252 0.5 0.08734161670719941
225. 0.18943085261547318 0.5 0.08789874133909316
226. -0.20994209051547497 0.5 0.08804244174418864
227. 0.13244989845116684 0.5 0.08757614104929845
228. 0.1257760370189428 0.5 0.08754576777920803
229. 0.031835712987002295 0.5 0.08728438359776837
230. -0.10573784234479647 0.5 0.08746395362591819
231. -0.025145241177304035 0.5 0.08727764310453937
232. 0.05544735999019335 0.5 0.08732081317525109
233. 0.13603996115768577 0.5 0.08759312454175862
234. 0.12936609972546173 0.5 0.08756191262931656
235. -0.09547391820605348 0.5 0.08742750734832738
236. -0.23304747353785224 0.5 0.08822166640593726
237. 0.10934451542878959 0.5 0.08747763952962487
238. 0.059037422696707316 0.5 0.08732807655848346
239. -0.16580259523480792 0.5 0.08775125479843819
240. -0.1288432253671737 0.5 0.08755953313362434
241. -0.35368324329868894 0.5 0.08945122363651496
242. 0.16324167086738584 0.5 0.08773643441588042
243. 0.025668115535592045 0.5 0.08727811288618544
244. -0.024638977196490237 0.5 0.0872771974566892
245. -0.2058457638281472 0.5 0.08801258290298106
246. -0.12525316266065478 0.5 0.08754345402531015
247. -0.044660561493162367 0.5 0.08730172714102652
248. -0.13860088552510288 0.5 0.08760551496501835
249. -0.14527474695732692 0.5 0.08763888188723083
250. 0.022584316809881967 0.5 0.08727548182209087
251. -0.20225570112163327 0.5 0.08798688996250112
252. 0.009236593945438834 0.5 0.08726797128124024
253. 0.08982919511293126 0.5 0.08740904239898725
254. 0.08315533368070722 0.5 0.08738865772717694
255. 0.07648147224848317 0.5 0.08736984174479898
256. 0.06980761081625912 0.5 0.08735259546555306
257. 0.06313374938403508 0.5 0.08733691981933933
258. -0.030806574647905434 0.5 0.08728324378728418
259. -0.03748043608012948 0.5 0.08729130108402357
260. 0.043112165087362944 0.5 0.08729932471580742
261. -0.050828158944577574 0.5 0.08731213698836729
262. -0.05750202037680162 0.5 0.08732491446945714
263. 0.023090580790695765 0.5 0.08727589069311475
264. 0.016416719358471724 0.5 0.08727122842933004
265. -0.07752360467346879 0.5 0.0873726764920739
266. -0.08419746610569284 0.5 0.08739173749632408
267. -0.0908713275379169 0.5 0.08741236702416903
268. -0.09754518897014093 0.5 0.08743456396536473
269. 0.15758033739678443 0.5 0.08770448175771975
270. 0.020006782064985684 0.5 0.08727354066383973
271. -0.11756677326681307 0.5 0.08751054692077156
272. -0.12424063469903712 0.5 0.08753900075413934
273. -0.1309144961312562 0.5 0.08756901520856367
274. -0.13758835756348023 0.5 0.08760058867990507
275. -0.1442622189957043 0.5 0.08763371948307326
276. -0.15093608042792833 0.5 0.08766840585247256
277. -0.11397671056029414 0.5 0.087495886866686
278. -0.07701734069265995 0.5 0.08737129460236313
279. -0.04005797082502576 0.5 0.08729483427115767
280. -0.046731832257249806 0.5 0.08730507325526023
281. -0.009772462389615618 0.5 0.08726815141221826
282. 0.07082013877787681 0.5 0.08735511094619706
283. 0.06414627734565276 0.5 0.08733919695416067
284. 0.14473887851315015 0.5 0.08763614528590809
285. -0.21100083331793978 0.5 0.08805025311643297
286. 0.2186576182484185 0.5 0.0881078928635054
287. -0.006182399683096696 0.5 0.08726713851162264
288. 0.11804343278425397 0.5 0.08751252736241538
289. -0.06316335384740303 0.5 0.08733698588526759
290. 0.017429247320089405 0.5 0.0872718344205685
291. 0.010755385887865359 0.5 0.08726850821766602
292. 0.09134798705535778 0.5 0.08741390040836242
293. -0.08985879957629425 0.5 0.08740913631608287
294. -0.18379912360823478 0.5 0.0878618306801513
295. -0.23410621634031703 0.5 0.08823031765267031
296. -0.2844133090723993 0.5 0.0886853925966977
297. -0.029287782705473955 0.5 0.08728163006011665
298. -0.035961644137698 0.5 0.08728932910547206
299. 0.0009977257299361906 0.5 0.08726648020325288
300. -0.005676135702287855 0.5 0.08726703234631901
301. 0.031283234165346334 0.5 0.08728376705194582
302. 0.06824260403298053 0.5 0.08734877855502125
303. 0.06156874260075648 0.5 0.08733347134456472
304. 0.0548948811685374 0.5 0.0873197357991507
305. 0.004587788436455115 0.5 0.0872668348057946
306. -0.045719304295627164 0.5 0.08730341859472614
307. 0.07850652817172349 0.5 0.08737538525388701
308. -0.27723318365936644 0.5 0.0886151921455604
309. 0.15242526790699187 0.5 0.08767635776896915
310. 0.2330178690744843 0.5 0.08822142505203011
311. 0.13907754504254377 0.5 0.08760784647985394
312. -0.04212924158911321 0.5 0.08729784360306092
313. 0.3002627473775286 0.5 0.08884649714388171
314. 0.2935888859453096 0.5 0.08877763061841071
315. 0.1560153306135108 0.5 0.08769584579281524
316. 0.018441775281712047 0.5 0.0872724766645961
317. 0.18630083904892095 0.5 0.08787809146525741
318. 0.13599374631683867 0.5 0.0875929030489108
319. 0.04205342228489815 0.5 0.08729773077315714
320. -0.008253670447184135 0.5 0.08726766727187488