1     1     2
395.5 1.    2
395.5 2.    2
396.5 3.    2
401.5 4.    2
399.5 4.    2
396.5 4.    2
400.5 5.    2
400.5 6.    2
398.5 6.    2
396.5 6.    2
396.5 7.    2
396.5 8.    2
395.5 9.    2
395.5 10.   2
395.5 11.   2
395.5 12.   2
395.5 13.   2
395.5 14.   2
395.5 15.   2
395.5 16.   2
395.5 17.   2
395.5 18.   2
395.5 19.   2
394.5 20.   2
398.5 21.   2
396.5 22.   2
395.5 23.   2
395.5 24.   2
395.5 25.   2
395.5 26.   2
395.5 27.   2
395.5 28.   2
394.5 29.   2
394.5 30.   2
393.5 31.   2
393.5 32.   2
393.5 33.   2
393.5 34.   2
393.5 35.   2
393.5 36.   2
394.5 37.   2
393.5 38.   2
393.5 39.   2
393.5 40.   2
391.5 41.   2
390.5 42.   2
390.5 43.   2
389.5 44.   2
392.5 45.   2
392.5 46.   2
392.5 47.   2
392.5 48.   2
387.5 49.   2
388.5 50.   2
389.5 51.   2
390.5 52.   2
392.5 53.   2
391.5 54.   2
390.5 55.   2
389.5 56.   2
391.5 57.   2
390.5 58.   2
391.5 59.   2
391.5 60.   2
388.5 61.   2
390.5 62.   2
391.5 63.   2
391.5 64.   2
391.5 65.   2
392.5 66.   2
392.5 67.   2
392.5 68.   2
391.5 69.   2
391.5 70.   2
391.5 71.   2
391.5 72.   2
391.5 73.   2
391.5 74.   2
392.5 75.   2
392.5 76.   2
392.5 77.   2
392.5 78.   2
392.5 79.   2
392.5 80.   2
392.5 81.   2
392.5 82.   2
392.5 83.   2
392.5 84.   2
392.5 85.   2
392.5 86.   2
392.5 87.   2
392.5 88.   2
391.5 89.   2
392.5 90.   2
391.5 91.   2
392.5 92.   2
392.5 93.   2
392.5 94.   2
391.5 95.   2
391.5 96.   2
391.5 97.   2
391.5 98.   2
391.5 99.   2
390.5 100.  2
391.5 101.  2
391.5 102.  2
391.5 103.  2
391.5 104.  2
391.5 105.  2
390.5 106.  2
391.5 107.  2
390.5 108.  2
391.5 109.  2
391.5 110.  2
392.5 111.  2
391.5 112.  2
390.5 113.  2
392.5 114.  2
392.5 115.  2
391.5 116.  2
393.5 117.  2
392.5 118.  2
391.5 119.  2
392.5 120.  2
390.5 121.  2
390.5 122.  2
390.5 123.  2
390.5 124.  2
392.5 125.  2
390.5 126.  2
390.5 127.  2
392.5 128.  2
390.5 129.  2
392.5 130.  2
390.5 131.  2
392.5 132.  2
392.5 133.  2
392.5 134.  2
392.5 135.  2
392.5 136.  2
393.5 137.  2
393.5 138.  2
393.5 139.  2
393.5 140.  2
392.5 141.  2
391.5 141.  2
390.5 141.  2
392.5 142.  2
393.5 143.  2
393.5 144.  2
393.5 145.  2
392.5 146.  2
391.5 147.  2
390.5 147.  2
389.5 147.  2
397.5 148.  2
395.5 148.  2
392.5 148.  2
391.5 148.  2
390.5 148.  2
392.5 149.  2
391.5 149.  2
390.5 149.  2
393.5 150.  2
392.5 151.  2
390.5 152.  2
395.5 153.  2
394.5 153.  2
390.5 153.  2
392.5 154.  2
395.5 155.  2
394.5 155.  2
393.5 155.  2
390.5 156.  2
395.5 157.  2
393.5 157.  2
392.5 157.  2
391.5 158.  2
396.5 159.  2
394.5 159.  2
391.5 159.  2
396.5 160.  2
394.5 160.  2
391.5 160.  2
390.5 161.  2
390.5 162.  2
395.5 163.  2
394.5 163.  2
390.5 163.  2
389.5 163.  2
388.5 163.  2
395.5 164.  2
397.5 165.  2
397.5 166.  2
396.5 167.  2
389.5 167.  2
388.5 167.  2
396.5 168.  2
389.5 168.  2
388.5 168.  2
392.5 169.  2
389.5 170.  2
389.5 171.  2
389.5 172.  2
389.5 173.  2
389.5 174.  2
390.5 175.  2
390.5 176.  2
389.5 177.  2
389.5 178.  2
389.5 179.  2
389.5 180.  2
389.5 181.  2
389.5 182.  2
389.5 183.  2
389.5 184.  2
389.5 185.  2
389.5 186.  2
389.5 187.  2
394.5 188.  2
392.5 188.  2
389.5 188.  2
389.5 189.  2
396.5 190.  2
395.5 190.  2
389.5 190.  2
398.5 191.  2
393.5 191.  2
388.5 191.  2
398.5 192.  2
396.5 192.  2
394.5 192.  2
392.5 192.  2
389.5 192.  2
388.5 193.  2
388.5 194.  2
388.5 195.  2
388.5 196.  2
390.5 197.  2
389.5 198.  2
388.5 199.  2
388.5 200.  2
388.5 201.  2
388.5 202.  2
387.5 203.  2
387.5 204.  2
387.5 205.  2
387.5 206.  2
387.5 207.  2
387.5 208.  2
388.5 209.  2
387.5 210.  2
387.5 211.  2
387.5 212.  2
385.5 213.  2
385.5 214.  2
385.5 215.  2
385.5 216.  2
385.5 217.  2
385.5 218.  2
385.5 219.  2
384.5 220.  2
382.5 221.  2
384.5 222.  2
384.5 223.  2
385.5 224.  2
385.5 225.  2
385.5 226.  2
385.5 227.  2
385.5 228.  2
385.5 229.  2
385.5 230.  2
385.5 231.  2
385.5 232.  2
383.5 233.  2
383.5 234.  2
384.5 235.  2
385.5 236.  2
385.5 237.  2
385.5 238.  2
385.5 239.  2
385.5 240.  2
385.5 241.  2
385.5 242.  2
385.5 243.  2
385.5 244.  2
385.5 245.  2
385.5 246.  2
385.5 247.  2
385.5 248.  2
385.5 249.  2
385.5 250.  2
385.5 251.  2
385.5 252.  2
385.5 253.  2
385.5 254.  2
385.5 255.  2
385.5 256.  2
385.5 257.  2
385.5 258.  2
385.5 259.  2
385.5 260.  2
385.5 261.  2
385.5 262.  2
385.5 263.  2
385.5 264.  2
385.5 265.  2
385.5 266.  2
384.5 267.  2
384.5 268.  2
385.5 269.  2
385.5 270.  2
385.5 271.  2
385.5 272.  2
384.5 273.  2
383.5 274.  2
383.5 275.  2
383.5 276.  2
383.5 277.  2
383.5 278.  2
385.5 279.  2
385.5 280.  2
385.5 281.  2
385.5 282.  2
385.5 283.  2
385.5 284.  2
383.5 285.  2
383.5 286.  2
383.5 287.  2
383.5 288.  2
383.5 289.  2
385.5 290.  2
385.5 291.  2
385.5 292.  2
384.5 292.  2
383.5 292.  2
385.5 293.  2
385.5 294.  2
385.5 295.  2
385.5 296.  2
383.5 297.  2
383.5 298.  2
383.5 299.  2
385.5 300.  2
385.5 301.  2
385.5 302.  2
384.5 303.  2
384.5 304.  2
382.5 305.  2
382.5 306.  2
389.5 307.  2
386.5 307.  2
382.5 307.  2
390.5 308.  2
386.5 308.  2
382.5 308.  2
392.5 309.  2
386.5 309.  2
385.5 309.  2
392.5 310.  2
386.5 310.  2
384.5 310.  2
392.5 311.  2
386.5 311.  2
384.5 311.  2
392.5 312.  2
386.5 312.  2
384.5 312.  2
382.5 313.  2
389.5 314.  2
386.5 314.  2
382.5 314.  2
389.5 315.  2
385.5 315.  2
382.5 315.  2
388.5 316.  2
386.5 316.  2
384.5 316.  2
382.5 317.  2
382.5 318.  2
382.5 319.  2
382.5 320.  2
382.5 321.  2
382.5 322.  2
382.5 323.  2
382.5 324.  2
386.5 325.  2
386.5 326.  2
385.5 326.  2
381.5 326.  2
381.5 327.  2
388.5 328.  2
387.5 328.  2
383.5 328.  2
382.5 328.  2
381.5 328.  2
383.5 329.  2
382.5 329.  2
381.5 329.  2
383.5 330.  2
382.5 330.  2
381.5 330.  2
383.5 331.  2
382.5 331.  2
381.5 331.  2
384.5 332.  2
382.5 332.  2
381.5 332.  2
383.5 333.  2
382.5 333.  2
381.5 333.  2
381.5 334.  2
381.5 335.  2
381.5 336.  2
383.5 337.  2
382.5 337.  2
381.5 337.  2
381.5 338.  2
381.5 339.  2
381.5 340.  2
381.5 341.  2
381.5 342.  2
381.5 343.  2
381.5 344.  2
381.5 345.  2
381.5 346.  2
381.5 347.  2
381.5 348.  2
385.5 349.  2
384.5 349.  2
381.5 349.  2
381.5 350.  2
381.5 351.  2
381.5 352.  2
380.5 353.  2
381.5 354.  2
380.5 355.  2
380.5 356.  2
380.5 357.  2
380.5 358.  2
380.5 359.  2
381.5 360.  2
380.5 361.  2
380.5 362.  2
380.5 363.  2
380.5 364.  2
380.5 365.  2
380.5 366.  2
380.5 367.  2
380.5 368.  2
380.5 369.  2
380.5 370.  2
380.5 371.  2
388.5 372.  2
386.5 372.  2
385.5 372.  2
383.5 372.  2
380.5 372.  2
388.5 373.  2
385.5 373.  2
380.5 373.  2
388.5 374.  2
386.5 374.  2
380.5 374.  2
380.5 375.  2
380.5 376.  2
379.5 377.  2
379.5 378.  2
380.5 379.  2
380.5 380.  2
379.5 381.  2
380.5 382.  2
380.5 383.  2
380.5 384.  2
379.5 385.  2
379.5 386.  2
379.5 387.  2
379.5 388.  2
379.5 389.  2
379.5 390.  2
379.5 391.  2
379.5 392.  2
379.5 393.  2
378.5 394.  2
378.5 395.  2
378.5 396.  2
378.5 397.  2
378.5 398.  2
378.5 399.  2
378.5 400.  2
379.5 401.  2
379.5 402.  2
377.5 403.  2
377.5 404.  2
378.5 405.  2
378.5 406.  2
378.5 407.  2
379.5 408.  2
378.5 409.  2
379.5 410.  2
378.5 411.  2
378.5 412.  2
381.5 413.  2
379.5 413.  2
378.5 413.  2
379.5 414.  2
379.5 415.  2
379.5 416.  2
379.5 417.  2
378.5 418.  2
379.5 419.  2
379.5 420.  2
378.5 421.  2
378.5 422.  2
378.5 423.  2
378.5 424.  2
379.5 425.  2
379.5 426.  2
378.5 427.  2
378.5 428.  2
378.5 429.  2
379.5 430.  2
378.5 431.  2
379.5 432.  2
378.5 433.  2
378.5 434.  2
378.5 435.  2
378.5 436.  2
378.5 437.  2
378.5 438.  2
378.5 439.  2
378.5 440.  2
378.5 441.  2
378.5 442.  2
378.5 443.  2
378.5 444.  2
377.5 445.  2
377.5 446.  2
378.5 447.  2
377.5 448.  2
377.5 449.  2
377.5 450.  2
377.5 451.  2
378.5 452.  2
377.5 453.  2
377.5 454.  2
378.5 455.  2
378.5 456.  2
377.5 457.  2
377.5 458.  2
377.5 459.  2
377.5 460.  2
377.5 461.  2
377.5 462.  2
377.5 463.  2
377.5 464.  2
381.5 465.  2
380.5 465.  2
378.5 465.  2
378.5 466.  2
377.5 467.  2
377.5 468.  2
377.5 469.  2
377.5 470.  2
381.5 471.  2
377.5 472.  2
377.5 473.  2
377.5 474.  2
381.5 475.  2
380.5 475.  2
377.5 475.  2
381.5 476.  2
378.5 476.  2
377.5 476.  2
380.5 477.  2
378.5 477.  2
377.5 477.  2
380.5 478.  2
378.5 478.  2
377.5 478.  2
380.5 479.  2
379.5 479.  2
377.5 479.  2
380.5 480.  2
379.5 480.  2
377.5 480.  2
640   480   2
2