#Magnetic Field (Oe),Voltage (V) 
-15.00, 0.007734 
-14.90, 0.007734 
-14.80, 0.007734 
-14.70, 0.007735 
-14.60, 0.007735 
-14.50, 0.007735 
-14.40, 0.007735 
-14.30, 0.007735 
-14.20, 0.007736 
-14.10, 0.007735 
-14.00, 0.007736 
-13.90, 0.007736 
-13.80, 0.007736 
-13.70, 0.007736 
-13.60, 0.007736 
-13.50, 0.007736 
-13.40, 0.007736 
-13.30, 0.007737 
-13.20, 0.007737 
-13.10, 0.007737 
-13.00, 0.007738 
-12.90, 0.007738 
-12.80, 0.007737 
-12.70, 0.007738 
-12.60, 0.007738 
-12.50, 0.007739 
-12.40, 0.007739 
-12.30, 0.007739 
-12.20, 0.007739 
-12.10, 0.007739 
-12.00, 0.007739 
-11.90, 0.007740 
-11.80, 0.007740 
-11.70, 0.007740 
-11.60, 0.007741 
-11.50, 0.007741 
-11.40, 0.007741 
-11.30, 0.007742 
-11.20, 0.007742 
-11.10, 0.007742 
-11.00, 0.007743 
-10.90, 0.007743 
-10.80, 0.007743 
-10.70, 0.007744 
-10.60, 0.007744 
-10.50, 0.007744 
-10.40, 0.007745 
-10.30, 0.007745 
-10.20, 0.007747 
-10.10, 0.007747 
-10.00, 0.007747 
-9.90, 0.007748 
-9.80, 0.007748 
-9.70, 0.007748 
-9.60, 0.007750 
-9.50, 0.007749 
-9.40, 0.007750 
-9.30, 0.007751 
-9.20, 0.007751 
-9.10, 0.007751 
-9.00, 0.007753 
-8.90, 0.007753 
-8.80, 0.007753 
-8.70, 0.007755 
-8.60, 0.007755 
-8.50, 0.007755 
-8.40, 0.007757 
-8.30, 0.007757 
-8.20, 0.007757 
-8.10, 0.007759 
-8.00, 0.007759 
-7.90, 0.007759 
-7.80, 0.007762 
-7.70, 0.007762 
-7.60, 0.007764 
-7.50, 0.007764 
-7.40, 0.007764 
-7.30, 0.007767 
-7.20, 0.007767 
-7.10, 0.007767 
-7.00, 0.007770 
-6.90, 0.007770 
-6.80, 0.007770 
-6.70, 0.007774 
-6.60, 0.007774 
-6.50, 0.007774 
-6.40, 0.007777 
-6.30, 0.007777 
-6.20, 0.007777 
-6.10, 0.007781 
-6.00, 0.007781 
-5.90, 0.007782 
-5.80, 0.007786 
-5.70, 0.007786 
-5.60, 0.007786 
-5.50, 0.007790 
-5.40, 0.007790 
-5.30, 0.007790 
-5.20, 0.007795 
-5.10, 0.007796 
-5.00, 0.007801 
-4.90, 0.007801 
-4.80, 0.007801 
-4.70, 0.007807 
-4.60, 0.007807 
-4.50, 0.007807 
-4.40, 0.007814 
-4.30, 0.007813 
-4.20, 0.007814 
-4.10, 0.007820 
-4.00, 0.007820 
-3.90, 0.007820 
-3.80, 0.007827 
-3.70, 0.007827 
-3.60, 0.007827 
-3.50, 0.007834 
-3.40, 0.007834 
-3.30, 0.007834 
-3.20, 0.007841 
-3.10, 0.007841 
-3.00, 0.007841 
-2.90, 0.007848 
-2.80, 0.007848 
-2.70, 0.007855 
-2.60, 0.007855 
-2.50, 0.007855 
-2.40, 0.007862 
-2.30, 0.007862 
-2.20, 0.007862 
-2.10, 0.007868 
-2.00, 0.007868 
-1.90, 0.007868 
-1.80, 0.007874 
-1.70, 0.007874 
-1.60, 0.007874 
-1.50, 0.007879 
-1.40, 0.007879 
-1.30, 0.007879 
-1.20, 0.007884 
-1.10, 0.007884 
-1.00, 0.007884 
-0.90, 0.007889 
-0.80, 0.007888 
-0.70, 0.007889 
-0.60, 0.007892 
-0.50, 0.007892 
-0.40, 0.007892 
-0.30, 0.007895 
-0.20, 0.007894 
-0.10, 0.007896 
2.22E-15, 0.007896 
0.10, 0.007896 
0.20, 0.007897 
0.30, 0.007897 
0.40, 0.007897 
0.50, 0.007897 
0.60, 0.007896 
0.70, 0.007897 
0.80, 0.007896 
0.90, 0.007896 
1.00, 0.007896 
1.10, 0.007894 
1.20, 0.007894 
1.30, 0.007894 
1.40, 0.007891 
1.50, 0.007891 
1.60, 0.007891 
1.70, 0.007887 
1.80, 0.007887 
1.90, 0.007887 
2.00, 0.007882 
2.10, 0.007882 
2.20, 0.007882 
2.30, 0.007883 
2.40, 0.007883 
2.50, 0.007878 
2.60, 0.007878 
2.70, 0.007878 
2.80, 0.007872 
2.90, 0.007872 
3.00, 0.007872 
3.10, 0.007866 
3.20, 0.007866 
3.30, 0.007866 
3.40, 0.007860 
3.50, 0.007860 
3.60, 0.007860 
3.70, 0.007854 
3.80, 0.007854 
3.90, 0.007854 
4.00, 0.007847 
4.10, 0.007847 
4.20, 0.007847 
4.30, 0.007841 
4.40, 0.007841 
4.50, 0.007841 
4.60, 0.007835 
4.70, 0.007835 
4.80, 0.007829 
4.90, 0.007829 
5.00, 0.007829 
5.10, 0.007823 
5.20, 0.007824 
5.30, 0.007824 
5.40, 0.007818 
5.50, 0.007818 
5.60, 0.007818 
5.70, 0.007813 
5.80, 0.007813 
5.90, 0.007813 
6.00, 0.007808 
6.10, 0.007808 
6.20, 0.007808 
6.30, 0.007803 
6.40, 0.007803 
6.50, 0.007803 
6.60, 0.007798 
6.70, 0.007798 
6.80, 0.007798 
6.90, 0.007793 
7.00, 0.007793 
7.10, 0.007793 
7.20, 0.007789 
7.30, 0.007789 
7.40, 0.007785 
7.50, 0.007785 
7.60, 0.007785 
7.70, 0.007781 
7.80, 0.007781 
7.90, 0.007781 
8.00, 0.007778 
8.10, 0.007778 
8.20, 0.007778 
8.30, 0.007775 
8.40, 0.007775 
8.50, 0.007775 
8.60, 0.007772 
8.70, 0.007772 
8.80, 0.007772 
8.90, 0.007770 
9.00, 0.007770 
9.10, 0.007770 
9.20, 0.007767 
9.30, 0.007767 
9.40, 0.007767 
9.50, 0.007765 
9.60, 0.007765 
9.70, 0.007763 
9.80, 0.007763 
9.90, 0.007763 
10.00, 0.007761 
10.10, 0.007761 
10.20, 0.007761 
10.30, 0.007759 
10.40, 0.007759 
10.50, 0.007759 
10.60, 0.007757 
10.70, 0.007757 
10.80, 0.007757 
10.90, 0.007756 
11.00, 0.007756 
11.10, 0.007756 
11.20, 0.007754 
11.30, 0.007754 
11.40, 0.007754 
11.50, 0.007753 
11.60, 0.007753 
11.70, 0.007753 
11.80, 0.007752 
11.90, 0.007752 
12.00, 0.007752 
12.10, 0.007750 
12.20, 0.007750 
12.30, 0.007749 
12.40, 0.007749 
12.50, 0.007749 
12.60, 0.007748 
12.70, 0.007748 
12.80, 0.007748 
12.90, 0.007747 
13.00, 0.007747 
13.10, 0.007747 
13.20, 0.007746 
13.30, 0.007746 
13.40, 0.007746 
13.50, 0.007745 
13.60, 0.007746 
13.70, 0.007746 
13.80, 0.007745 
13.90, 0.007745 
14.00, 0.007745 
14.10, 0.007744 
14.20, 0.007744 
14.30, 0.007744 
14.40, 0.007743 
14.50, 0.007743 
14.60, 0.007744 
14.70, 0.007743 
14.80, 0.007743 
14.90, 0.007742 
15.00, 0.007742 
15.00, 0.007742 
14.90, 0.007742 
14.80, 0.007743 
14.70, 0.007743 
14.60, 0.007743 
14.50, 0.007743 
14.40, 0.007743 
14.30, 0.007744 
14.20, 0.007744 
14.10, 0.007744 
14.00, 0.007745 
13.90, 0.007745 
13.80, 0.007745 
13.70, 0.007746 
13.60, 0.007746 
13.50, 0.007746 
13.40, 0.007746 
13.30, 0.007746 
13.20, 0.007746 
13.10, 0.007747 
13.00, 0.007747 
12.90, 0.007747 
12.80, 0.007748 
12.70, 0.007748 
12.60, 0.007748 
12.50, 0.007749 
12.40, 0.007749 
12.30, 0.007749 
12.20, 0.007750 
12.10, 0.007751 
12.00, 0.007752 
11.90, 0.007752 
11.80, 0.007752 
11.70, 0.007753 
11.60, 0.007753 
11.50, 0.007753 
11.40, 0.007754 
11.30, 0.007754 
11.20, 0.007754 
11.10, 0.007756 
11.00, 0.007756 
10.90, 0.007756 
10.80, 0.007757 
10.70, 0.007757 
10.60, 0.007757 
10.50, 0.007759 
10.40, 0.007759 
10.30, 0.007759 
10.20, 0.007761 
10.10, 0.007761 
10.00, 0.007760 
9.90, 0.007762 
9.80, 0.007762 
9.70, 0.007762 
9.60, 0.007764 
9.50, 0.007764 
9.40, 0.007767 
9.30, 0.007766 
9.20, 0.007767 
9.10, 0.007769 
9.00, 0.007769 
8.90, 0.007769 
8.80, 0.007772 
8.70, 0.007772 
8.60, 0.007772 
8.50, 0.007774 
8.40, 0.007774 
8.30, 0.007774 
8.20, 0.007778 
8.10, 0.007778 
8.00, 0.007778 
7.90, 0.007781 
7.80, 0.007781 
7.70, 0.007781 
7.60, 0.007784 
7.50, 0.007784 
7.40, 0.007784 
7.30, 0.007788 
7.20, 0.007788 
7.10, 0.007792 
7.00, 0.007792 
6.90, 0.007792 
6.80, 0.007796 
6.70, 0.007796 
6.60, 0.007796 
6.50, 0.007801 
6.40, 0.007801 
6.30, 0.007801 
6.20, 0.007806 
6.10, 0.007805 
6.00, 0.007805 
5.90, 0.007811 
5.80, 0.007811 
5.70, 0.007811 
5.60, 0.007816 
5.50, 0.007816 
5.40, 0.007816 
5.30, 0.007821 
5.20, 0.007822 
5.10, 0.007822 
5.00, 0.007827 
4.90, 0.007827 
4.80, 0.007828 
4.70, 0.007833 
4.60, 0.007834 
4.50, 0.007840 
4.40, 0.007840 
4.30, 0.007840 
4.20, 0.007846 
4.10, 0.007846 
4.00, 0.007846 
3.90, 0.007852 
3.80, 0.007852 
3.70, 0.007852 
3.60, 0.007858 
3.50, 0.007858 
3.40, 0.007858 
3.30, 0.007864 
3.20, 0.007864 
3.10, 0.007864 
3.00, 0.007869 
2.90, 0.007869 
2.80, 0.007869 
2.70, 0.007875 
2.60, 0.007875 
2.50, 0.007875 
2.40, 0.007880 
2.30, 0.007880 
2.20, 0.007880 
2.10, 0.007880 
2.00, 0.007880 
1.90, 0.007884 
1.80, 0.007884 
1.70, 0.007884 
1.60, 0.007889 
1.50, 0.007889 
1.40, 0.007889 
1.30, 0.007892 
1.20, 0.007892 
1.10, 0.007892 
1.00, 0.007895 
0.90, 0.007895 
0.80, 0.007895 
0.70, 0.007897 
0.60, 0.007897 
0.50, 0.007897 
0.40, 0.007899 
0.30, 0.007899 
0.20, 0.007899 
0.10, 0.007900 
2.22E-15, 0.007899 
-0.10, 0.007900 
-0.20, 0.007899 
-0.30, 0.007899 
-0.40, 0.007898 
-0.50, 0.007899 
-0.60, 0.007898 
-0.70, 0.007896 
-0.80, 0.007896 
-0.90, 0.007896 
-1.00, 0.007894 
-1.10, 0.007894 
-1.20, 0.007894 
-1.30, 0.007890 
-1.40, 0.007890 
-1.50, 0.007891 
-1.60, 0.007887 
-1.70, 0.007887 
-1.80, 0.007887 
-1.90, 0.007882 
-2.00, 0.007882 
-2.10, 0.007882 
-2.20, 0.007877 
-2.30, 0.007877 
-2.40, 0.007877 
-2.50, 0.007870 
-2.60, 0.007870 
-2.70, 0.007870 
-2.80, 0.007863 
-2.90, 0.007863 
-3.00, 0.007856 
-3.10, 0.007856 
-3.20, 0.007856 
-3.30, 0.007848 
-3.40, 0.007848 
-3.50, 0.007848 
-3.60, 0.007840 
-3.70, 0.007840 
-3.80, 0.007840 
-3.90, 0.007832 
-4.00, 0.007832 
-4.10, 0.007832 
-4.20, 0.007825 
-4.30, 0.007825 
-4.40, 0.007825 
-4.50, 0.007818 
-4.60, 0.007818 
-4.70, 0.007818 
-4.80, 0.007811 
-4.90, 0.007811 
-5.00, 0.007811 
-5.10, 0.007805 
-5.20, 0.007805 
-5.30, 0.007799 
-5.40, 0.007800 
-5.50, 0.007800 
-5.60, 0.007794 
-5.70, 0.007794 
-5.80, 0.007794 
-5.90, 0.007790 
-6.00, 0.007790 
-6.10, 0.007790 
-6.20, 0.007785 
-6.30, 0.007785 
-6.40, 0.007785 
-6.50, 0.007781 
-6.60, 0.007781 
-6.70, 0.007781 
-6.80, 0.007778 
-6.90, 0.007778 
-7.00, 0.007778 
-7.10, 0.007774 
-7.20, 0.007774 
-7.30, 0.007774 
-7.40, 0.007771 
-7.50, 0.007771 
-7.60, 0.007771 
-7.70, 0.007768 
-7.80, 0.007767 
-7.90, 0.007765 
-8.00, 0.007765 
-8.10, 0.007765 
-8.20, 0.007763 
-8.30, 0.007763 
-8.40, 0.007763 
-8.50, 0.007760 
-8.60, 0.007760 
-8.70, 0.007760 
-8.80, 0.007758 
-8.90, 0.007757 
-9.00, 0.007757 
-9.10, 0.007755 
-9.20, 0.007755 
-9.30, 0.007755 
-9.40, 0.007753 
-9.50, 0.007753 
-9.60, 0.007753 
-9.70, 0.007752 
-9.80, 0.007752 
-9.90, 0.007752 
-10.00, 0.007750 
-10.10, 0.007750 
-10.20, 0.007750 
-10.30, 0.007749 
-10.40, 0.007749 
-10.50, 0.007748 
-10.60, 0.007748 
-10.70, 0.007749 
-10.80, 0.007747 
-10.90, 0.007747 
-11.00, 0.007747 
-11.10, 0.007746 
-11.20, 0.007746 
-11.30, 0.007746 
-11.40, 0.007745 
-11.50, 0.007745 
-11.60, 0.007745 
-11.70, 0.007744 
-11.80, 0.007744 
-11.90, 0.007744 
-12.00, 0.007743 
-12.10, 0.007743 
-12.20, 0.007743 
-12.30, 0.007742 
-12.40, 0.007742 
-12.50, 0.007742 
-12.60, 0.007741 
-12.70, 0.007741 
-12.80, 0.007740 
-12.90, 0.007740 
-13.00, 0.007740 
-13.10, 0.007740 
-13.20, 0.007740 
-13.30, 0.007740 
-13.40, 0.007739 
-13.50, 0.007739 
-13.60, 0.007739 
-13.70, 0.007739 
-13.80, 0.007738 
-13.90, 0.007738 
-14.00, 0.007738 
-14.10, 0.007738 
-14.20, 0.007738 
-14.30, 0.007737 
-14.40, 0.007737 
-14.50, 0.007737 
-14.60, 0.007737 
-14.70, 0.007736 
-14.80, 0.007737 
-14.90, 0.007736 
-15.00, 0.007736 
