-400	0.000	0.14	0.007
-397.5	0.001	0.14	0.007
-395	0.000	0.14	0.007
-392.5	0.001	0.14	0.007
-390	0.001	0.14	0.007
-387.5	0.002	0.14	0.007
-385	0.002	0.14	0.007
-382.5	0.003	0.14	0.007
-380	0.003	0.14	0.007
-377.5	0.003	0.14	0.007
-375	0.004	0.14	0.007
-372.5	0.004	0.14	0.007
-370	0.005	0.14	0.007
-367.5	0.005	0.14	0.007
-365	0.005	0.14	0.007
-362.5	0.005	0.14	0.007
-360	0.005	0.14	0.007
-357.5	0.005	0.14	0.007
-355	0.006	0.14	0.007
-352.5	0.006	0.14	0.007
-350	0.006	0.14	0.007
-347.5	0.007	0.14	0.007
-345	0.008	0.14	0.007
-342.5	0.008	0.14	0.007
-340	0.009	0.14	0.007
-337.5	0.009	0.14	0.007
-335	0.009	0.14	0.007
-332.5	0.010	0.14	0.007
-330	0.010	0.14	0.007
-327.5	0.010	0.14	0.007
-325	0.011	0.14	0.007
-322.5	0.011	0.14	0.007
-320	0.012	0.14	0.007
-317.5	0.012	0.14	0.007
-315	0.012	0.14	0.007
-312.5	0.012	0.14	0.007
-310	0.013	0.14	0.007
-307.5	0.013	0.14	0.007
-305	0.014	0.14	0.007
-302.5	0.015	0.14	0.007
-300	0.015	0.14	0.007
-297.5	0.015	0.14	0.007
-295	0.015	0.14	0.007
-292.5	0.016	0.14	0.007
-290	0.016	0.14	0.007
-287.5	0.016	0.14	0.007
-285	0.016	0.14	0.007
-282.5	0.017	0.14	0.007
-280	0.018	0.14	0.007
-277.5	0.019	0.14	0.007
-275	0.019	0.14	0.007
-272.5	0.019	0.14	0.007
-270	0.020	0.14	0.007
-267.5	0.020	0.14	0.007
-265	0.021	0.14	0.007
-262.5	0.021	0.14	0.007
-260	0.022	0.14	0.007
-257.5	0.022	0.14	0.007
-255	0.023	0.14	0.007
-252.5	0.023	0.14	0.007
-250	0.024	0.14	0.007
-247.5	0.024	0.14	0.007
-245	0.025	0.14	0.007
-242.5	0.025	0.14	0.007
-240	0.025	0.14	0.007
-237.5	0.026	0.14	0.007
-235	0.026	0.14	0.007
-232.5	0.026	0.14	0.007
-230	0.027	0.14	0.007
-227.5	0.029	0.14	0.007
-225	0.029	0.14	0.007
-222.5	0.029	0.14	0.007
-220	0.031	0.14	0.007
-217.5	0.031	0.14	0.007
-215	0.032	0.14	0.007
-212.5	0.032	0.14	0.007
-210	0.033	0.14	0.007
-207.5	0.034	0.14	0.007
-205	0.035	0.14	0.007
-202.5	0.035	0.14	0.007
-200	0.036	0.14	0.007
-197.5	0.036	0.14	0.007
-195	0.037	0.14	0.007
-192.5	0.038	0.14	0.007
-190	0.038	0.14	0.007
-187.5	0.039	0.14	0.007
-185	0.040	0.14	0.007
-182.5	0.040	0.14	0.007
-180	0.041	0.14	0.007
-177.5	0.042	0.14	0.007
-175	0.043	0.14	0.007
-172.5	0.043	0.14	0.007
-170	0.046	0.14	0.007
-167.5	0.046	0.14	0.007
-165	0.047	0.14	0.007
-162.5	0.047	0.14	0.007
-160	0.047	0.14	0.007
-157.5	0.049	0.14	0.007
-155	0.050	0.14	0.007
-152.5	0.051	0.14	0.007
-150	0.051	0.14	0.007
-147.5	0.052	0.14	0.007
-145	0.053	0.14	0.007
-142.5	0.054	0.14	0.007
-140	0.055	0.14	0.007
-137.5	0.056	0.14	0.007
-135	0.057	0.14	0.007
-132.5	0.058	0.14	0.007
-130	0.059	0.14	0.007
-127.5	0.060	0.14	0.007
-125	0.061	0.14	0.007
-122.5	0.062	0.14	0.007
-120	0.063	0.14	0.007
-117.5	0.065	0.14	0.007
-115	0.066	0.14	0.007
-112.5	0.066	0.14	0.007
-110	0.067	0.14	0.007
-107.5	0.068	0.14	0.007
-105	0.070	0.14	0.007
-102.5	0.071	0.14	0.007
-100	0.072	0.14	0.007
-97.5	0.074	0.14	0.007
-95		0.076	0.14	0.007
-92.5	0.076	0.14	0.007
-90		0.077	0.14	0.007
-87.5	0.079	0.14	0.007
-85	0.080	0.14	0.007
-82.5	0.082	0.14	0.007
-80		0.084	0.14	0.007
-77.5	0.085	0.14	0.007
-75		0.087	0.14	0.007
-72.5	0.089	0.14	0.007
-70		0.090	0.14	0.007
-67.5	0.092	0.14	0.007
-65		0.094	0.14	0.007
-62.5	0.097	0.14	0.007
-60		0.098	0.14	0.007
-57.5	0.101	0.14	0.007
-55		0.104	0.14	0.007
-52.5	0.107	0.14	0.007
-50		0.109	0.14	0.007
-47.5	0.112	0.14	0.007
-45		0.116	0.14	0.007
-42.5	0.118	0.14	0.007
-40		0.122	0.14	0.007
-37.5	0.127	0.14	0.007
-35		0.129	0.14	0.007
-32.5	0.135	0.14	0.007
-30		0.140	0.14	0.007
-27.5	0.147	0.14	0.007
-25		0.152	0.14	0.007
-22.5	0.160	0.14	0.007
-20		0.169	0.14	0.007
-17.5	0.179	0.14	0.007
-15		0.192	0.14	0.007
-12.5	0.209	0.14	0.007
-10		0.226	0.14	0.007
-7.5	0.250	0.14	0.007
-5		0.282	0.14	0.007
-2.5	0.319	0.14	0.007
0		0.374	0.14	0.007
2.5		0.440	0.14	0.007
5		0.528	0.14	0.007
7.5		0.671	0.14	0.007
10		0.883	0.14	0.007
12.5	1.163	0.14	0.007
15		1.619	0.14	0.007
17.5	2.095	0.14	0.007
20		2.461	0.14	0.007
22.5	2.807	0.14	0.007
25		3.066	0.14	0.007
27.5	3.245	0.14	0.007
30		3.411	0.14	0.007
32.5	3.543	0.14	0.007
35		3.638	0.14	0.007
37.5	3.731	0.14	0.007
40		3.807	0.14	0.007
42.5	3.864	0.14	0.007
45		3.921	0.14	0.007
47.5	3.969	0.14	0.007
50		4.008	0.14	0.007
52.5	4.046	0.14	0.007
55		4.080	0.14	0.007
57.5	4.105	0.14	0.007
60		4.133	0.14	0.007
62.5	4.157	0.14	0.007
65		4.175	0.14	0.007
67.5	4.195	0.14	0.007
70		4.213	0.14	0.007
72.5	4.226	0.14	0.007
75		4.241	0.14	0.007
77.5	4.254	0.14	0.007
80		4.265	0.14	0.007
82.5	4.275	0.14	0.007
85		4.286	0.14	0.007
87.5	4.294	0.14	0.007
90		4.301	0.14	0.007
92.5	4.309	0.14	0.007
95		4.315	0.14	0.007
97.5	4.322	0.14	0.007
100		4.327	0.14	0.007
102.5	4.333	0.14	0.007
105		4.337	0.14	0.007
107.5	4.342	0.14	0.007
110		4.346	0.14	0.007
112.5	4.349	0.14	0.007
115		4.353	0.14	0.007
117.5	4.356	0.14	0.007
120		4.358	0.14	0.007
122.5	4.361	0.14	0.007
125		4.362	0.14	0.007
127.5	4.365	0.14	0.007
130		4.367	0.14	0.007
132.5	4.367	0.14	0.007
135		4.368	0.14	0.007
137.5	4.370	0.14	0.007
140		4.371	0.14	0.007
142.5	4.371	0.14	0.007
145		4.372	0.14	0.007
147.5	4.372	0.14	0.007
150		4.373	0.14	0.007
152.5	4.373	0.14	0.007
155		4.372	0.14	0.007
157.5	4.372	0.14	0.007
160		4.372	0.14	0.007
162.5	4.371	0.14	0.007
165		4.371	0.14	0.007
167.5	4.370	0.14	0.007
170		4.369	0.14	0.007
172.5	4.368	0.14	0.007
175		4.367	0.14	0.007
177.5	4.365	0.14	0.007
180		4.363	0.14	0.007
182.5	4.362	0.14	0.007
185	4.360	0.14	0.007
187.5	4.357	0.14	0.007
190		4.355	0.14	0.007
192.5	4.353	0.14	0.007
195		4.350	0.14	0.007
197.5	4.347	0.14	0.007
200		4.344	0.14	0.007
202.5	4.341	0.14	0.007
205		4.338	0.14	0.007
200		4.336	0.14	0.007
210		4.332	0.14	0.007
212.5	4.328	0.14	0.007
215		4.324	0.14	0.007
217.5	4.320	0.14	0.007
220		4.316	0.14	0.007
222.5	4.311	0.14	0.007
225		4.306	0.14	0.007
227.5	4.302	0.14	0.007
230		4.296	0.14	0.007
232.5	4.291	0.14	0.007
235		4.286	0.14	0.007
237.5	4.280	0.14	0.007
240		4.274	0.14	0.007
242.5	4.268	0.14	0.007
245		4.261	0.14	0.007
247.5	4.254	0.14	0.007
250		4.246	0.14	0.007
252.5	4.238	0.14	0.007
255		4.230	0.14	0.007
257.5	4.222	0.14	0.007
260		4.213	0.14	0.007
262.5	4.203	0.14	0.007
265		4.193	0.14	0.007
267.5	4.181	0.14	0.007
270		4.169	0.14	0.007
272.5	4.157	0.14	0.007
275		4.144	0.14	0.007
277.5	4.129	0.14	0.007
280		4.115	0.14	0.007
282.5	4.099	0.14	0.007
285		4.082	0.14	0.007
287.5	4.062	0.14	0.007
290		4.043	0.14	0.007
292.5	4.021	0.14	0.007
295		3.997	0.14	0.007
297.5	3.976	0.14	0.007
300		3.946	0.14	0.007
302.5	3.908	0.14	0.007
305		3.868	0.14	0.007
307.5	3.859	0.14	0.007
310		3.820	0.14	0.007
312.5	3.773	0.14	0.007
315		3.714	0.14	0.007
317.5	3.653	0.14	0.007
320		3.583	0.14	0.007
322.5	3.507	0.14	0.007
325		3.486	0.14	0.007
327.5	3.405	0.14	0.007
330		3.312	0.14	0.007
332.5	3.208	0.14	0.007
335		3.095	0.14	0.007
337.5	2.964	0.14	0.007
340		2.835	0.14	0.007
342.5	2.797	0.14	0.007
345		2.686	0.14	0.007
347.5	2.556	0.14	0.007
350		2.410	0.14	0.007
352.5	2.275	0.14	0.007
355		2.142	0.14	0.007
357.5	2.100	0.14	0.007
360		1.997	0.14	0.007
362.5	1.881	0.14	0.007
365		1.758	0.14	0.007
367.5	1.648	0.14	0.007
370		1.544	0.14	0.007
372.5	1.448	0.14	0.007
375		1.417	0.14	0.007
377.5	1.340	0.14	0.007
380		1.262	0.14	0.007
382.5	1.188	0.14	0.007
385		1.118	0.14	0.007
387.5	1.050	0.14	0.007
390		1.028	0.14	0.007
392.5	0.981	0.14	0.007
395		0.932	0.14	0.007
397.5	0.883	0.14	0.007
400		0.835	0.14	0.007
402.5	0.793	0.14	0.007
402.5	0.778	0.14	0.007
400		0.785	0.14	0.007
397.5	0.797	0.14	0.007
395	0.809	0.14	0.007
392.5	0.823	0.14	0.007
390		0.837	0.14	0.007
387.5	0.837	0.14	0.007
385		0.854	0.14	0.007
382.5	0.871	0.14	0.007
380		0.888	0.14	0.007
377.5	0.906	0.14	0.007
375		0.928	0.14	0.007
372.5	0.930	0.14	0.007
370		0.950	0.14	0.007
367.5	0.972	0.14	0.007
365		0.995	0.14	0.007
362.5	1.024	0.14	0.007
360		1.051	0.14	0.007
357.5	1.080	0.14	0.007
355		1.085	0.14	0.007
352.5	1.114	0.14	0.007
350		1.147	0.14	0.007
347.5	1.186	0.14	0.007
345		1.224	0.14	0.007
342.5	1.267	0.14	0.007
340		1.275	0.14	0.007
337.5	1.316	0.14	0.007
335		1.369	0.14	0.007
332.5	1.422	0.14	0.007
330		1.480	0.14	0.007
327.5	1.543	0.14	0.007
325		1.616	0.14	0.007
322.5	1.634	0.14	0.007
320		1.697	0.14	0.007
317.5	1.774	0.14	0.007
315		1.858	0.14	0.007
312.5	1.957	0.14	0.007
310		2.056	0.14	0.007
307.5	2.161	0.14	0.007
305		2.189	0.14	0.007
302.5	2.281	0.14	0.007
300		2.400	0.14	0.007
297.5	2.520	0.14	0.007
295		2.611	0.14	0.007
292.5	2.719	0.14	0.007
290		2.830	0.14	0.007
287.5	2.930	0.14	0.007
285		3.036	0.14	0.007
282.5	3.139	0.14	0.007
280		3.238	0.14	0.007
277.5	3.324	0.14	0.007
275		3.410	0.14	0.007
272.5	3.491	0.14	0.007
270		3.560	0.14	0.007
267.5	3.625	0.14	0.007
265		3.686	0.14	0.007
262.5	3.736	0.14	0.007
260		3.784	0.14	0.007
257.5	3.827	0.14	0.007
255		3.863	0.14	0.007
252.5	3.897	0.14	0.007
250		3.928	0.14	0.007
247.5	3.953	0.14	0.007
245		3.978	0.14	0.007
242.5	4.000	0.14	0.007
240		4.019	0.14	0.007
237.5	4.037	0.14	0.007
235		4.055	0.14	0.007
232.5	4.070	0.14	0.007
230		4.084	0.14	0.007
227.5	4.098	0.14	0.007
225		4.110	0.14	0.007
222.5	4.123	0.14	0.007
220		4.133	0.14	0.007
217.5	4.143	0.14	0.007
215		4.153	0.14	0.007
212.5	4.162	0.14	0.007
210		4.170	0.14	0.007
207.5	4.179	0.14	0.007
205		4.187	0.14	0.007
202.5	4.194	0.14	0.007
200		4.201	0.14	0.007
197.5	4.208	0.14	0.007
195		4.214	0.14	0.007
192.5	4.221	0.14	0.007
190		4.227	0.14	0.007
187.5	4.233	0.14	0.007
185		4.237	0.14	0.007
182.5	4.243	0.14	0.007
180		4.247	0.14	0.007
177.5	4.252	0.14	0.007
175		4.257	0.14	0.007
172.5	4.262	0.14	0.007
170		4.266	0.14	0.007
167.5	4.270	0.14	0.007
165		4.275	0.14	0.007
162.5	4.278	0.14	0.007
160		4.282	0.14	0.007
157.5	4.286	0.14	0.007
155		4.288	0.14	0.007
152.5	4.292	0.14	0.007
150		4.295	0.14	0.007
147.5	4.297	0.14	0.007
145		4.300	0.14	0.007
142.5	4.302	0.14	0.007
140		4.304	0.14	0.007
137.5	4.306	0.14	0.007
135		4.307	0.14	0.007
132.5	4.310	0.14	0.007
130		4.311	0.14	0.007
127.5	4.312	0.14	0.007
125		4.314	0.14	0.007
122.5	4.315	0.14	0.007
120		4.316	0.14	0.007
117.5	4.316	0.14	0.007
115		4.316	0.14	0.007
112.5	4.316	0.14	0.007
110		4.316	0.14	0.007
107.5	4.317	0.14	0.007
105		4.316	0.14	0.007
102.5	4.315	0.14	0.007
100		4.315	0.14	0.007
97.5	4.314	0.14	0.007
95		4.311	0.14	0.007
92.5	4.308	0.14	0.007
90		4.307	0.14	0.007
87.5	4.304	0.14	0.007
85		4.300	0.14	0.007
82.5	4.295	0.14	0.007
80		4.290	0.14	0.007
77.5	4.286	0.14	0.007
75		4.278	0.14	0.007
72.5	4.271	0.14	0.007
70		4.264	0.14	0.007
67.5	4.255	0.14	0.007
65		4.245	0.14	0.007
62.5	4.235	0.14	0.007
60		4.223	0.14	0.007
57.5	4.208	0.14	0.007
55		4.194	0.14	0.007
52.5	4.174	0.14	0.007
50		4.153	0.14	0.007
47.5	4.131	0.14	0.007
45		4.102	0.14	0.007
42.5	4.071	0.14	0.007
40		4.036	0.14	0.007
37.5	3.990	0.14	0.007
35		3.936	0.14	0.007
32.5	3.879	0.14	0.007
30		3.798	0.14	0.007
27.5	3.697	0.14	0.007
25		3.589	0.14	0.007
22.5	3.426	0.14	0.007
20		3.216	0.14	0.007
17.5	2.976	0.14	0.007
15		2.585	0.14	0.007
12.5	2.095	0.14	0.007
10		1.646	0.14	0.007
7.5		1.170	0.14	0.007
5		0.851	0.14	0.007
2.5		0.675	0.14	0.007
0		0.552	0.14	0.007
-2.5	0.455	0.14	0.007
-5		0.393	0.14	0.007
-7.5	0.341	0.14	0.007
-10		0.300	0.14	0.007
-12.5	0.271	0.14	0.007
-15		0.244	0.14	0.007
-17.5	0.223	0.14	0.007
-20		0.208	0.14	0.007
-22.5	0.193	0.14	0.007
-25		0.181	0.14	0.007
-27.5	0.173	0.14	0.007
-30		0.164	0.14	0.007
-32.5	0.158	0.14	0.007
-35		0.151	0.14	0.007
-37.5	0.146	0.14	0.007
-40		0.141	0.14	0.007
-42.5	0.137	0.14	0.007
-45		0.133	0.14	0.007
-47.5	0.129	0.14	0.007
-50		0.127	0.14	0.007
-52.5	0.123	0.14	0.007
-55		0.120	0.14	0.007
-57.5	0.117	0.14	0.007
-60		0.116	0.14	0.007
-62.5	0.114	0.14	0.007
-65		0.111	0.14	0.007
-67.5	0.110	0.14	0.007
-70		0.108	0.14	0.007
-72.5	0.106	0.14	0.007
-75		0.105	0.14	0.007
-77.5	0.103	0.14	0.007
-80		0.101	0.14	0.007
-82.5	0.101	0.14	0.007
-85		0.097	0.14	0.007
-87.5	0.097	0.14	0.007
-90		0.096	0.14	0.007
-92.5	0.094	0.14	0.007
-95		0.093	0.14	0.007
-97.5	0.091	0.14	0.007
-100	0.090	0.14	0.007
-102.5	0.089	0.14	0.007
-105	0.087	0.14	0.007
-107.5	0.087	0.14	0.007
-110	0.086	0.14	0.007
-112.5	0.085	0.14	0.007
-115	0.084	0.14	0.007
-117.5	0.083	0.14	0.007
-120	0.082	0.14	0.007
-122.5	0.081	0.14	0.007
-125	0.080	0.14	0.007
-127.5	0.079	0.14	0.007
-130	0.078	0.14	0.007
-132.5	0.077	0.14	0.007
-135	0.077	0.14	0.007
-137.5	0.076	0.14	0.007
-140	0.075	0.14	0.007
-142.5	0.074	0.14	0.007
-145	0.074	0.14	0.007
-147.5	0.073	0.14	0.007
-150	0.071	0.14	0.007
-152.5	0.070	0.14	0.007
-155	0.069	0.14	0.007
-157.5	0.069	0.14	0.007
-160	0.068	0.14	0.007
-162.5	0.067	0.14	0.007
-165	0.066	0.14	0.007
-167.5	0.066	0.14	0.007
-170	0.065	0.14	0.007
-172.5	0.064	0.14	0.007
-175	0.063	0.14	0.007
-177.5	0.063	0.14	0.007
-180	0.061	0.14	0.007
-182.5	0.060	0.14	0.007
-185	0.060	0.14	0.007
-187.5	0.059	0.14	0.007
-190	0.057	0.14	0.007
-192.5	0.057	0.14	0.007
-195	0.057	0.14	0.007
-197.5	0.056	0.14	0.007
-200	0.056	0.14	0.007
-202.5	0.055	0.14	0.007
-205	0.055	0.14	0.007
-207.5	0.054	0.14	0.007
-210	0.054	0.14	0.007
-212.5	0.054	0.14	0.007
-215	0.053	0.14	0.007
-217.5	0.052	0.14	0.007
-220	0.051	0.14	0.007
-222.5	0.049	0.14	0.007
-225	0.049	0.14	0.007
-227.5	0.048	0.14	0.007
-230	0.047	0.14	0.007
-232.5	0.047	0.14	0.007
-235	0.046	0.14	0.007
-237.5	0.046	0.14	0.007
-240	0.045	0.14	0.007
-242.5	0.044	0.14	0.007
-245	0.044	0.14	0.007
-247.5	0.043	0.14	0.007
-250	0.043	0.14	0.007
-252.5	0.042	0.14	0.007
-255	0.041	0.14	0.007
-257.5	0.041	0.14	0.007
-260	0.041	0.14	0.007
-262.5	0.039	0.14	0.007
-265	0.039	0.14	0.007
-267.5	0.039	0.14	0.007
-270	0.038	0.14	0.007
-272.5	0.037	0.14	0.007
-275	0.036	0.14	0.007
-277.5	0.036	0.14	0.007
-280	0.036	0.14	0.007
-282.5	0.036	0.14	0.007
-285	0.035	0.14	0.007
-287.5	0.035	0.14	0.007
-290	0.035	0.14	0.007
-292.5	0.034	0.14	0.007
-295	0.033	0.14	0.007
-297.5	0.033	0.14	0.007
-300	0.033	0.14	0.007
-302.5	0.033	0.14	0.007
-305	0.032	0.14	0.007
-307.5	0.032	0.14	0.007
-310	0.031	0.14	0.007
-312.5	0.030	0.14	0.007
-315	0.029	0.14	0.007
-317.5	0.029	0.14	0.007
-320	0.029	0.14	0.007
-322.5	0.028	0.14	0.007
-325	0.028	0.14	0.007
-327.5	0.027	0.14	0.007
-330	0.027	0.14	0.007
-332.5	0.026	0.14	0.007
-335	0.026	0.14	0.007
-337.5	0.025	0.14	0.007
-340	0.026	0.14	0.007
-342.5	0.025	0.14	0.007
-345	0.025	0.14	0.007
-347.5	0.025	0.14	0.007
-350	0.025	0.14	0.007
-352.5	0.024	0.14	0.007
-355	0.024	0.14	0.007
-357.5	0.024	0.14	0.007
-360	0.023	0.14	0.007
-362.5	0.023	0.14	0.007
-365	0.023	0.14	0.007
-367.5	0.023	0.14	0.007
-370	0.022	0.14	0.007
-372.5	0.021	0.14	0.007
-375	0.021	0.14	0.007
-377.5	0.021	0.14	0.007
-380	0.021	0.14	0.007
-382.5	0.021	0.14	0.007
-385	0.021	0.14	0.007
-387.5	0.020	0.14	0.007
-390	0.019	0.14	0.007
-392.5	0.018	0.14	0.007
-395	0.018	0.14	0.007
-397.5	0.018	0.14	0.007
-400	0.018	0.14	0.007
