-319. 0.3711566791809953 0.5 0.1917237230355675
-318. 0.4701659845298407 0.5 0.19251999959646207
-317. 0.4739455118251696 0.5 0.19255403639051416
-316. 0.3824952610669602 0.5 0.19180556256856204
-315. 0.005415677492227215 0.5 0.19039983766855803
-314. 0.3899043122975468 0.5 0.19186035032531246
-313. 0.29836405952331424 0.5 0.19125630295025228
-311. 0.591192438866338 0.5 0.19374149847386438
-310. 0.5947619614575587 0.5 0.1937816232495328
-309. 0.40790192861375385 0.5 0.19199774624151844
-308. 0.41141144986097 0.5 0.19202524878143581
-307. 0.6052905251991744 0.5 0.1939013316909774
-306. 0.03754138081330017 0.5 0.19041314857218866
-305. 0.4217600095704962 0.5 0.19210769388213877
-304. 0.3299497507481509 0.5 0.1914467775828619
-303. 0.04770993649075846 0.5 0.19042150952969497
-302. 0.14623923108739384 0.5 0.19060572639367904
-301. 0.2447385250120107 0.5 0.19097643205490109
-300. 0.43840759564612874 0.5 0.19224454144015063
-299. 0.2512475560821927 0.5 0.19100747571201396
-298. 0.3496568479907864 0.5 0.191575214137795
-297. 0.44803613922733987 0.5 0.1923260621219197
-296. 0.2607860976473807 0.5 0.19105443038888986
-295. 0.07350605539539212 0.5 0.1904516649937106
-294. 0.07659556723441362 0.5 0.19045613684645826
-293. 0.07965507840141656 0.5 0.19046074657925707
-292. 0.08268458889641178 0.5 0.1904654888717833
-291. 0.27608365348240627 0.5 0.19113336114875495
-290. 0.27905316263338603 0.5 0.1911492003151958
-289. 0.2819926711123365 0.5 0.19116504503961224
-288. 0.2849021789192792 0.5 0.1911808902376872
-287. 0.09738213129118561 0.5 0.19049100618267822
-286. 0.10023163775410206 0.5 0.1904964350383936
-285. 0.10305114354499999 0.5 0.19050196067791916
-284. -0.08455890609912757 0.5 0.19046851143017854
-283. 0.10860015311076188 0.5 0.190513282756571
-282. 0.11132965688563665 0.5 0.19051906955104395
-281. -0.07637039477454653 0.5 0.19045580470919857
-280. -0.07370089234369802 0.5 0.19045194157108752
-279. -0.07106139058487887 0.5 0.1904482569036894
-278. -0.06845188949806742 0.5 0.1904447461355508
-277. -0.06587238908327452 0.5 0.1904414047464743
-276. 0.3174762201855462 0.5 0.19136929190013885
-275. 0.0343963871117862 0.5 0.19041096642315297
-274. 0.132085662892054 0.5 0.19056776628789004
-273. 0.039345383237285515 0.5 0.19041448637577454
-272. -0.053424897089501516 0.5 0.19042708387362112
-271. -0.051025400706776566 0.5 0.1904246667106228
-270. -0.04865590499608097 0.5 0.19042238872407882
-269. -0.04631640995738227 0.5 0.1904202458053359
-268. -0.044006915590712924 0.5 0.1904182338973467
-267. 0.14867213286697728 0.5 0.19061263951820615
-266. 0.15092162588962038 0.5 0.19061913274296127
-265. 0.15314111824026655 0.5 0.19062563471478355
-264. -0.03506894484413438 0.5 0.19041141703990225
-263. -0.032909453837514445 0.5 0.19041000113829318
-262. -0.030779963502923873 0.5 0.19040869299053548
-261. -0.028680473840330196 0.5 0.19040748890162407
-260. -0.02661098484976588 0.5 0.1904063852283732
-259. -0.02457149653119846 0.5 0.19040537837943775
-258. -0.022562008884660395 0.5 0.19040446481533324
-257. -0.02058252191011923 0.5 0.19040364104845492
-256. -0.018633035607607422 0.5 0.1904029036430957
-255. -0.016713549977092512 0.5 0.19040224921546337
-254. 0.17557548974441078 0.5 0.19069667021716222
-253. 0.17743497403089947 0.5 0.19070299188829407
-252. -0.011135097117659013 0.5 0.19040075074005655
-251. -0.009335614175196613 0.5 0.19040039542424644
-250. -0.007566131904763573 0.5 0.1904001069464531
-249. -0.00582665030632743 0.5 0.19039988223467846
-248. -0.004117169379920647 0.5 0.19039971826893315
-247. -0.002437689125510758 0.5 0.1903996120812466
-246. -0.0007882095431302312 0.5 0.19039956075567666
-245. 0.0008312693672534021 0.5 0.19039956142831826
-244. 0.002420747605607673 0.5 0.19039961128731153
-243. 0.003980225171965051 0.5 0.19039970757284935
-242. 0.005509702066293066 0.5 0.1903998475771841
-241. 0.007009178288613365 0.5 0.19040002864463404
-240. 0.19887820860194372 0.5 0.1907806873904195
-239. 0.009918128717219992 0.5 0.1904005036065155
-238. 0.011327602923495496 0.5 0.19040079244996164
-237. 0.012707076457763282 0.5 0.19040111225456105
-236. 0.014056549320023355 0.5 0.19040146062503682
-235. 0.015376021510264886 0.5 0.19040183521820475
-234. 0.0166654930284987 0.5 0.19040223374297618
-233. 0.017924963874713977 0.5 0.1904026539603606
-232. -0.07604534333258735 0.5 0.19045532697057108
-231. -0.4556449833564447 0.5 0.19239171046353926
-230. 0.02152337238128104 0.5 0.19040402315980115
-229. 0.022662840539443806 0.5 0.1904045087997626
-228. 0.023772308025598852 0.5 0.19040500571891944
-227. -0.07034800254177352 0.5 0.19044728408857964
-226. 0.21630079574488192 0.5 0.19085030778818202
-225. 0.21732026121499215 0.5 0.19085456168836926
-224. -0.3528889382759586 0.5 0.1915969810207363
-223. 0.02886963537615012 0.5 0.19040759390347484
-222. 0.029799098830226408 0.5 0.1904081198677994
-221. -0.15970099315073363 0.5 0.19064540527878593
-220. -0.1588315310406836 0.5 0.19064273729457024
-219. -0.1579920696026521 0.5 0.19064017515345666
-218. 0.033216945926389435 0.5 0.19041019725787645
-217. 0.2243959607834016 0.5 0.19088463478087483
-216. 0.22514542020539913 0.5 0.19088787627513035
-215. 0.03546532419236033 0.5 0.19041168670206451
-214. 0.03615478227033159 0.5 0.19041216296940278
-213. 0.3224135718208001 0.5 0.19139960949230203
-212. 0.32304302855474515 0.5 0.19140350792082508
-211. 0.22844270723516272 0.5 0.19090226511682315
-210. 0.0386126078620637 0.5 0.19041393539776677
-209. 0.03915206257996391 0.5 0.19041434001116245
-208. 0.0396615166258564 0.5 0.19041472727602027
-207. 0.2305405247627373 0.5 0.1909115279752791
-206. 0.23098997746460354 0.5 0.19091352347695412
-205. 0.041009874731433464 0.5 0.19041577639605828
-204. 0.2317988808522912 0.5 0.19091712462417085
-203. 0.8033569958271551 0.5 0.19652618472178077
-202. 0.8036864458409689 0.5 0.19653113230802158
-201. 0.042387676130692976 0.5 0.19041688464632012
-200. 0.04265712480046962 0.5 0.19041710566054224
-199. 0.4236956823242741 0.5 0.1921233384100824
-198. 0.4239051296500245 0.5 0.19212503542733297
-197. 0.42408457630377794 0.5 0.19212649002355653
-196. 0.4242340222855021 0.5 0.19212770189549272
-193. 0.710101688343144 0.5 0.19520278649726813
-192. 0.42453179949228903 0.5 0.1921301178498884
-191. 0.6149307968769706 0.5 0.19401271612104504
-190. 0.8052997935896339 0.5 0.19655538859247232
-187. 0.8050281154065129 0.5 0.19655130078191002
-186. 0.8048775546681057 0.5 0.19654903592451725
-183. 0.8042458684208272 0.5 0.19653953791785397
-182. 0.8039753049943675 0.5 0.19653547187882003
-181. 0.9940742956589179 0.5 0.1997039876118132
-180. 0.8033441761254141 0.5 0.1965259922376469
-179. 0.9933831654459384 0.5 0.19969135518369133
-178. 0.9929925993314261 0.5 0.19968421997664634
-177. 0.9925720325449171 0.5 0.19967653954333892
-176. 0.9921214650863679 0.5 0.1996683145171724
-175. 1.7532391160079037 0.5 0.2180424790669183
-174. 0.8007307733902501 0.5 0.19648681296144213
-173. 1.2761890908232223 0.5 0.20550962877064727
-172. 1.1804187432951223 0.5 0.20339625825430593
-171. 1.2750179498580325 0.5 0.20548292620238837
-170. 2.321584929564013 0.5 0.23674686094280956
-168. 1.3682360107516667 0.5 0.20767349331210222
-167. 2.1291136562970863 0.5 0.23000562425766136
-166. 2.128363082118417 0.5 0.22998010702021238
-165. 1.5563838429786863 0.5 0.2124839761064778
-164. 1.5555732674559903 0.5 0.21246217265228365
-163. 1.9355318007873115 0.5 0.22363462061362568
-162. 1.9346612239205998 0.5 0.22360694930508193
-161. 1.933760646381859 0.5 0.22357833392294427
-160. 1.9328300681711217 0.5 0.22354877543645713
-159. 2.312668598814401 0.5 0.23642610246082674
-158. 2.3116780192596265 0.5 0.23639051646546996
-156. 2.5000064128970716 0.5 0.24332889135623254
-155. 2.3085262765632337 0.5 0.2362773577625803
-154. 2.3074156943204174 0.5 0.23623750781989925
-153. 2.4966746661685897 0.5 0.24320320902637171
-152. 2.4955040825817467 0.5 0.24315907589132912
-151. 2.494303498322875 0.5 0.24311382485942282
-150. 2.4930729133920058 0.5 0.24306745693917356
-149. 3.0630109920781607 0.5 0.2659193435901771
-148. 3.2521199605662834 0.5 0.2740432133585684
-147. 2.8700002640933238 0.5 0.2578893343781156
-146. 2.8686496764744023 0.5 0.25783413328028004
-145. 3.057668642946469 0.5 0.2656934163328766
-144. 3.0562580539835214 0.5 0.26563379649910684
-143. 3.0548174643485444 0.5 0.26557292324931975
-142. 3.243746428804588 0.5 0.2736784443328679
-141. 3.242245837825585 0.5 0.27361312343999883
-140. 3.7167141330821294 0.5 0.2949440397539496
-139. 3.6199537633775907 0.5 0.2904900368767086
-138. 3.618363170382564 0.5 0.29041723845623346
-137. 3.807142131478526 0.5 0.29915053048784596
-136. 3.8054915371394737 0.5 0.2990733791204883
-135. 3.803810942128391 0.5 0.2989948394083404
-134. 3.8021003464453127 0.5 0.29891491211570287
-133. 3.9907593048532215 0.5 0.30781533723626686
-132. 3.988988707826117 0.5 0.3077310270111237
-131. 4.17758766489 0.5 0.3167896997410166
-130. 4.175757066518868 0.5 0.3167010361494749
-129. 4.554695577001743 0.5 0.3353375350948966
-128. 4.648004754668083 0.5 0.34000784629042075
-127. 4.741283931662417 0.5 0.3447061415854915
-126. 4.739333330603221 0.5 0.3446075998412419
-125. 4.737352728872018 0.5 0.34450755517065534
-124. 5.306540790757851 0.5 0.3737432792793575
-123. 5.304500187682622 0.5 0.3736368632413988
-122. 5.302429583935364 0.5 0.37352889355474084
-121. 5.300328979516119 0.5 0.3734193707048228
-120. 5.488597929187852 0.5 0.38327912722204666
-119. 5.7720366555690985 0.5 0.39827917980530014
-118. 5.769846049133799 0.5 0.398162574286115
-117. 5.767625442026491 0.5 0.39804438216947385
-116. 5.765374834247165 0.5 0.39792460388644146
-115. 6.239093112703375 0.5 0.4233578972508197
-114. 6.141582726198514 0.5 0.4180880122448432
-113. 6.044042339021645 0.5 0.41283384107632826
-112. 6.136871505935765 0.5 0.4178338309763548
-111. 6.420070226940917 0.5 0.43318245358022034
-110. 6.4176396151295 0.5 0.43305014111849766
-109. 6.605578557409105 0.5 0.44330867380699346
-108. 6.603087944253675 0.5 0.4431723637453598
-107. 6.981366439952271 0.5 0.4639792028918801
-106. 6.978815825452814 0.5 0.46383823977583727
-105. 6.976235210281348 0.5 0.46369562746706955
-104. 6.9736245944378545 0.5 0.46355136628383503
-103. 7.2565833100668895 0.5 0.47923878168374257
-102. 7.444312247642397 0.5 0.4897006797094984
-101. 7.536811407164389 0.5 0.4948704019650563
-100. 7.72448034339587 0.5 0.5053876889749965
-99. 7.912119278955344 0.5 0.5159396320262086
-98. 7.909328659079772 0.5 0.515782445144917
-97. 7.9065080385322 0.5 0.5156235760993042
-96. 7.903657417312612 0.5 0.5154630251429777
-95. 8.28157590494705 0.5 0.5368140682553976
-94. 8.278665282383436 0.5 0.5366491390763326
-93. 8.466124213910831 0.5 0.5472860282502475
-92. 8.463153590003179 0.5 0.5471172405353296
-91. 8.840952074949556 0.5 0.568638726969531
-90. 8.8379214496979 0.5 0.5684656582408066
-89. 9.025260378537231 0.5 0.5791762279615347
-88. 9.022169751941536 0.5 0.578999331305888
-87. 9.209448679436843 0.5 0.5897301351048321
-86. 9.206298051497132 0.5 0.58954941694451
-85. 9.203117422885395 0.5 0.5893669845063442
-84. 9.199906793601649 0.5 0.5891828379825536
-83. 9.767864827934948 0.5 0.6218571306187378
-82. 9.764594197307176 0.5 0.6216684332626524
-81. 10.522891785059455 0.5 0.6655661879114277
-80. 10.519561153087668 0.5 0.6653727698681836
-79. 10.135401410917815 0.5 0.6430984631328514
-78. 10.132010777601991 0.5 0.6429021858447351
-77. 10.318989698377164 0.5 0.6537344942460496
-76. 10.315539063717313 0.5 0.6535344340416321
-75. 10.502457983148462 0.5 0.6643796255363887
-74. 10.498947347144595 0.5 0.664175786856521
-73. 10.876205819994734 0.5 0.6861116199043525
-72. 10.87263518264683 0.5 0.6859037196569125
-71. 11.249833654152944 0.5 0.7078942548310297
-70. 11.246203015461024 0.5 0.7076823271016633
-69. 11.242542376097077 0.5 0.7074686531863026
-68. 11.23885173606112 0.5 0.7072532332133505
-67. 11.425530650116164 0.5 0.7181558748359376
-66. 11.421780008736192 0.5 0.7179367001956409
-65. 11.41799936668419 0.5 0.7177157775416355
-64. 11.985387388249235 0.5 0.7509262483609673
-63. 11.79114719009019 0.5 0.7395448342288438
-62. 11.787276546022156 0.5 0.7393181599853269
-61. 11.7833759012821 0.5 0.7390897338244166
-60. 11.77944525587005 0.5 0.7388595558664982
-59. 12.156283719312007 0.5 0.760949670702678
-58. 12.152293072555919 0.5 0.7607155090211499
-57. 12.148272425127812 0.5 0.7604795918429287
-56. 12.144221777027688 0.5 0.760241919282075
-55. 12.711339792544623 0.5 0.7935640188777243
-54. 12.707229143100479 0.5 0.79332216788761
-53. 11.941490273932251 0.5 0.7483530600785665
-51. 12.694717190735982 0.5 0.7925860520904046
-50. 12.69048653860378 0.5 0.7923371595642522
-49. 13.257424550088631 0.5 0.8257315205283479
-48. 13.633933006138438 0.5 0.8479516368231382
-47. 13.248813242464175 0.5 0.8252236956039041
-46. 13.054063032880913 0.5 0.8137436666843768
-45. 12.859282822625632 0.5 0.8022712458586236
-44. 13.426070830750414 0.5 0.8356804024259363
-43. 13.80242928344017 0.5 0.8579058333093935
-42. 13.893158403313372 0.5 0.8632682997100518
-41. 13.317459080844014 0.5 0.8292723547047016
35. 12.602027760685178 0.5 0.7871341658039172
36. 13.356815269811918 0.5 0.8315940384722966
37. 13.921173223503642 0.5 0.8649244372583655
38. 12.391106074130143 0.5 0.774736814558746
40. 14.471669751968596 0.5 0.8974994950744472
41. 13.703110819631133 0.5 0.852037692652918
42. 13.696120105673723 0.5 0.8516247321923256
43. 13.689099391044314 0.5 0.8512100101141694
44. 13.682048675742866 0.5 0.85079352657031
45. 13.00856951809887 0.5 0.8110632758891584
46. 12.906259024071897 0.5 0.8050372323349154
47. 12.6135189746099 0.5 0.7878099394718887
48. 12.701548034001918 0.5 0.79298792596713
49. 12.884746870103449 0.5 0.8037705137534847
50. 12.877516150769932 0.5 0.803344767735067
53. 12.284445324448264 0.5 0.7684724244537439
54. 12.277094602426706 0.5 0.7680408244956232
55. 12.269713879733118 0.5 0.7676074790167448
56. 12.071903601604516 0.5 0.7559994776224174
57. 12.064462877566903 0.5 0.7555630692457147
58. 12.056992152857292 0.5 0.7551249184847677
59. 12.049491427475663 0.5 0.7546850255773373
60. 12.041960701422026 0.5 0.754243390762817
61. 11.844000419933344 0.5 0.7426405383093411
62. 11.83640969253568 0.5 0.7421958803042833
63. 11.63838940970297 0.5 0.7306027612081292
64. 11.630738680961281 0.5 0.7301551130622449
65. 11.242258842021538 0.5 0.7074521033269656
66. 11.234548111935823 0.5 0.7070020402802796
67. 11.226807381178089 0.5 0.7065502486753975
68. 11.219036649748338 0.5 0.7060967288184142
69. 11.020836362883559 0.5 0.6945370948213011
70. 11.01300563010979 0.5 0.6940806986208813
71. 10.814745341900975 0.5 0.682533822977846
72. 10.80685460778317 0.5 0.682074593980281
73. 10.60853431823034 0.5 0.6705413702579447
74. 10.60058358276852 0.5 0.6700793552401173
75. 10.402203291871652 0.5 0.6585607417713585
76. 10.394192555065795 0.5 0.6580959910357711
78. 10.09248174729353 0.5 0.6406143522313722
79. 10.084381008471627 0.5 0.640145600761956
80. 9.885850714214723 0.5 0.6286681850147131
81. 9.782490196667274 0.5 0.622701006152463
82. 9.774299455829349 0.5 0.6222283904586817
83. 10.337277378608446 0.5 0.6547948683149868
84. 9.567428417374435 0.5 0.6103042066814013
85. 9.368748119757425 0.5 0.5988757319079735
86. 9.360437376231447 0.5 0.598398205544026
87. 9.161697077270423 0.5 0.5869918261711597
88. 9.153326332400429 0.5 0.5865119610334285
89. 8.76412647733235 0.5 0.5642535471083066
90. 8.755695731118319 0.5 0.5637725874385476
91. 8.74723498423228 0.5 0.5632899693824273
92. 8.738744236674213 0.5 0.5628056936433876
93. 8.159024824155063 0.5 0.5298761588678257
94. 8.15047407525298 0.5 0.5293925761979995
95. 8.14189332567889 0.5 0.5289073628238757
96. 8.13328257543277 0.5 0.5284205196215666
97. 7.934242269751603 0.5 0.5171860174655735
98. 7.925571518161467 0.5 0.5166974603480684
99. 7.916870765899324 0.5 0.5162072857794563
100. 7.908140012965151 0.5 0.5157154947250859
101. 7.328180595069896 0.5 0.48322392695462085
102. 7.319389840791708 0.5 0.48273429979315036
103. 7.310569085841513 0.5 0.48224309359713374
104. 7.301718330219288 0.5 0.4817503095894496
105. 7.102438019162015 0.5 0.4706802229106499
106. 7.093527262195774 0.5 0.4701863859590634
107. 6.513387840268473 0.5 0.43826951450215246
108. 6.504417081958195 0.5 0.4377798817820957
109. 6.495416322975888 0.5 0.4372887399570105
110. 6.486385563321596 0.5 0.4367960907484585
111. 6.382125025613787 0.5 0.43111798305320614
112. 6.277834487233948 0.5 0.42545631636596504
113. 6.268713725563588 0.5 0.4249620570721533
114. 6.259562963221242 0.5 0.42446631707477206
115. 5.679183535917814 0.5 0.39334561327298345
116. 5.6699727722314535 0.5 0.392857234570758
117. 5.470332453110024 0.5 0.3823187750098406
118. 5.651461242842643 0.5 0.3918762692438529
119. 5.642160477140216 0.5 0.3913836877083616
120. 5.537629933384293 0.5 0.38586099059054346
121. 5.337869611574812 0.5 0.37537838340809654
122. 5.233279066474852 0.5 0.369929455904745
123. 5.033458743321354 0.5 0.35960038693011
124. 5.024007974258867 0.5 0.35911461640962267
125. 4.824127649761354 0.5 0.34890257957763493
126. 4.814616879354829 0.5 0.34841970456233
127. 4.805076108276318 0.5 0.3479355924872287
128. 4.605105781762739 0.5 0.33785692910575504
129. 4.3099056771956645 0.5 0.32323486244376054
130. 4.395474681482618 0.5 0.3274399240514024
131. 4.2906141303345455 0.5 0.32229077903320247
132. 4.280923355895931 0.5 0.3218170928483809
133. 3.985603248640804 0.5 0.30756986205226355
134. 3.9758524728581963 0.5 0.3071059692560499
135. 3.9660716964035583 0.5 0.30664108829789427
136. 3.956260919276914 0.5 0.30617522523724955
137. 3.756020586715243 0.5 0.29676737108321727
138. 3.7461498082445823 0.5 0.2963087436732636
139. 3.7362490291018924 0.5 0.29584922331005886
140. 3.726318249287173 0.5 0.2953888169067543
141. 3.1451588045114143 0.5 0.26941850320356286
142. 3.1351680233527013 0.5 0.2689904462734365
143. 3.1251472415219808 0.5 0.2685617899347795
144. 3.115096459019209 0.5 0.26813254366763517
145. 2.914616121081433 0.5 0.25972077635202145
146. 2.9045053372346676 0.5 0.25930440011617767
147. 2.8943645527158726 0.5 0.2588875726297091
148. 2.88419376752507 0.5 0.2584703046796183
149. 2.683593426899242 0.5 0.2504085043162978
150. 2.6733626403644237 0.5 0.25000622367265557
151. 2.4727022983945584 0.5 0.24230194686173018
152. 2.4624115105156816 0.5 0.24191670240500998
153. 2.6424902767278367 0.5 0.24879772810157472
154. 2.4417399327419482 0.5 0.24114585887672244
155. 2.4313591428470698 0.5 0.24076028705375252
156. 2.2305487975171228 0.5 0.23350998695965217
157. 2.2201080062782075 0.5 0.23314422845172209
158. 2.1144374369857752 0.5 0.22950779829957216
159. 2.0087368670213137 0.5 0.22599339485069714
160. 1.9982060737663323 0.5 0.22565022393169953
161. 1.8924455024578555 0.5 0.22227601683845605
162. 1.786654930477371 0.5 0.2190365433338923
163. 1.5856345804433483 0.5 0.21327686428761253
164. 1.7653833392633531 0.5 0.21840210037804728
165. 1.7547025426483327 0.5 0.218085714644738
166. 1.7439917453613047 0.5 0.2177699109172989
167. 1.5428513926392078 0.5 0.21212116728015198
168. 1.5320805940081423 0.5 0.21183422445534963
169. 1.6164795720865783 0.5 0.2141256859790664
170. 1.5104489947299888 0.5 0.2112628569711471
171. 1.4995881940828788 0.5 0.21097847302633027
172. 1.4886973927637612 0.5 0.21069498300046124
173. 1.192177258628109 0.5 0.20364800667544267
174. 1.276426233346463 0.5 0.2055150382944238
175. 1.2654454300113007 0.5 0.2052654581513999
176. 1.2544346260041304 0.5 0.20501706020532556
177. 1.0529942665619345 0.5 0.20081012532596873
178. 1.0419234612107489 0.5 0.2005979024259901
179. 1.0308226551875121 0.5 0.20038713447736223
180. 1.0196918484922897 0.5 0.20017784440840664
181. 1.008531041125059 0.5 0.1999700552605969
182. 0.9973402330858209 0.5 0.19976379018743542
183. 0.9861194243745532 0.5 0.19955907245328086
184. 0.9748686149912781 0.5 0.19935592543213074
185. 0.7731882501729773 0.5 0.1960812079597358
186. 0.761877439445665 0.5 0.19591851564032794
187. 0.7505366280463449 0.5 0.19575766611432885
188. 0.7391658159750172 0.5 0.19559868309534484
189. 0.7277650032316816 0.5 0.19544159037186107
190. 0.5259346350533206 0.5 0.19304920359813293
191. 0.6096735983474353 0.5 0.19395176378743786
192. 0.5029830062065461 0.5 0.19282441144168128
193. 0.6818617455381759 0.5 0.1948326007109427
194. 0.4799113746717624 0.5 0.1926083045107261
195. 0.46833055789631567 0.5 0.19250356668537058
196. 0.075920630922869 0.5 0.19045514421727033
197. 0.0642798128034285 0.5 0.19043940582938168
198. 0.2430085487749764 0.5 0.19096831746871104
199. 0.2313077293114988 0.5 0.19091493657936806
200. 0.21957690917601347 0.5 0.19086404875221707
201. 0.7790147526575738 0.5 0.19616589731362924
202. 0.19602526688897642 0.5 0.19076984153261076
203. 0.18420444473746797 0.5 0.19072656670051022
204. 0.17235362191393014 0.5 0.1906858740453179
205. 0.1604727984183846 0.5 0.1906477857699788
206. 0.14856197425078807 0.5 0.19061232404106676
207. 0.13662114941122708 0.5 0.19057951098570683
208. 0.12465032389963678 0.5 0.19054936868847475
209. 0.11264949771603872 0.5 0.1905219191882779
210. 0.1006186708604113 0.5 0.19049718447521646
211. 0.08855784333277618 0.5 0.1904751864874269
212. 0.07646701513313334 0.5 0.19045594710790828
213. 0.25474574102450054 0.5 0.19102449415929235
214. 0.24259491148082063 0.5 0.1909663857474851
215. 0.230414081265133 0.5 0.19091096728211718
216. 0.21820325037743762 0.5 0.1908582622048215
217. 0.015562864054716788 0.5 0.1904018909767406
218. 0.0032920318229843542 0.5 0.19039965929859404
219. -0.009008801080755795 0.5 0.19040033759631494
220. -0.02133963465650366 0.5 0.19040394719593642
221. -0.03370046890425924 0.5 0.19041050933923598
222. -0.04609130382404419 0.5 0.19042004518046188
223. -0.05851213941583685 0.5 0.19043257578305664
224. -0.07096297567963723 0.5 0.19044812211637935
225. -0.2738433673784631 0.5 0.19112152289587075
226. -0.28635420498630054 0.5 0.19118885832465404
227. -0.10849548850312794 0.5 0.19051306371423646
228. -0.12106632745498083 0.5 0.19054088066771943
229. 0.05673238768417633 0.5 0.1904305977075558
230. 0.04410154738828636 0.5 0.19041831431440942
231. 0.031440706420388674 0.5 0.19040908952605134
232. 0.018749864780483277 0.5 0.19040294576934527
233. 0.0060290224685701594 0.5 0.1903999053772913
234. -0.006721820515372319 0.5 0.19039999058538376
235. -0.019502664171322515 0.5 0.19040322352796638
236. -0.03231350849928043 0.5 0.1904096262345862
237. -0.0451543534992677 0.5 0.1904192206263485
238. 0.037174578210246195 0.5 0.19041288423926025
239. -0.2613256002782615 0.5 0.19105713807873337
240. 0.20174243961327248 0.5 0.19079173317340348
241. -0.0016179628377850724 0.5 0.19039958001370735
242. -0.014608811197832573 0.5 0.19040161332331484
243. -0.027629660229866147 0.5 0.19040691817124253
244. 0.05451926744757981 0.5 0.1904282231670449
245. -0.1489611376915519 0.5 0.19061346829206843
246. -0.16207198873963027 0.5 0.19065275460835934
247. 0.015186714303279768 0.5 0.19040177941098013
248. 0.0020158619111643222 0.5 0.1903995939604575
249. -0.391984100679016 0.5 0.19187591582944538
250. -0.4052149544151469 0.5 0.19197684625056302
251. -0.41847580882330715 0.5 0.19208131125338018
252. -0.43176666390347507 0.5 0.19218932788427304
253. -0.06428841012963687 0.5 0.19043941648901666
254. -0.17283904393532917 0.5 0.19068748789392073
255. -0.09102012365003302 0.5 0.19047944982176596
256. -0.1996307587997624 0.5 0.19078357433198553
257. 0.07252771490451446 0.5 0.1904502872696623
258. 0.059056855792256904 0.5 0.19043319340598283
259. 0.045555996008013286 0.5 0.19041957201476695
260. 0.03202513555174031 0.5 0.19040944728123332
261. 0.018464274423416322 0.5 0.19040284325607532
262. 0.004873412623127908 0.5 0.19039978385099304
263. -0.008747449849189867 0.5 0.19040029283423304
264. -0.022398312993515357 0.5 0.19040439382613697
265. -0.03607917680987021 0.5 0.19041211029470273
266. -0.04979004129821113 0.5 0.1904234655511595
267. -0.06353090645858141 0.5 0.1904384827455598
268. -0.07730177229095941 0.5 0.19045718486239058
269. -0.09110263879536679 0.5 0.19047959471620599
270. -0.10493350597178186 0.5 0.19050573494728423
271. -0.11879437382020465 0.5 0.19053562801731103
272. -0.13268524234063517 0.5 0.1905692962050921
273. -0.14660611153309505 0.5 0.19060676160229734
274. -0.160556981397541 0.5 0.1906480461092385
275. -0.1745378519340163 0.5 0.19069317143068434
276. -0.18854872314252097 0.5 0.19074215907171377
277. -0.20258959502301171 0.5 0.1907950303336108
278. -0.026260912812514053 0.5 0.19040620670169203
279. -0.040361786037020224 0.5 0.190415267759709
280. -0.05449265993357741 0.5 0.19042819519339405
281. -0.0686535345021423 0.5 0.19044501274461983
282. -0.08284440974269328 0.5 0.19046574396155383
283. -0.0970652856552736 0.5 0.19049041219392046
284. -0.11131616223988329 0.5 0.19051904058829833
285. -0.12559703949647905 0.5 0.19055165208345534
286. -0.1399079174251042 0.5 0.19058826940572493
287. -0.15424879602571537 0.5 0.19062891506442564
288. -0.16861967529837757 0.5 0.19067361134732758
289. -0.1830205552430475 0.5 0.19072238031616778
290. -0.1974514358597035 0.5 0.1907752438022183
291. -0.21191231714838885 0.5 0.19083222340190945
292. -0.22640319910910356 0.5 0.1908933404725102
293. -0.05052452697878659 0.5 0.1904241761560345
294. 0.3157236992425188 0.5 0.1913586419881647
295. -0.0796562942602546 0.5 0.19046074844704072
296. 0.09613237585399594 0.5 0.19048867450314197
297. 0.2718910452962604 0.5 0.19111128438117037
298. 0.2572201593034994 0.5 0.19103667320790838
299. 0.242519272638709 0.5 0.19096603286148142
300. 0.13258860792038038 0.5 0.19056904916027118
301. 0.2130274972930618 0.5 0.19083678395660303
302. 0.1982366086122483 0.5 0.19077823465366808
303. 0.18341571925940542 0.5 0.1907237746755395
304. 0.16856482923453317 0.5 0.19067343322235944
305. 0.15368393853767487 0.5 0.19062723931145598
306. 0.13877304716878716 0.5 0.19058522177080875
307. 0.12383215512787012 0.5 0.19054740923252328
308. 0.108861262414967 0.5 0.19051383012631712
309. 0.09386036903005616 0.5 0.19048451267302147
310. 0.07882947497311599 0.5 0.19045948487810385
311. 0.06376858024416807 0.5 0.19043877452521485
312. 0.04867768484321244 0.5 0.19042240916976322
313. 0.033556788770227455 0.5 0.19041041613252405
314. 0.018405892025256394 0.5 0.190402822493284
315. 0.0032249946082343267 0.5 0.1903996550845274
316. -0.01198590348077381 0.5 0.19040094048516873
317. 0.16317275252122812 0.5 0.19065620334092795
318. 0.14790185308818288 0.5 0.19061043844504
319. 0.1326009529831083 0.5 0.1905690807102766
320. 0.11727005220604765 0.5 0.1905321595546277