1. 8. 0.0 1.0
2. 8. 0.0 1.0
3. 4.5 0.0 1.0
4. 4. 0.0 1.0
5. 9. 0.0 1.0
6. 9. 0.0 1.0
7. 9. 0.0 1.0
8. 9. 0.0 1.0
9. 7.5 0.0 1.0
10. 7.5 0.0 1.0
11. 10. 0.0 1.0
12. 9.5 0.0 1.0
13. 6. 0.0 1.0
14. 7. 0.0 1.0
15. 9. 0.0 1.0
16. 9. 0.0 1.0
17. 8. 0.0 1.0
18. 8. 0.0 1.0
19. 8. 0.0 1.0
20. 8. 0.0 1.0
21. 8. 0.0 1.0
22. 8. 0.0 1.0
23. 5. 0.0 1.0
24. 5.5 0.0 1.0
25. 7. 0.0 1.0
26. 7. 0.0 1.0
27. 7. 0.0 1.0
28. 6.5 0.0 1.0
29. 4.666666666666686 0.0 1.0
30. 5.833333333333371 0.0 1.0
31. 6. 0.0 1.0
32. 6.75 0.0 1.0
33. 9.5 0.0 1.0
34. 6.5 0.0 1.0
35. 5. 0.0 1.0
36. 6. 0.0 1.0
37. 8.75 0.0 1.0
38. 9.5 0.0 1.0
39. 8.5 0.0 1.0
40. 7.75 0.0 1.0
41. 8. 0.0 1.0
42. 6. 0.0 1.0
43. 11. 0.0 1.0
44. 7. 0.0 1.0
47. 6. 0.0 1.0
48. 4. 0.0 1.0
49. 6.5 0.0 1.0
50. 6.5 0.0 1.0
51. 7. 0.0 1.0
52. 8. 0.0 1.0
53. 8. 0.0 1.0
54. 9. 0.0 1.0
55. 6. 0.0 1.0
56. 6.5 0.0 1.0
57. 8. 0.0 1.0
58. 7.5 0.0 1.0
61. 7. 0.0 1.0
62. 7. 0.0 1.0
63. 10. 0.0 1.0
64. 6. 0.0 1.0
65. 9. 0.0 1.0
66. 11. 0.0 1.0
67. 8. 0.0 1.0
68. 8. 0.0 1.0
69. 8. 0.0 1.0
70. 8. 0.0 1.0
71. 8. 0.0 1.0
72. 5. 0.0 1.0
73. 6.5 0.0 1.0
74. 7. 0.0 1.0
75. 8. 0.0 1.0
76. 8. 0.0 1.0
77. 7. 0.0 1.0
78. 6.5 0.0 1.0
79. 6.5 0.0 1.0
80. 6.5 0.0 1.0
81. 5.5 0.0 1.0
82. 10. 0.0 1.0
83. 7.75 0.0 1.0
84. 4. 0.0 1.0
85. 7. 0.0 1.0
86. 5.5 0.0 1.0
87. 6.5 0.0 1.0
88. 7. 0.0 1.0
89. 8. 0.0 1.0
90. 8. 0.0 1.0
91. 8. 0.0 1.0
92. 8. 0.0 1.0
93. 9. 0.0 1.0
94. 8. 0.0 1.0
95. 8. 0.0 1.0
96. 8. 0.0 1.0
97. 8. 0.0 1.0
99. 7. 0.0 1.0
100. 6. 0.0 1.0
101. 4.5 0.0 1.0
102. 8. 0.0 1.0
103. 8. 0.0 1.0
104. 7. 0.0 1.0
105. 5. 0.0 1.0
106. 7. 0.0 1.0
107. 7. 0.0 1.0
108. 8. 0.0 1.0
109. 6. 0.0 1.0
110. 8. 0.0 1.0
111. 8. 0.0 1.0
112. 8. 0.0 1.0
113. 6. 0.0 1.0
114. 12. 0.0 1.0
115. 9. 0.0 1.0
116. 9. 0.0 1.0
117. 8. 0.0 1.0
118. 7. 0.0 1.0
119. 7. 0.0 1.0
120. 8. 0.0 1.0
123. 7. 0.0 1.0
124. 7. 0.0 1.0
125. 7. 0.0 1.0
126. 7. 0.0 1.0
127. 7. 0.0 1.0
128. 4. 0.0 1.0
129. 7. 0.0 1.0
130. 7. 0.0 1.0
133. 8. 0.0 1.0
134. 8. 0.0 1.0
135. 8. 0.0 1.0
136. 8. 0.0 1.0
137. 7.5 0.0 1.0
141. 4. 0.0 1.0
142. 5. 0.0 1.0
143. 10. 0.0 1.0
144. 11.5 0.0 1.0
145. 8. 0.0 1.0
146. 8. 0.0 1.0
147. 8. 0.0 1.0
148. 8. 0.0 1.0
149. 6.5 0.0 1.0
150. 6. 0.0 1.0
151. 8.5 0.0 1.0
152. 8. 0.0 1.0
153. 8. 0.0 1.0
154. 8. 0.0 1.0
156. 7. 0.0 1.0
161. 7. 0.0 1.0
162. 2. 0.0 1.0
163. 4.5 0.0 1.0
164. 5.5 0.0 1.0
165. 12. 0.0 1.0
166. 11. 0.0 1.0
167. 11. 0.0 1.0
168. 11. 0.0 1.0
169. 9. 0.0 1.0
170. 8. 0.0 1.0
171. 7. 0.0 1.0
172. 7. 0.0 1.0
173. 8. 0.0 1.0
174. 8. 0.0 1.0
175. 9. 0.0 1.0
176. 9. 0.0 1.0
178. 12. 0.0 1.0
179. 12. 0.0 1.0
180. 11.5 0.0 1.0
181. 13. 0.0 1.0
182. 11. 0.0 1.0
183. 11. 0.0 1.0
184. 12. 0.0 1.0
189. 11. 0.0 1.0
190. 11. 0.0 1.0
191. 11. 0.0 1.0
192. 11. 0.0 1.0
193. 9. 0.0 1.0
194. 9. 0.0 1.0
195. 13. 0.0 1.0
196. 13. 0.0 1.0
197. 15. 0.0 1.0
198. 14. 0.0 1.0
199. 8. 0.0 1.0
200. 12. 0.0 1.0
203. 14. 0.0 1.0
204. 13.75 0.0 1.0
205. 11.5 0.0 1.0
206. 8.25 0.0 1.0
207. 7. 0.0 1.0
208. 11. 0.0 1.0
209. 12. 0.0 1.0
210. 12.125 0.0 1.0
213. 15.25 0.0 1.0
214. 14.5 0.0 1.0
215. 17. 0.0 1.0
216. 17. 0.0 1.0
217. 17. 0.0 1.0
218. 18. 0.0 1.0
219. 19. 0.0 1.0
220. 18. 0.0 1.0
221. 19. 0.0 1.0
222. 20. 0.0 1.0
223. 18.75 0.0 1.0
224. 21.3125 0.0 1.0
225. 16.875 0.0 1.0
226. 16.4375 0.0 1.0
227. 17. 0.0 1.0
228. 18.33333333333337 0.0 1.0
229. 26.666666666666686 0.0 1.0
230. 23. 0.0 1.0
231. 21.75 0.0 1.0
232. 20.5 0.0 1.0
233. 22.5 0.0 1.0
234. 23. 0.0 1.0
235. 22. 0.0 1.0
236. 23. 0.0 1.0
237. 25.5 0.0 1.0
238. 27. 0.0 1.0
239. 25. 0.0 1.0
240. 29. 0.0 1.0
241. 30. 0.0 1.0
242. 30. 0.0 1.0
243. 30. 0.0 1.0
244. 23. 0.0 1.0
245. 20. 0.0 1.0
247. 33. 0.0 1.0
248. 32. 0.0 1.0
249. 34. 0.0 1.0
250. 31. 0.0 1.0
251. 29. 0.0 1.0
252. 30.899999999999977 0.0 1.0
253. 34.799999999999955 0.0 1.0
254. 35.19999999999993 0.0 1.0
255. 36.60000000000002 0.0 1.0
256. 37.5 0.0 1.0
257. 33. 0.0 1.0
258. 36. 0.0 1.0
259. 37. 0.0 1.0
260. 37. 0.0 1.0
261. 38.5 0.0 1.0
262. 38.5 0.0 1.0
263. 34.5 0.0 1.0
265. 41.5 0.0 1.0
266. 42.5 0.0 1.0
269. 46. 0.0 1.0
270. 46.5 0.0 1.0
273. 51. 0.0 1.0
274. 48. 0.0 1.0
275. 44. 0.0 1.0
276. 45. 0.0 1.0
277. 49. 0.0 1.0
278. 49.5 0.0 1.0
279. 50. 0.0 1.0
280. 51. 0.0 1.0
281. 58. 0.0 1.0
282. 54. 0.0 1.0
283. 54. 0.0 1.0
284. 53. 0.0 1.0
285. 54. 0.0 1.0
286. 58.5 0.0 1.0
287. 56. 0.0 1.0
289. 54. 0.0 1.0
290. 59. 0.0 1.0
291. 56.5 0.0 1.0
350. 54. 0.0 1.0
351. 54. 0.0 1.0
352. 55. 0.0 1.0
353. 58. 0.0 1.0
354. 60. 0.0 1.0
355. 60. 0.0 1.0
356. 61. 0.0 1.0
357. 54.25 0.0 1.0
358. 53. 0.0 1.0
359. 53. 0.0 1.0
360. 49. 0.0 1.0
361. 53. 0.0 1.0
362. 51. 0.0 1.0
363. 49. 0.0 1.0
364. 52.5 0.0 1.0
365. 52. 0.0 1.0
366. 52. 0.0 1.0
367. 48. 0.0 1.0
368. 49. 0.0 1.0
369. 50. 0.0 1.0
370. 51. 0.0 1.0
371. 48.5 0.0 1.0
372. 47. 0.0 1.0
373. 48. 0.0 1.0
374. 48. 0.0 1.0
375. 45. 0.0 1.0
376. 45. 0.0 1.0
378. 44. 0.0 1.0
379. 44. 0.0 1.0
380. 43. 0.0 1.0
381. 41. 0.0 1.0
382. 41. 0.0 1.0
383. 40. 0.0 1.0
384. 39.5 0.0 1.0
385. 40. 0.0 1.0
386. 36. 0.0 1.0
387. 34.5 0.0 1.0
388. 39. 0.0 1.0
389. 38. 0.0 1.0
390. 36.5 0.0 1.0
391. 37. 0.0 1.0
392. 37. 0.0 1.0
393. 31. 0.0 1.0
394. 34. 0.0 1.0
395. 34. 0.0 1.0
396. 34.5 0.0 1.0
397. 34.5 0.0 1.0
398. 34.545454545454504 0.0 1.0
399. 34.590909090909065 0.0 1.0
400. 34.136363636363626 0.0 1.0
401. 32.68181818181819 0.0 1.0
402. 32.72727272727275 0.0 1.0
403. 31.772727272727252 0.0 1.0
404. 31.818181818181813 0.0 1.0
405. 30.863636363636374 0.0 1.0
406. 30.409090909090878 0.0 1.0
407. 29.95454545454544 0.0 1.0
408. 30. 0.0 1.0
409. 29.86956521739131 0.0 1.0
410. 29.739130434782624 0.0 1.0
411. 26.608695652173935 0.0 1.0
412. 26.478260869565247 0.0 1.0
413. 22.34782608695656 0.0 1.0
414. 22.217391304347814 0.0 1.0
415. 25.086956521739125 0.0 1.0
416. 24.956521739130437 0.0 1.0
417. 24.82608695652175 0.0 1.0
418. 24.69565217391306 0.0 1.0
419. 21.565217391304373 0.0 1.0
420. 21.434782608695627 0.0 1.0
421. 21.304347826086996 0.0 1.0
422. 21.17391304347825 0.0 1.0
423. 20.543478260869563 0.0 1.0
424. 20.913043478260875 0.0 1.0
425. 19.782608695652186 0.0 1.0
426. 19.652173913043498 0.0 1.0
427. 19.52173913043481 0.0 1.0
428. 19.39130434782612 0.0 1.0
429. 18.260869565217433 0.0 1.0
430. 18.13043478260869 0.0 1.0
431. 17. 0.0 1.0
432. 17. 0.0 1.0
433. 14.333333333333371 0.0 1.0
434. 12.666666666666686 0.0 1.0
435. 11. 0.0 1.0
436. 11. 0.0 1.0
437. 12. 0.0 1.0
438. 14.5 0.0 1.0
439. 17. 0.0 1.0
440. 17. 0.0 1.0
441. 14.5 0.0 1.0
442. 13.5 0.0 1.0
443. 12. 0.0 1.0
444. 13. 0.0 1.0
445. 12.5 0.0 1.0
446. 12. 0.0 1.0
447. 16. 0.0 1.0
448. 15. 0.0 1.0
449. 11. 0.0 1.0
450. 11. 0.0 1.0
451. 11. 0.0 1.0
452. 11. 0.0 1.0
453. 13. 0.0 1.0
454. 13. 0.0 1.0
455. 13. 0.0 1.0
456. 14. 0.0 1.0
457. 9. 0.0 1.0
458. 11.5 0.0 1.0
459. 13.5 0.0 1.0
460. 12.5 0.0 1.0
461. 11.5 0.0 1.0
463. 11.5 0.0 1.0
464. 14. 0.0 1.0
465. 13. 0.0 1.0
466. 9. 0.0 1.0
467. 9. 0.0 1.0
468. 9. 0.0 1.0
469. 9. 0.0 1.0
470. 11. 0.0 1.0
471. 10. 0.0 1.0
472. 9.333333333333371 0.0 1.0
473. 9.666666666666686 0.0 1.0
474. 9. 0.0 1.0
475. 9. 0.0 1.0
476. 10. 0.0 1.0
477. 10. 0.0 1.0
478. 7.5 0.0 1.0
479. 8.5 0.0 1.0
480. 8.5 0.0 1.0
481. 9. 0.0 1.0
482. 9. 0.0 1.0
483. 9. 0.0 1.0
484. 9. 0.0 1.0
485. 8. 0.0 1.0
486. 8.5 0.0 1.0
487. 8.5 0.0 1.0
488. 8. 0.0 1.0
489. 9. 0.0 1.0
490. 9. 0.0 1.0
491. 9. 0.0 1.0
492. 5. 0.0 1.0
493. 8.25 0.0 1.0
494. 11. 0.0 1.0
495. 7.5 0.0 1.0
496. 8. 0.0 1.0
497. 8. 0.0 1.0
498. 9. 0.0 1.0
499. 9. 0.0 1.0
500. 8. 0.0 1.0
501. 7. 0.0 1.0
502. 8. 0.0 1.0
503. 8. 0.0 1.0
504. 8. 0.0 1.0
505. 8. 0.0 1.0
506. 8. 0.0 1.0
507. 8. 0.0 1.0
508. 8. 0.0 1.0
509. 8. 0.0 1.0
510. 8. 0.0 1.0
511. 8. 0.0 1.0
512. 8. 0.0 1.0
513. 8. 0.0 1.0
514. 7. 0.0 1.0
515. 7. 0.0 1.0
516. 8. 0.0 1.0
517. 8. 0.0 1.0
518. 7. 0.0 1.0
519. 7. 0.0 1.0
520. 7. 0.0 1.0
521. 8. 0.0 1.0
522. 9. 0.0 1.0
523. 9. 0.0 1.0
524. 8.5 0.0 1.0
525. 8. 0.0 1.0
526. 7. 0.0 1.0
527. 7. 0.0 1.0
528. 7. 0.0 1.0
529. 7. 0.0 1.0
530. 7. 0.0 1.0
531. 7. 0.0 1.0
532. 7. 0.0 1.0
533. 7. 0.0 1.0
534. 7. 0.0 1.0
535. 7. 0.0 1.0
536. 7. 0.0 1.0
537. 7. 0.0 1.0
538. 8. 0.0 1.0
539. 8. 0.0 1.0
540. 8. 0.0 1.0
541. 8. 0.0 1.0
542. 7.5 0.0 1.0
543. 7.5 0.0 1.0
544. 7.5 0.0 1.0
545. 7. 0.0 1.0
546. 7. 0.0 1.0
547. 7. 0.0 1.0
548. 7. 0.0 1.0
549. 7. 0.0 1.0
550. 7. 0.0 1.0
551. 8. 0.0 1.0
552. 8. 0.0 1.0
553. 7. 0.0 1.0
554. 7. 0.0 1.0
555. 7. 0.0 1.0
556. 7. 0.0 1.0
557. 7. 0.0 1.0
558. 7. 0.0 1.0
559. 7. 0.0 1.0
560. 7. 0.0 1.0
561. 7. 0.0 1.0
562. 6.5 0.0 1.0
563. 8. 0.0 1.0
564. 8. 0.0 1.0
565. 8. 0.0 1.0
566. 7. 0.0 1.0
567. 7. 0.0 1.0
568. 7. 0.0 1.0
569. 7. 0.0 1.0
570. 7. 0.0 1.0
571. 7. 0.0 1.0
572. 8. 0.0 1.0
573. 7. 0.0 1.0
574. 7. 0.0 1.0
575. 7. 0.0 1.0
576. 7.5 0.0 1.0
577. 7. 0.0 1.0
578. 7. 0.0 1.0
579. 7. 0.0 1.0
580. 7. 0.0 1.0
581. 7. 0.0 1.0
582. 7. 0.0 1.0
583. 7. 0.0 1.0
584. 7. 0.0 1.0
585. 7. 0.0 1.0
586. 7. 0.0 1.0
587. 7. 0.0 1.0
588. 7. 0.0 1.0
589. 7. 0.0 1.0
590. 7. 0.0 1.0
591. 7. 0.0 1.0
592. 7. 0.0 1.0
593. 8. 0.0 1.0
594. 7.5 0.0 1.0
595. 7. 0.0 1.0
596. 8. 0.0 1.0
597. 8. 0.0 1.0
598. 8. 0.0 1.0
599. 7.5 0.0 1.0
600. 7. 0.0 1.0
601. 7. 0.0 1.0
602. 7. 0.0 1.0
603. 7. 0.0 1.0
604. 7. 0.0 1.0
605. 7. 0.0 1.0
606. 7. 0.0 1.0
607. 7. 0.0 1.0
608. 7. 0.0 1.0
609. 8. 0.0 1.0
610. 7.5 0.0 1.0
611. 5.5 0.0 1.0
612. 6.5 0.0 1.0
613. 7.5 0.0 1.0
614. 8. 0.0 1.0
615. 8. 0.0 1.0
616. 8. 0.0 1.0
617. 8. 0.0 1.0
618. 8. 0.0 1.0
619. 8. 0.0 1.0
620. 8. 0.0 1.0
621. 8. 0.0 1.0
622. 7. 0.0 1.0
623. 7. 0.0 1.0
624. 7. 0.0 1.0
625. 7. 0.0 1.0
626. 7. 0.0 1.0
627. 7. 0.0 1.0
628. 5. 0.0 1.0
629. 4.5 0.0 1.0
630. 8. 0.0 1.0
631. 8. 0.0 1.0
632. 4.5 0.0 1.0
633. 5. 0.0 1.0
634. 6. 0.0 1.0
635. 7. 0.0 1.0
636. 7. 0.0 1.0
637. 6. 0.0 1.0
638. 6. 0.0 1.0
639. 4. 0.0 1.0
640. 6. 0.0 1.0
