#Magnetic Field (Oe),Voltage (V) 
-400.00, 0.095402 
-395.00, 0.095409 
-390.00, 0.095429 
-385.00, 0.095449 
-380.00, 0.095460 
-375.00, 0.095483 
-370.00, 0.095509 
-365.00, 0.095535 
-360.00, 0.095551 
-355.00, 0.095581 
-350.00, 0.095613 
-345.00, 0.095630 
-340.00, 0.095669 
-335.00, 0.095709 
-330.00, 0.095733 
-325.00, 0.095778 
-320.00, 0.095831 
-315.00, 0.095858 
-310.00, 0.095919 
-305.00, 0.095984 
-300.00, 0.096055 
-295.00, 0.096094 
-290.00, 0.096164 
-285.00, 0.096233 
-280.00, 0.096300 
-275.00, 0.096367 
-270.00, 0.096430 
-265.00, 0.096492 
-260.00, 0.096559 
-255.00, 0.096626 
-250.00, 0.096690 
-245.00, 0.096763 
-240.00, 0.096839 
-235.00, 0.096921 
-230.00, 0.097005 
-225.00, 0.097093 
-220.00, 0.097190 
-215.00, 0.097307 
-210.00, 0.097436 
-205.00, 0.097583 
-200.00, 0.097719 
-195.00, 0.097877 
-190.00, 0.098036 
-185.00, 0.098226 
-180.00, 0.098439 
-175.00, 0.098640 
-170.00, 0.098829 
-165.00, 0.098965 
-160.00, 0.099094 
-155.00, 0.099193 
-150.00, 0.099300 
-145.00, 0.099400 
-140.00, 0.099480 
-135.00, 0.099550 
-130.00, 0.099623 
-125.00, 0.099681 
-120.00, 0.099743 
-115.00, 0.099789 
-110.00, 0.099821 
-105.00, 0.099861 
-100.00, 0.099891 
-95.00, 0.099916 
-90.00, 0.099942 
-85.00, 0.099968 
-80.00, 0.099989 
-75.00, 0.100008 
-70.00, 0.100026 
-65.00, 0.100042 
-60.00, 0.100056 
-55.00, 0.100076 
-50.00, 0.100085 
-45.00, 0.100090 
-40.00, 0.100091 
-35.00, 0.100087 
-30.00, 0.100076 
-25.00, 0.100053 
-20.00, 0.100005 
-15.00, 0.099910 
-10.00, 0.099298 
-5.00, 0.096869 
-3.06E-14, 0.095611 
5.00, 0.095151 
10.00, 0.095136 
15.00, 0.095128 
20.00, 0.095122 
25.00, 0.095120 
30.00, 0.095116 
35.00, 0.095107 
40.00, 0.095103 
45.00, 0.095098 
50.00, 0.095095 
55.00, 0.095090 
60.00, 0.095086 
65.00, 0.095082 
70.00, 0.095078 
75.00, 0.095076 
80.00, 0.095071 
85.00, 0.095066 
90.00, 0.095062 
95.00, 0.095058 
100.00, 0.095054 
105.00, 0.095051 
110.00, 0.095046 
115.00, 0.095043 
120.00, 0.095039 
125.00, 0.095036 
130.00, 0.095033 
135.00, 0.095030 
140.00, 0.095026 
145.00, 0.095022 
150.00, 0.095020 
155.00, 0.095015 
160.00, 0.095012 
165.00, 0.095009 
170.00, 0.095006 
175.00, 0.095002 
180.00, 0.094991 
185.00, 0.094988 
190.00, 0.094985 
195.00, 0.094983 
200.00, 0.094980 
205.00, 0.094979 
210.00, 0.094975 
215.00, 0.094973 
220.00, 0.094971 
225.00, 0.094969 
230.00, 0.094967 
235.00, 0.094963 
240.00, 0.094962 
245.00, 0.094961 
250.00, 0.094958 
255.00, 0.094956 
260.00, 0.094954 
265.00, 0.094952 
270.00, 0.094950 
275.00, 0.094948 
280.00, 0.094946 
285.00, 0.094946 
290.00, 0.094943 
295.00, 0.094942 
300.00, 0.094940 
305.00, 0.094937 
310.00, 0.094938 
315.00, 0.094935 
320.00, 0.094934 
325.00, 0.094932 
330.00, 0.094931 
335.00, 0.094929 
340.00, 0.094928 
345.00, 0.094927 
350.00, 0.094924 
355.00, 0.094923 
360.00, 0.094923 
365.00, 0.094922 
370.00, 0.094921 
375.00, 0.094919 
380.00, 0.094917 
385.00, 0.094917 
390.00, 0.094915 
395.00, 0.094914 
400.00, 0.094913 
405.00, 0.094911 
405.00, 0.094912 
400.00, 0.094912 
395.00, 0.094914 
390.00, 0.094915 
385.00, 0.094916 
380.00, 0.094917 
375.00, 0.094919 
370.00, 0.094920 
365.00, 0.094921 
360.00, 0.094923 
355.00, 0.094923 
350.00, 0.094925 
345.00, 0.094927 
340.00, 0.094928 
335.00, 0.094929 
330.00, 0.094931 
325.00, 0.094933 
320.00, 0.094934 
315.00, 0.094936 
310.00, 0.094938 
305.00, 0.094939 
300.00, 0.094940 
295.00, 0.094942 
290.00, 0.094942 
285.00, 0.094946 
280.00, 0.094948 
275.00, 0.094950 
270.00, 0.094951 
265.00, 0.094953 
260.00, 0.094955 
255.00, 0.094958 
250.00, 0.094960 
245.00, 0.094963 
240.00, 0.094964 
235.00, 0.094967 
230.00, 0.094970 
225.00, 0.094972 
220.00, 0.094974 
215.00, 0.094976 
210.00, 0.094979 
205.00, 0.094981 
200.00, 0.094983 
195.00, 0.094986 
190.00, 0.094989 
185.00, 0.094991 
180.00, 0.094993 
175.00, 0.094995 
170.00, 0.094997 
165.00, 0.095000 
160.00, 0.095004 
155.00, 0.095006 
150.00, 0.095009 
145.00, 0.095011 
140.00, 0.095014 
135.00, 0.095018 
130.00, 0.095022 
125.00, 0.095026 
120.00, 0.095029 
115.00, 0.095032 
110.00, 0.095035 
105.00, 0.095039 
100.00, 0.095042 
95.00, 0.095046 
90.00, 0.095050 
85.00, 0.095053 
80.00, 0.095058 
75.00, 0.095061 
70.00, 0.095066 
65.00, 0.095069 
60.00, 0.095073 
55.00, 0.095076 
50.00, 0.095080 
45.00, 0.095083 
40.00, 0.095086 
35.00, 0.095088 
30.00, 0.095089 
25.00, 0.095092 
20.00, 0.095091 
15.00, 0.095091 
10.00, 0.095090 
5.00, 0.095087 
-3.06E-14, 0.095083 
-5.00, 0.095083 
-10.00, 0.095095 
-15.00, 0.096053 
-20.00, 0.097936 
-25.00, 0.099629 
-30.00, 0.099856 
-35.00, 0.100005 
-40.00, 0.100040 
-45.00, 0.100064 
-50.00, 0.100077 
-55.00, 0.100085 
-60.00, 0.100089 
-65.00, 0.100089 
-70.00, 0.100084 
-75.00, 0.100087 
-80.00, 0.100080 
-85.00, 0.100068 
-90.00, 0.100055 
-95.00, 0.100042 
-100.00, 0.100028 
-105.00, 0.100010 
-110.00, 0.099997 
-115.00, 0.099981 
-120.00, 0.099961 
-125.00, 0.099939 
-130.00, 0.099915 
-135.00, 0.099887 
-140.00, 0.099867 
-145.00, 0.099837 
-150.00, 0.099802 
-155.00, 0.099771 
-160.00, 0.099730 
-165.00, 0.099685 
-170.00, 0.099639 
-175.00, 0.099592 
-180.00, 0.099537 
-185.00, 0.099473 
-190.00, 0.099409 
-195.00, 0.099332 
-200.00, 0.099254 
-205.00, 0.099162 
-210.00, 0.099048 
-215.00, 0.098932 
-220.00, 0.098813 
-225.00, 0.098669 
-230.00, 0.098511 
-235.00, 0.098344 
-240.00, 0.098165 
-245.00, 0.097970 
-250.00, 0.097778 
-255.00, 0.097568 
-260.00, 0.097360 
-265.00, 0.097196 
-270.00, 0.097069 
-275.00, 0.096956 
-280.00, 0.096836 
-285.00, 0.096734 
-290.00, 0.096636 
-295.00, 0.096532 
-300.00, 0.096476 
-305.00, 0.096391 
-310.00, 0.096296 
-315.00, 0.096216 
-320.00, 0.096171 
-325.00, 0.096096 
-330.00, 0.096027 
-335.00, 0.095984 
-340.00, 0.095889 
-345.00, 0.095818 
-350.00, 0.095780 
-355.00, 0.095721 
-360.00, 0.095660 
-365.00, 0.095635 
-370.00, 0.095592 
-375.00, 0.095552 
-380.00, 0.095520 
-385.00, 0.095501 
-390.00, 0.095470 
-395.00, 0.095439 
-400.00, 0.095426 
