#Magnetic Field (Oe),Voltage (V) 
-400.00, 0.072985 
-395.00, 0.072989 
-390.00, 0.072997 
-385.00, 0.073004 
-380.00, 0.073008 
-375.00, 0.073017 
-370.00, 0.073025 
-365.00, 0.073034 
-360.00, 0.073037 
-355.00, 0.073045 
-350.00, 0.073053 
-345.00, 0.073057 
-340.00, 0.073068 
-335.00, 0.073077 
-330.00, 0.073083 
-325.00, 0.073093 
-320.00, 0.073103 
-315.00, 0.073108 
-310.00, 0.073118 
-305.00, 0.073129 
-300.00, 0.073139 
-295.00, 0.073145 
-290.00, 0.073155 
-285.00, 0.073163 
-280.00, 0.073172 
-275.00, 0.073182 
-270.00, 0.073191 
-265.00, 0.073201 
-260.00, 0.073211 
-255.00, 0.073221 
-250.00, 0.073231 
-245.00, 0.073242 
-240.00, 0.073252 
-235.00, 0.073264 
-230.00, 0.073274 
-225.00, 0.073285 
-220.00, 0.073295 
-215.00, 0.073306 
-210.00, 0.073317 
-205.00, 0.073328 
-200.00, 0.073339 
-195.00, 0.073349 
-190.00, 0.073361 
-185.00, 0.073371 
-180.00, 0.073382 
-175.00, 0.073393 
-170.00, 0.073403 
-165.00, 0.073414 
-160.00, 0.073426 
-155.00, 0.073435 
-150.00, 0.073445 
-145.00, 0.073455 
-140.00, 0.073465 
-135.00, 0.073475 
-130.00, 0.073484 
-125.00, 0.073494 
-120.00, 0.073501 
-115.00, 0.073510 
-110.00, 0.073516 
-105.00, 0.073523 
-100.00, 0.073529 
-95.00, 0.073533 
-90.00, 0.073537 
-85.00, 0.073539 
-80.00, 0.073539 
-75.00, 0.073537 
-70.00, 0.073533 
-65.00, 0.073527 
-60.00, 0.073516 
-55.00, 0.073501 
-50.00, 0.073483 
-45.00, 0.073458 
-40.00, 0.073426 
-35.00, 0.073388 
-30.00, 0.073338 
-25.00, 0.073283 
-20.00, 0.073219 
-15.00, 0.073162 
-10.00, 0.073120 
-5.00, 0.073110 
-3.06E-14, 0.073143 
5.00, 0.073213 
10.00, 0.073357 
15.00, 0.073557 
20.00, 0.073780 
25.00, 0.074020 
30.00, 0.074224 
35.00, 0.074384 
40.00, 0.074513 
45.00, 0.074606 
50.00, 0.074677 
55.00, 0.074733 
60.00, 0.074771 
65.00, 0.074800 
70.00, 0.074821 
75.00, 0.074834 
80.00, 0.074842 
85.00, 0.074850 
90.00, 0.074849 
95.00, 0.074845 
100.00, 0.074838 
105.00, 0.074829 
110.00, 0.074818 
115.00, 0.074805 
120.00, 0.074792 
125.00, 0.074775 
130.00, 0.074759 
135.00, 0.074741 
140.00, 0.074722 
145.00, 0.074703 
150.00, 0.074682 
155.00, 0.074660 
160.00, 0.074638 
165.00, 0.074616 
170.00, 0.074592 
175.00, 0.074569 
180.00, 0.074543 
185.00, 0.074518 
190.00, 0.074492 
195.00, 0.074468 
200.00, 0.074442 
205.00, 0.074415 
210.00, 0.074386 
215.00, 0.074359 
220.00, 0.074332 
225.00, 0.074301 
230.00, 0.074274 
235.00, 0.074246 
240.00, 0.074216 
245.00, 0.074187 
250.00, 0.074158 
255.00, 0.074129 
260.00, 0.074100 
265.00, 0.074071 
270.00, 0.074039 
275.00, 0.074011 
280.00, 0.073982 
285.00, 0.073953 
290.00, 0.073925 
295.00, 0.073895 
300.00, 0.073868 
305.00, 0.073835 
310.00, 0.073818 
315.00, 0.073785 
320.00, 0.073754 
325.00, 0.073739 
330.00, 0.073708 
335.00, 0.073679 
340.00, 0.073649 
345.00, 0.073635 
350.00, 0.073606 
355.00, 0.073579 
360.00, 0.073565 
365.00, 0.073538 
370.00, 0.073514 
375.00, 0.073501 
380.00, 0.073476 
385.00, 0.073453 
390.00, 0.073440 
395.00, 0.073418 
400.00, 0.073395 
405.00, 0.073373 
405.00, 0.073372 
400.00, 0.073392 
395.00, 0.073414 
390.00, 0.073435 
385.00, 0.073447 
380.00, 0.073469 
375.00, 0.073494 
370.00, 0.073505 
365.00, 0.073528 
360.00, 0.073554 
355.00, 0.073567 
350.00, 0.073592 
345.00, 0.073619 
340.00, 0.073633 
335.00, 0.073661 
330.00, 0.073689 
325.00, 0.073719 
320.00, 0.073733 
315.00, 0.073763 
310.00, 0.073795 
305.00, 0.073810 
300.00, 0.073842 
295.00, 0.073869 
290.00, 0.073898 
285.00, 0.073925 
280.00, 0.073954 
275.00, 0.073981 
270.00, 0.074008 
265.00, 0.074038 
260.00, 0.074066 
255.00, 0.074094 
250.00, 0.074123 
245.00, 0.074152 
240.00, 0.074180 
235.00, 0.074209 
230.00, 0.074238 
225.00, 0.074266 
220.00, 0.074295 
215.00, 0.074321 
210.00, 0.074349 
205.00, 0.074378 
200.00, 0.074404 
195.00, 0.074430 
190.00, 0.074457 
185.00, 0.074482 
180.00, 0.074508 
175.00, 0.074533 
170.00, 0.074557 
165.00, 0.074581 
160.00, 0.074605 
155.00, 0.074627 
150.00, 0.074650 
145.00, 0.074670 
140.00, 0.074691 
135.00, 0.074710 
130.00, 0.074728 
125.00, 0.074745 
120.00, 0.074762 
115.00, 0.074776 
110.00, 0.074789 
105.00, 0.074801 
100.00, 0.074811 
95.00, 0.074818 
90.00, 0.074822 
85.00, 0.074823 
80.00, 0.074820 
75.00, 0.074813 
70.00, 0.074797 
65.00, 0.074771 
60.00, 0.074742 
55.00, 0.074705 
50.00, 0.074646 
45.00, 0.074577 
40.00, 0.074480 
35.00, 0.074351 
30.00, 0.074191 
25.00, 0.073989 
20.00, 0.073752 
15.00, 0.073530 
10.00, 0.073332 
5.00, 0.073192 
-3.06E-14, 0.073123 
-5.00, 0.073093 
-10.00, 0.073105 
-15.00, 0.073149 
-20.00, 0.073208 
-25.00, 0.073273 
-30.00, 0.073329 
-35.00, 0.073378 
-40.00, 0.073415 
-45.00, 0.073445 
-50.00, 0.073471 
-55.00, 0.073489 
-60.00, 0.073503 
-65.00, 0.073514 
-70.00, 0.073520 
-75.00, 0.073524 
-80.00, 0.073525 
-85.00, 0.073526 
-90.00, 0.073523 
-95.00, 0.073520 
-100.00, 0.073513 
-105.00, 0.073508 
-110.00, 0.073501 
-115.00, 0.073494 
-120.00, 0.073485 
-125.00, 0.073477 
-130.00, 0.073468 
-135.00, 0.073458 
-140.00, 0.073448 
-145.00, 0.073438 
-150.00, 0.073429 
-155.00, 0.073418 
-160.00, 0.073407 
-165.00, 0.073397 
-170.00, 0.073385 
-175.00, 0.073374 
-180.00, 0.073362 
-185.00, 0.073351 
-190.00, 0.073341 
-195.00, 0.073329 
-200.00, 0.073317 
-205.00, 0.073306 
-210.00, 0.073294 
-215.00, 0.073283 
-220.00, 0.073272 
-225.00, 0.073260 
-230.00, 0.073249 
-235.00, 0.073237 
-240.00, 0.073226 
-245.00, 0.073217 
-250.00, 0.073206 
-255.00, 0.073195 
-260.00, 0.073185 
-265.00, 0.073174 
-270.00, 0.073164 
-275.00, 0.073154 
-280.00, 0.073143 
-285.00, 0.073135 
-290.00, 0.073125 
-295.00, 0.073115 
-300.00, 0.073109 
-305.00, 0.073098 
-310.00, 0.073087 
-315.00, 0.073077 
-320.00, 0.073071 
-325.00, 0.073061 
-330.00, 0.073051 
-335.00, 0.073045 
-340.00, 0.073036 
-345.00, 0.073026 
-350.00, 0.073021 
-355.00, 0.073011 
-360.00, 0.073002 
-365.00, 0.072998 
-370.00, 0.072989 
-375.00, 0.072979 
-380.00, 0.072970 
-385.00, 0.072965 
-390.00, 0.072957 
-395.00, 0.072949 
-400.00, 0.072944 
