-319. 0.021843827868248667 0.5 0.08727490010618211
-318. 0.027274471432630974 0.5 0.0872796165918514
-317. 0.03267986610778578 0.5 0.08728534647713336
-316. 0.03806001189369324 0.5 0.08729207508571807
-315. 0.04341490879036328 0.5 0.08729978777882114
-314. -0.03852190580192058 0.5 0.08729270042699029
-313. -0.033217506683715474 0.5 0.08728597286340914
-312. -0.02793835645474779 0.5 0.08728026469392942
-311. -0.022684455115017536 0.5 0.08727556197725155
-310. -0.01745580266453462 0.5 0.08727185080163363
-309. -0.012252399103279214 0.5 0.08726911728649116
-308. 0.08019221816845525 0.5 0.08738010996603453
-307. -0.00192133864848067 0.5 0.08726652788049084
-306. 0.0032063182450823065 0.5 0.08726664439826959
-305. 0.008308726249388016 0.5 0.08726768339680585
-304. 0.0133858853644563 0.5 0.08726963117434709
-303. -0.02519543570956115 0.5 0.08727768778291092
-302. -0.06380200567281603 0.5 0.08733841864259
-301. -0.058800593225450094 0.5 0.08732758339206907
-300. -0.053824429667311664 0.5 0.08731767900237725
-299. 0.038392947601295885 0.5 0.08729252507662176
-298. 0.04331861338094954 0.5 0.08729964013858182
-297. 0.048219030271375696 0.5 0.08730756926925473
-296. 0.05309419827255451 0.5 0.08731629912618992
-295. 0.014310886084657496 0.5 0.08727008420954428
-294. -0.024497674992486857 0.5 0.0872770746904345
-293. -0.019698253659010404 0.5 0.08727332405125528
-292. -0.014924081214771371 0.5 0.08727040121017027
-291. -0.053808388959628 0.5 0.08731764848894054
-290. -0.005451482993995661 0.5 0.08726698813954831
-289. -0.04438628851731722 0.5 0.08730129541839857
-288. -0.039713111630017964 0.5 0.0872943479479953
-287. 0.09583451026761858 0.5 0.0874287250029984
-286. 0.10045718937643305 0.5 0.08744473999614306
-283. 0.07054050206764333 0.5 0.08735441261555318
-282. -0.05583750828005667 0.5 0.08732158048574588
-281. -0.05134107361740948 0.5 0.08731306320660241
-280. 0.04039657475571678 0.5 0.08729531586157072
-279. -0.04242395095983727 0.5 0.08729828410146342
-278. -0.03800326296489242 0.5 0.0872919987754368
-277. 0.053658638740521555 0.5 0.08731736406485269
-276. 0.05802882895699157 0.5 0.08732599003023485
-275. -0.003076076665573139 0.5 0.08726662992883234
-274. 0.06669346272219943 0.5 0.08734508540949529
-273. -0.0162785563287593 0.5 0.08727114855063604
-272. -0.09927582426894555 0.5 0.08744057575722494
-271. 0.07950104670077027 0.5 0.08737816061679402
-270. -0.003546719017900751 0.5 0.08726668504880779
-269. 0.0006467289739072755 0.5 0.08726646999614798
-268. -0.038818303223380354 0.5 0.08729310567959968
-267. -0.07830858430990542 0.5 0.08737483701832166
-266. -0.07419088298578982 0.5 0.08736374554216422
-265. -0.07009843055092158 0.5 0.087353314265003
-264. -0.06603122700530067 0.5 0.08734353246941114
-263. 0.025277190250809205 0.5 0.0872777607436739
-262. 0.029293896017965178 0.5 0.08728163639211128
-261. 0.03328535289590357 0.5 0.08728605263463486
-260. 0.0372515608845847 0.5 0.08729099869912693
-259. 0.21572544518346135 0.5 0.08808558142076596
-258. -0.042158232405471875 0.5 0.08729788679919238
-257. -0.0382677710844931 0.5 0.08729235543043243
-256. -0.03440255865276167 0.5 0.08728738960288474
-255. -0.1178290577099643 0.5 0.08751163568337002
-254. -0.026747880456971407 0.5 0.08727911360073426
-253. -0.022958414692942332 0.5 0.08727578307851357
-252. -0.019194197818150686 0.5 0.08727297740356633
-250. 0.2064246457630214 0.5 0.0880167673884618
-249. 0.03558019077068772 0.5 0.08728884663963565
-248. -0.09165628181103512 0.5 0.08741489643138851
-247. -0.0007518467827041989 0.5 0.0872664725959476
-246. 0.002860876756672824 0.5 0.0872666073353814
-245. 0.006448351406812422 0.5 0.08726719791431055
-244. -0.07725588543198203 0.5 0.08737194460484178
-243. -0.3355182963594667 0.5 0.08923497949934114
-242. -0.4192730309767459 0.5 0.09032162994394399
-241. -0.06672070148468022 0.5 0.08734514961550398
-240. 0.06764022261885688 0.5 0.08734733242317862
-239. 0.027442972633723618 0.5 0.08727977961172885
-238. 0.030853705059221085 0.5 0.08728329516806606
-237. -0.31482666180338476 0.5 0.08900195807345626
-236. 0.037599423242493824 0.5 0.0872914590185899
-235. 0.040934409000279025 0.5 0.08729608914126506
-234. 0.04424414586881687 0.5 0.08730107272253976
-233. 0.04752863384812721 0.5 0.08730640083918954
-232. 0.007154641638351817 0.5 0.08726736781346434
-231. 0.05402186313904555 0.5 0.08731805531421338
-230. 0.05723060445065354 0.5 0.08732436415559751
-229. 0.06041409687301418 0.5 0.08733098249898856
-228. 0.06357234040614733 0.5 0.08733790175245666
-227. 0.06670533505004304 0.5 0.08734511339120501
-226. 0.06981308080470133 0.5 0.08735260895783292
-225. 0.07289557767012221 0.5 0.0873603800625869
-224. 0.07595282564630565 0.5 0.08736841838360039
-223. 0.07898482473325166 0.5 0.08737671566712205
-222. 0.08199157493097019 0.5 0.0873852637277329
-221. 0.08497307623945127 0.5 0.08739405444855267
-220. 0.08792932865869493 0.5 0.08740307978143541
-219. 0.09086033218869126 0.5 0.08741233174715468
-218. 0.09376608682946007 0.5 0.08742180243557861
-217. 0.09664659258099147 0.5 0.08743148400583463
-216. 0.012235386843568962 0.5 0.08726910991974078
-215. 0.10233185741636182 0.5 0.08745144877557126
-214. 0.10513661650018093 0.5 0.08746171664095234
-213. 0.10791612669476264 0.5 0.08747216472022984
-212. 0.11067038800011682 0.5 0.08748278552096703
-211. 0.20066586301595007 0.5 0.0879756540545973
-210. 0.20336962654283933 0.5 0.0879948144037602
-209. 0.20604814118048123 0.5 0.08801404448737445
-208. 0.20870140692888572 0.5 0.08803333714653595
-207. 0.21132942378805278 0.5 0.08805268529550807
-206. 0.21393219175799236 0.5 0.08807208192168921
-205. 0.303776173438401 0.5 0.08888335162998223
-204. 0.3063284436298757 0.5 0.08891038308959767
-203. 0.308855464932103 0.5 0.08893736175719134
-202. 0.13682431214565988 0.5 0.08759689507481627
-201. 0.13930083566941232 0.5 0.08760894140712444
-200. 0.0981188790040691 0.5 0.08743654515163304
-199. 0.4059775238483543 0.5 0.09013396836668108
-198. 0.40837830070441433 0.5 0.09016743575968572
-197. 0.1489544408720776 0.5 0.0876579443225983
-196. 0.1513047199496429 0.5 0.08767036709820421
-195. 0.2408962127376972 0.5 0.08828671176357052
-194. 0.2431959940367976 0.5 0.088306169684137
-193. 0.33273698904638693 0.5 0.08920283109040426
-192. 0.5095191977664553 0.5 0.09174257653496777
-191. 0.3372103071984105 0.5 0.08925466221445244
-190. 0.3394090929405711 0.5 0.08928038149841955
-189. 0.34158262979348436 0.5 0.08930596238457486
-188. 0.34373091775717013 0.5 0.08933139930352774
-187. 0.3458539568316284 0.5 0.08935668675761
-186. 0.34795174701683934 0.5 0.08938181932068366
-185. 0.3500242883128128 0.5 0.08940679163794803
-184. 0.3520715807195588 0.5 0.08943159842574472
-183. 0.4413600868367739 0.5 0.09064582798590183
-182. 0.44335688146504504 0.5 0.09067589864175578
-181. 0.4453284272040787 0.5 0.09070571239086633
-180. 0.44727472405387503 0.5 0.09073526440664542
-179. 0.5364622346141503 0.5 0.09221540854078715
-178. 0.5383580336854717 0.5 0.09224950186733633
-177. 0.5402285838675658 0.5 0.09228324659525243
-176. 0.5420738851604222 0.5 0.09231663836975845
-175. 0.5438939375640314 0.5 0.09234967290228031
-174. 0.545688741078413 0.5 0.0923823459701629
-173. 0.5474582957035572 0.5 0.09241465341638704
-172. 0.5492026014394641 0.5 0.09244659114929073
-171. 0.5509216582861335 0.5 0.09247815514229217
-170. 0.5526154662435753 0.5 0.09250934143361582
-169. 0.5542840253117699 0.5 0.09254014612602024
-168. 0.5559273354907369 0.5 0.09257056538653097
-167. 0.6884450906800313 0.5 0.09527992778840413
-166. 0.6900379030805235 0.5 0.09531548343576146
-165. 0.6479722352919199 0.5 0.09439981164289815
-164. 0.6931477812138055 0.5 0.09538510228156864
-163. 0.8255645408461602 0.5 0.0985850186352123
-162. 0.8270563576897026 0.5 0.0986236035759517
-161. 0.8285229256440076 0.5 0.09866158862354873
-160. 0.8299642447090853 0.5 0.0986989709967978
-159. 0.8313803148849352 0.5 0.098735747967487
-158. 0.832771136171528 0.5 0.09877191686013063
-157. 0.8341367085688932 0.5 0.09880747505170898
-156. 0.8354770320770213 0.5 0.09884241997140812
-155. 0.8367921066959115 0.5 0.0988767491003682
-154. 0.8380819324255746 0.5 0.09891045997143517
-153. 0.9266129718657165 0.5 0.10131866213089424
-152. 0.9278522998169044 0.5 0.10135366192516942
-151. 0.9290663788788454 0.5 0.10138798228872277
-150. 0.9302552090515585 0.5 0.10142162111273656
-149. 0.8441523277353179 0.5 0.09906965769706622
-148. 0.8452906601295563 0.5 0.09909961007595114
-147. 0.9336702062342835 0.5 0.10151842796714039
-146. 0.9347580408500571 0.5 0.1015493204870278
-145. 0.935820626576583 0.5 0.10157952162809682
-144. 0.9368579634138817 0.5 0.10160902956200266
-143. 1.1124029765613659 0.5 0.10693313767840994
-142. 1.1133898156201996 0.5 0.1069648318489139
-141. 1.1143514057897859 0.5 0.10699573309621431
-140. 1.1152877470701348 0.5 0.10702584000663999
-139. 1.2034653020609727 0.5 0.10993446186696208
-138. 1.2043511455628468 0.5 0.10996439915048602
-137. 1.2052117401754934 0.5 0.1099934964257172
-136. 1.2060470858989023 0.5 0.11002175253043851
-135. 1.2941236453327907 0.5 0.11306827814957282
-134. 1.294908493277725 0.5 0.11309600840882782
-133. 1.2956680923334218 0.5 0.1131228561049597
-132. 1.2964024424998812 0.5 0.11314882029673663
-131. 1.297111543777113 0.5 0.11317390007527126
-130. 1.385061858764824 0.5 0.11634608670512704
-129. 1.3420872309637228 0.5 0.11478104808436947
-128. 1.5172535107726657 0.5 0.12132828790161339
-127. 1.5614948477928061 0.5 0.12304856087414012
-126. 1.5620777046238508 0.5 0.12307139170179827
-125. 1.5626353125656582 0.5 0.12309323752560711
-124. 1.563167671618238 0.5 0.12311409781105247
-123. 1.5636747817815804 0.5 0.1231339720482644
-122. 1.5641566430556757 0.5 0.12315285975195622
-121. 1.6955129493401178 0.5 0.12840624746411655
-120. 1.7395775441356065 0.5 0.13021268371794054
-119. 1.6527171961422924 0.5 0.12667245638201802
-118. 1.6530980618594477 0.5 0.12668779431980287
-117. 1.915253066486515 0.5 0.13761185583791596
-116. 1.9155834344251959 0.5 0.1376260476633021
-115. 1.9158885534746386 0.5 0.1376391557302883
-114. 1.9161684236348542 0.5 0.13765117983027061
-113. 1.9164230449058424 0.5 0.13766211977199425
-112. 1.916652417287573 0.5 0.13767197538152995
-111. 2.3531888537786587 0.5 0.15718294446380005
-110. 2.1352015718826434 0.5 0.14726400720276142
-109. 2.0917219662968134 0.5 0.1453253256008414
-108. 2.1354835744214626 0.5 0.14727662723151963
-107. 2.52828578405576 0.5 0.16536183769117108
-106. 2.266564275302927 0.5 0.15320359562021515
-105. 2.2666169054600154 0.5 0.153205998822749
-104. 2.2666442867278667 0.5 0.15320724911559894
-103. 2.3539128817061967 0.5 0.15721640109889887
-102. 2.3538897651955835 0.5 0.15721533285813444
-101. 2.3538413997957224 0.5 0.15721309784737197
-100. 2.353767785506634 0.5 0.15720969608877344
-99. 2.3973021536281562 0.5 0.15922709456046832
-98. 2.484444504160309 0.5 0.1632980460230703
-97. 2.5279283745033663 0.5 0.16534497202623583
-96. 2.5277537646573283 0.5 0.16533673266938897
-95. 2.614820368521769 0.5 0.169464358209689
-94. 2.614595260897266 0.5 0.16945363798901542
-93. 2.6143449043835156 0.5 0.16944171563693772
-92. 2.614069298980527 0.5 0.169428591245136
-91. 2.613768444688312 0.5 0.16941426491457368
-90. 2.6134423415068686 0.5 0.16939873675550793
-89. 2.700357452035895 0.5 0.17355515959762532
-88. 2.6999808510759675 0.5 0.17353707484876416
-87. 2.9613783890259517 0.5 0.18623265569471378
-86. 2.960951290287549 0.5 0.18621169457553108
-85. 2.960498942659919 0.5 0.18618949501737087
-84. 2.9600213461430513 0.5 0.18616605714525092
-83. 2.9595185007369365 0.5 0.18614138109124806
-82. 3.002623637741453 0.5 0.18825998088239485
-81. 2.9584370632570147 0.5 0.1860883150012806
-80. 3.0014917024830554 0.5 0.18820426206738827
-79. 3.1317875554195855 0.5 0.19464667572830047
-78. 3.131158465567303 0.5 0.19461543621899646
-77. 3.2177705894254904 0.5 0.1989280584213708
-76. 3.217091001794733 0.5 0.19889413101487816
-75. 3.3036526278744454 0.5 0.20322645784066398
-74. 3.3029225424652138 0.5 0.20318982809214356
-73. 3.3021672081667544 0.5 0.2031519331315224
-72. 3.5631860127781967 0.5 0.21633661229845777
-71. 3.3878472555018204 0.5 0.20746046869374477
-70. 3.387016174535648 0.5 0.20741858187618106
-69. 3.647959232479379 0.5 0.22065424367867262
-68. 3.6470776537347422 0.5 0.22060926097214945
-67. 3.6461708261008483 0.5 0.22056299171190347
-66. 3.645238749577727 0.5 0.22051543604949
-65. 3.6442814241653685 0.5 0.2204665941408474
-64. 3.643298849863782 0.5 0.22041646614631427
-63. 3.729557489272665 0.5 0.22482503599206616
-62. 3.728524417192604 0.5 0.2247721440901201
-61. 3.989265484022455 0.5 0.23818786160184705
-60. 3.988181914163909 0.5 0.2381318500893241
-59. 3.9870730954161355 0.5 0.23807453553575714
-58. 3.985939027779125 0.5 0.23801591808893696
-57. 3.9847797112528767 0.5 0.23795599790020378
-56. 4.070861608437117 0.5 0.24241146618130816
-55. 3.982385331532688 0.5 0.23783224992018187
-54. 4.15568319353816 0.5 0.24681366931781357
-53. 4.110789650155114 0.5 0.2444822738915973
-52. 4.06587085788282 0.5 0.24215281200492456
-51. 4.108193279321026 0.5 0.24434753837068027
-50. 4.325023377069416 0.5 0.2556354241888511
-49. 4.323662069429279 0.5 0.2555643403737304
-48. 4.40954197549963 0.5 0.2600537784717316
-47. 3.884531394482719 0.5 0.2327836465382848
-46. 4.232160190573745 0.5 0.25079245378061327
-45. 4.4924972751758165 0.5 0.26439969782330885
-44. 5.0146084986878 0.5 0.2919374377813618
-43. 4.882196003812673 0.5 0.2849260187708077
-42. 3.964360096650861 0.5 0.236900979966796
-41. 3.7009974100976843 0.5 0.22336361686487152
-40. 3.1321768555562626 0.5 0.1946660083286897
34. 3.511790669222975 0.5 0.2137270297000957
35. 3.7701078426861523 0.5 0.2269028878432192
36. 4.290199155059251 0.5 0.253817823085525
37. 3.763067667346505 0.5 0.22654190036569263
38. 4.544907869740278 0.5 0.26714995930234625
39. 4.541324659847358 0.5 0.2669618202600781
40. 4.799515588864367 0.5 0.2805569361243503
41. 4.403182799494256 0.5 0.2597210033603866
42. 4.224990917734199 0.5 0.2504190891927489
43. 4.177673480984478 0.5 0.24795681631937166
44. 4.086697564045672 0.5 0.24323246311271893
45. 3.9956963982176203 0.5 0.23852032813827445
46. 3.861036752200491 0.5 0.23157409489466144
47. 3.813618319893832 0.5 0.22913609755780318
48. 3.809807869997792 0.5 0.22894037383861002
49. 4.155038021611382 0.5 0.24678014194993267
50. 3.714844760938286 0.5 0.22407197296480988
51. 3.710958564374544 0.5 0.22387313541748996
52. 3.707047118921556 0.5 0.22367303795485396
53. 3.70311042457934 0.5 0.22347168128448114
54. 3.699148481347886 0.5 0.2232690661216264
55. 3.4333619014280363 0.5 0.20975717182260575
56. 3.429349460418108 0.5 0.20955448643198396
57. 3.4253117705189617 0.5 0.20935056712446135
58. 3.421248831730559 0.5 0.20914541480417703
59. 3.3298941814532013 0.5 0.20454403039495084
60. 3.238514282286617 0.5 0.19996431669983192
61. 3.321642059430218 0.5 0.20412949072912964
62. 3.317478125084875 0.5 0.2039203897152825
63. 3.3132889418503044 0.5 0.20371006927102778
64. 3.3090745097264866 0.5 0.20349853042811147
65. 3.0430354409142817 0.5 0.1902521539513434
66. 3.038770511011989 0.5 0.1900416403271552
67. 3.0344803322204688 0.5 0.1898299432834328
68. 3.0737981358395694 0.5 0.1917724030417432
69. 3.025824227969716 0.5 0.18940300425577675
70. 3.0214583025104838 0.5 0.18918776496864945
71. 2.9298006655622872 0.5 0.18468469159425227
72. 3.274450092723446 0.5 0.20176248496569849
73. 2.8336761075979284 0.5 0.1799958965842607
74. 2.785575955281898 0.5 0.17766345719181748
75. 2.824717016676337 0.5 0.17956074081976958
76. 2.8201995978816896 0.5 0.17934144680947914
77. 2.641124004998372 0.5 0.1707186797735214
78. 2.6365560884252504 0.5 0.1705006164472817
79. 2.6319629229628907 0.5 0.17028144755990846
80. 2.627344508611304 0.5 0.1700611751512799
81. 2.448167920171037 0.5 0.16159818390705508
82. 2.443499008040965 0.5 0.16137993379792287
83. 2.438804847021666 0.5 0.1611606263195384
84. 2.3468189745134027 0.5 0.15688873543634768
85. 2.516607240915072 0.5 0.16481108812649664
86. 2.250037945428911 0.5 0.15244986887156609
87. 2.245242788852662 0.5 0.15223151108284216
88. 2.240422383387176 0.5 0.15201215793902695
89. 2.1483102664327456 0.5 0.14785125680662434
90. 2.1434393631887843 0.5 0.1476329010381799
91. 2.1385432110556057 0.5 0.14741358805721522
92. 2.1336218100331696 0.5 0.14719332136160795
93. 1.9541422349220732 0.5 0.13928912304297855
94. 1.905537104821314 0.5 0.13719492258947
95. 2.0314396510307504 0.5 0.14266151942138475
96. 1.9391507918516584 0.5 0.13864096643305515
97. 1.8468366837833483 0.5 0.13469451991061582
98. 1.841763789425498 0.5 0.1344799649623299
99. 1.8366656461784197 0.5 0.13426459269753732
100. 1.831542254042094 0.5 0.134048408068125
101. 1.7391271504168246 0.5 0.13019411368980205
102. 1.7339532605020342 0.5 0.12998094601434426
103. 1.7287541216980162 0.5 0.12976702668510223
104. 1.7235297340047613 0.5 0.12955236136083867
105. 1.6310136348225417 0.5 0.125801217108891
106. 1.5821055180509533 0.5 0.1238584787106532
107. 1.5331721523901178 0.5 0.12194435521556955
108. 1.4842135378400645 0.5 0.12006031054108768
109. 1.3479632118010474 0.5 0.11499336965107086
110. 1.3425873307723675 0.5 0.11479909774324445
111. 1.3371862008544502 0.5 0.11460436555831707
112. 1.3317598220473055 0.5 0.11440918178279788
113. 1.282674963051055 0.5 0.11266491562728653
114. 1.1462983925658705 0.5 0.10803236119346508
115. 1.1844294983908616 0.5 0.10929451570580552
116. 1.2225353553266256 0.5 0.11058198728277231
117. 1.1733495007734354 0.5 0.1089250244921244
118. 1.167771628630866 0.5 0.10873985942372907
119. 1.1621685075990693 0.5 0.10855442880581212
120. 1.200173368977893 0.5 0.10982333197700354
121. 0.9763535936683204 0.5 0.102750258179685
122. 0.927041494668953 0.5 0.10133076009632377
123. 0.9213373780802064 0.5 0.10117006316404786
124. 0.9592412439020807 0.5 0.10225157888054971
125. 0.909853398235011 0.5 0.10084877914377817
126. 0.9040735349785521 0.5 0.1006882190707164
127. 0.8982684228328559 0.5 0.10052773187391058
128. 0.8924380617979321 0.5 0.10036733142481907
129. 0.7993159892740446 0.5 0.09791510480994672
130. 0.7934351304606461 0.5 0.09776736697292847
131. 0.7875290227580198 0.5 0.09761987031398349
132. 0.7815976661661465 0.5 0.09747263009364501
133. 0.6011081354856026 0.5 0.09343797194553288
134. 0.6387595124151125 0.5 0.09420582297952929
135. 0.850918565654818 0.5 0.09924815366084969
136. 0.8448862135060048 0.5 0.09908896448573114
137. 1.18789446286683 0.5 0.10941051864454324
138. 0.4836799121418002 0.5 0.0913098671814664
139. 0.6521047385247076 0.5 0.09448759945875185
140. 0.6896046221188029 0.5 0.09530580467469557
141. 0.5525463316242278 0.5 0.09250806686319091
142. 0.5463624861400099 0.5 0.09239463579596283
143. 0.5401533917665348 0.5 0.09228188811016297
144. 0.533919048503832 0.5 0.09216984206283302
145. 0.48402622505202375 0.5 0.0913155309564557
146. 0.5213746153107044 0.5 0.09194792859734113
147. 0.5150645253802895 0.5 0.09183809837704064
148. 0.5087291865606469 0.5 0.09172904418958684
149. 0.5896350614514736 0.5 0.09321206748369022
150. -0.02761601334465904 0.5 0.08727994806809711
151. 0.009606132467834523 0.5 0.08726809441390211
152. 0.26496918589039176 0.5 0.08849931592369634
153. 0.7384731469229928 0.5 0.09642920528922759
154. 0.4701869269687863 0.5 0.09109208552312735
155. 0.3764083833247654 0.5 0.08973700207316218
156. 0.3698710533912235 0.5 0.08965306409987969
157. 0.3633084745684541 0.5 0.08957020399852988
158. 0.3567206468564374 0.5 0.0894884419077698
159. 0.4373740328549096 0.5 0.09058617656937024
160. 0.43073570736442796 0.5 0.09048794936942466
161. 0.2059059764854177 0.5 0.08801301761574525
162. 0.24285038451631943 0.5 0.08830323403211833
163. 0.14886984975840906 0.5 0.08765750079599983
164. 0.22939699131069413 0.5 0.0881921317263652
167. 0.07812784093342068 0.5 0.08737433762798895
168. 0.07128752432904954 0.5 0.08735628429338804
169. 0.4134878092343069 0.5 0.0902392784346173
170. 0.1884308383521697 0.5 0.08789210699815675
171. 0.18151477508009622 0.5 0.08784717217995443
172. 0.13094023161891716 0.5 0.08756913396770681
173. 0.3421398270676501 0.5 0.08931254528613736
174. 0.07334862932871491 0.5 0.0873615504616534
175. 0.06633157049969172 0.5 0.08734423485673053
176. 0.14655572538114758 0.5 0.08764546428783081
177. 0.13948816877364956 0.5 0.08760986135760788
178. 0.08876213197705586 0.5 0.08740567784523341
179. 0.03801084629122475 0.5 0.08729200896614782
180. 0.030867543016024356 0.5 0.08728331026888474
181. 0.02369899085157663 0.5 0.0872763940487191
182. -0.027128041501946927 0.5 0.08727947574039807
183. 0.00928613985498873 0.5 0.08726798750991156
184. 0.0020418410228386446 0.5 0.0872665363258212
185. 0.1693052185008841 0.5 0.08777189426983995
186. 0.16201042189025916 0.5 0.08772939026855942
187. 0.06742391379068031 0.5 0.08734681625536288
188. -0.11445430579783256 0.5 0.08749781105530095
189. 0.2272410013226961 0.5 0.08817490287362435
190. 0.1325787465554149 0.5 0.08757674278883452
191. 0.037891242898886394 0.5 0.08729184847609038
192. 0.03044495295284683 0.5 0.08728285216581495
193. 0.11023987671729624 0.5 0.08748110784922496
194. 0.10274308899278183 0.5 0.08745293694833384
195. 0.09522105237903991 0.5 0.08742665619384139
196. 0.08767376687605065 0.5 0.0874022874109269
197. 0.0801012324838339 0.5 0.08737985239211146
198. 0.07250344920236979 0.5 0.08735937289241556
199. 0.06488041703168808 0.5 0.08734087062446741
200. 0.05723213597175905 0.5 0.08732436725356374
201. 0.049558606022592586 0.5 0.08730988439268676
202. 0.0418598271841887 0.5 0.08729744359747901
203. 0.03413579945654739 0.5 0.08728706636117964
204. 0.026386522839678576 0.5 0.08727877410952474
205. 0.018611997333572335 0.5 0.08727258819561484
206. 0.010812222938228668 0.5 0.08726852989475287
207. 0.04662043095350581 0.5 0.08730488943173303
208. 0.08240339007954554 0.5 0.08738645929675065
209. -0.012738593583226872 0.5 0.08726933214739954
210. -0.020639363535510317 0.5 0.08727399531374233
211. -0.028565382377031184 0.5 0.08728089112034418
212. -0.0365166501077994 0.5 0.08729004026607261
213. -0.0008599354279368765 0.5 0.08726647567675107
214. 0.034771530362688215 0.5 0.08728784084422773
215. 0.026744515964207734 0.5 0.08727911041854264
216. 0.01869225267650966 0.5 0.0872726411350465
217. 0.010614740499574168 0.5 0.08726845506804631
218. 0.0025119794333913286 0.5 0.0872665741856634
219. -0.09288249312174542 0.5 0.08741889111671858
220. -0.10103575196639318 0.5 0.08744679729023944
221. -0.021947797100561894 0.5 0.08727498061275352
222. 0.057114908876031954 0.5 0.08732413036554992
223. 0.04888590336367191 0.5 0.08730871387188698
224. 0.12789811156179093 0.5 0.08755525640130457
225. -0.054914316928466995 0.5 0.08731977351750479
226. -0.0632190691085393 0.5 0.08733711030444699
227. -0.07154907017783912 0.5 0.08735694425172465
228. -0.07990432013637637 0.5 0.08737929594604861
229. -0.0010183563844345697 0.5 0.08726648093878012
230. -0.009424104121446664 0.5 0.08726803315730532
231. -0.01785510074769618 0.5 0.08727210012113049
232. -0.026311346263183124 0.5 0.08727870406210707
233. 0.008840390631960664 0.5 0.08726784462852058
234. 0.04396687863785711 0.5 0.0873006403800685
235. -0.008198344845190423 0.5 0.08726765117591355
236. -0.06038881721747538 0.5 0.08733092853483805
237. 0.018295155420567026 0.5 0.08727238141928531
238. -0.07757904603005102 0.5 0.0873728283725834
239. -0.06439541812025097 0.5 0.08733976280664525
240. 0.07966265479988635 0.5 0.08737861490150357
241. -0.1908202185178769 0.5 0.08790801618083792
242. -0.11226249032601171 0.5 0.08748904635153854
243. 0.053536451576342466 0.5 0.08731713257847826
244. 0.0447772193900362 0.5 0.0873019115732735
245. 0.03599273831447265 0.5 0.08728936866035046
246. 0.027183008349681605 0.5 0.08727952852433307
247. 0.018348029495663058 0.5 0.08727241567902666
248. 0.00948780175239716 0.5 0.08726805445969531
249. 0.0006023251198938404 0.5 0.08726646901535014
250. -0.008308400401827062 0.5 0.08726768330105515
251. -0.01724437481280523 0.5 0.08727172107025785
252. -0.026205598113010906 0.5 0.08727860586715155
253. 0.05207439229726246 0.5 0.08731440356418844
254. -0.0005705600812762897 0.5 0.08726646835650631
255. -0.05324076134905247 0.5 0.08731657456785324
256. -0.018669748906339687 0.5 0.0872726262677388
257. -0.0713904479525808 0.5 0.08735654371263388
258. -0.08050316458821102 0.5 0.08738099243445578
259. -0.08964113011306875 0.5 0.08740844650261717
260. -0.0988043445271639 0.5 0.08743892751850142
261. -0.020726345230770073 0.5 0.08727405893588858
262. -0.02994005742334007 0.5 0.08728231311702381
263. -0.039179018505147496 0.5 0.0872936030592856
264. -0.04844322847619235 0.5 0.08730795232432421
265. -0.0577326873364647 0.5 0.08732538420600641
266. -0.06704739508597447 0.5 0.08734592172244612
267. -0.07638735172472168 0.5 0.08736958760812809
268. -0.0857525572527063 0.5 0.08739640430613324
269. 0.16665637612922105 0.5 0.08775624644463804
270. 0.1572406728227616 0.5 0.0877026001814468
271. -0.1139996671720748 0.5 0.0874959791737136
272. -0.12346586825700911 0.5 0.08753561745801273
273. 0.12884206956798838 0.5 0.08755952788441866
274. 0.11932537070457921 0.5 0.08751789313285578
275. -0.02111627094763218 0.5 0.08727434743189895
276. -0.030683467589506283 0.5 0.0872831099484347
277. 0.0033573181792404256 0.5 0.08726666192488061
278. -0.04989360754095684 0.5 0.08731047326528471
279. -0.05953655085054321 0.5 0.08732912240978213
280. -0.0692047430493571 0.5 0.08735111489767532
281. 0.052001509762166304 0.5 0.08731426949990541
282. 0.042282819784867656 0.5 0.08729807277158895
283. 0.0325388809183415 0.5 0.08728518391102792
284. 0.022769693162587847 0.5 0.08727563048492003
285. 0.012975256517586842 0.5 0.0872694397593311
286. 0.0031555709833484143 0.5 0.08726663868906709
287. -0.0066893634401175165 0.5 0.08726725390713581
288. -0.016559546752830796 0.5 0.08727131171431088
289. 0.1480779462446614 0.5 0.08765336081315232
290. -0.03637566004593986 0.5 0.08728985857609652
291. -0.04632159002635549 0.5 0.08730439847882648
292. -0.05629276889600854 0.5 0.08732248264693601
293. 0.02097726594481745 0.5 0.08727424396903619
294. 0.010955589296689544 0.5 0.08726858508079315
295. 0.0009086637593440578 0.5 0.08726647720076353
296. -0.009163510667258696 0.5 0.08726794750142451
297. -0.10652739658280543 0.5 0.08746691061278668
298. -0.11665006878787311 0.5 0.08750676056458659
299. 0.13500139791697122 0.5 0.08758816506586124
300. 0.12482822793342868 0.5 0.08754158071568999
301. 0.11462980906065863 0.5 0.08749852015322893
302. 0.06077290999878302 0.5 0.08733175088441329
303. 0.05052399334753813 0.5 0.08731159211598156
304. 0.04024982780704591 0.5 0.08729510664857756
305. 0.07358364467718441 0.5 0.08736216044302353
306. 0.06325898135822725 0.5 0.08733719950084659
307. -0.03435739344967388 0.5 0.08728733469772519
308. -0.04473255454710589 0.5 0.08730184090285092
309. 0.11939996066565763 0.5 0.08751820711593652
310. 0.1089743017897607 0.5 0.08747621367561191
311. 0.09852339402461639 0.5 0.08743794906418396
312. 0.08804723737025454 0.5 0.08740344613302511
313. -0.00972063077307114 0.5 0.0872681335455006
314. -0.020247285205917773 0.5 0.08727371185151461
315. -0.030799188528001835 0.5 0.08728323574217706
316. -0.041376340739323315 0.5 0.08729673218477232
317. -0.13924520443959867 0.5 0.08760866845097214
318. 0.024660070770057756 0.5 0.08727721584377279
319. 0.014007171891023996 0.5 0.08726993212379121
320. 0.0033290241227627365 0.5 0.08726665857938502