\relax 
\providecommand\hyper@newdestlabel[2]{}
\catcode `"\active 
\providecommand\HyperFirstAtBeginDocument{\AtBeginDocument}
\HyperFirstAtBeginDocument{\ifx\hyper@anchor\@undefined
\global\let\oldcontentsline\contentsline
\gdef\contentsline#1#2#3#4{\oldcontentsline{#1}{#2}{#3}}
\global\let\oldnewlabel\newlabel
\gdef\newlabel#1#2{\newlabelxx{#1}#2}
\gdef\newlabelxx#1#2#3#4#5#6{\oldnewlabel{#1}{{#2}{#3}}}
\AtEndDocument{\ifx\hyper@anchor\@undefined
\let\contentsline\oldcontentsline
\let\newlabel\oldnewlabel
\fi}
\fi}
\global\let\hyper@last\relax 
\gdef\HyperFirstAtBeginDocument#1{#1}
\providecommand\HyField@AuxAddToFields[1]{}
\providecommand\HyField@AuxAddToCoFields[2]{}
\select@language{portuges}
\@writefile{toc}{\select@language{portuges}}
\@writefile{lof}{\select@language{portuges}}
\@writefile{lot}{\select@language{portuges}}
\@writefile{toc}{\contentsline {section}{\numberline {I}Transformadas de Fourier}{1}{section.1}}
\@writefile{toc}{\contentsline {subsection}{\numberline {I}c\IeC {\'o}digo}{11}{subsection.1.1}}
\@writefile{lol}{\contentsline {lstlisting}{\numberline {1}fourier.c}{11}{lstlisting.1}}
\newlabel{UART.C}{{I}{14}{código}{lstnumber.1.209}{}}
\@writefile{lol}{\contentsline {lstlisting}{\numberline {2}fourier.h}{14}{lstlisting.2}}
\newlabel{UART.C}{{I}{17}{código}{lstnumber.2.209}{}}
\@writefile{lol}{\contentsline {lstlisting}{\numberline {3}img\_help.c}{17}{lstlisting.3}}
\newlabel{UART.C}{{I}{19}{código}{lstnumber.3.152}{}}
\@writefile{lol}{\contentsline {lstlisting}{\numberline {4}img\_help.h}{19}{lstlisting.4}}
\newlabel{UART.C}{{I}{19}{código}{lstnumber.4.7}{}}
\@writefile{toc}{\contentsline {section}{\numberline {II}Interferometria laser}{20}{section.2}}
\@writefile{toc}{\contentsline {subsection}{\numberline {I}Caracteriza\IeC {\c c}\IeC {\~a}o do Interfer\IeC {\'o}metro de Michelson}{20}{subsection.2.1}}
\@writefile{lof}{\contentsline {figure}{\numberline {1}{\ignorespaces Figura que mostra os diferentes comprimentos de co\IeC {\^e}rencia para os tr\IeC {\^e}s ajustes efectuados\relax }}{20}{figure.caption.1}}
\providecommand*\caption@xref[2]{\@setref\relax\@undefined{#1}}
\newlabel{2_sessao_lambdas}{{1}{20}{Figura que mostra os diferentes comprimentos de coêrencia para os três ajustes efectuados\relax }{figure.caption.1}{}}
\@writefile{toc}{\contentsline {subsection}{\numberline {II}Determina\IeC {\c c}\IeC {\~a}o do campo de temperatura na vizinhan\IeC {\c c}a de uma ponta aquecida}{21}{subsection.2.2}}
\@writefile{lof}{\contentsline {figure}{\numberline {2}{\ignorespaces retiraminimos\_1: determina\IeC {\c c}\IeC {\~a}o dos m\IeC {\'\i }nimos abaixo de um certo patamar\relax }}{21}{figure.caption.2}}
\@writefile{lof}{\contentsline {figure}{\numberline {3}{\ignorespaces passo\_1: coordenadar do m\IeC {\'\i }nimos a utilizar\relax }}{21}{figure.caption.3}}
\@writefile{lof}{\contentsline {figure}{\numberline {4}{\ignorespaces passo\_2: agrupar conjuntos de pontos\relax }}{21}{figure.caption.4}}
\@writefile{lof}{\contentsline {figure}{\numberline {5}{\ignorespaces passo\_3: uni\IeC {\~a}o dos ramos da essquerda e da direita\relax }}{21}{figure.caption.5}}
\@writefile{lof}{\contentsline {figure}{\numberline {6}{\ignorespaces fundo (ajustado a uma potencia de 2\IeC {\textordmasculine } grau)\relax }}{21}{figure.caption.6}}
\@writefile{lof}{\contentsline {figure}{\numberline {7}{\ignorespaces lambdas: exemplo de c\IeC {\'a}lculo do comprimento de onda da interfer\IeC {\^e}ncia\relax }}{21}{figure.caption.7}}
\@writefile{lof}{\contentsline {figure}{\numberline {8}{\ignorespaces calibrado\_fase\_pixel: exemplo de conjunto de dados com calibra\IeC {\c c}\IeC {\~a}o completa\relax }}{21}{figure.caption.8}}
\@writefile{lof}{\contentsline {figure}{\numberline {9}{\ignorespaces Ajustes a polin\IeC {\'o}mios do 6\IeC {\textordmasculine } grau para $T=200^o~C$ (x \IeC {\'e} n\IeC {\'u}mero de p\IeC {\'\i }xel e y \IeC {\'e} desvio de fase)\relax }}{22}{figure.caption.9}}
\newlabel{1sessao_montagem}{{9}{22}{Ajustes a polinómios do 6º grau para $T=200^o~C$ (x é número de píxel e y é desvio de fase)\relax }{figure.caption.9}{}}
\@writefile{lof}{\contentsline {figure}{\numberline {10}{\ignorespaces Ajustes a polin\IeC {\'o}mios do 6\IeC {\textordmasculine } grau para $T=200^o~C$ (x \IeC {\'e} n\IeC {\'u}mero de p\IeC {\'\i }xel e y \IeC {\'e} desvio de fase)\relax }}{22}{figure.caption.10}}
\newlabel{1sessao_montagem}{{10}{22}{Ajustes a polinómios do 6º grau para $T=200^o~C$ (x é número de píxel e y é desvio de fase)\relax }{figure.caption.10}{}}
\@writefile{toc}{\contentsline {section}{\numberline {III}Anemometria Laser}{23}{section.3}}
