-40	54.85584823	0.135	0.002732964697
-39	54.8568441	0.135	0.002733014202
-38	54.85783996	0.135	0.002733063708
-37	54.85883583	0.135	0.002733113213
-36	54.86032963	0.135	0.002733187472
-35	54.8613255	0.135	0.002733236977
-34	54.86232137	0.135	0.002733286483
-33	54.86331723	0.135	0.002733335988
-32	54.8643131	0.135	0.002733385494
-31	54.8658069	0.135	0.002733459752
-30	54.86680277	0.135	0.002733509257
-29	54.86779864	0.135	0.002733558763
-28	54.86979037	0.135	0.002733657774
-27	54.87078624	0.135	0.00273370728
-26	54.87228004	0.135	0.002733781538
-25	54.87377384	0.135	0.002733855796
-24	54.87576557	0.135	0.002733954808
-23	54.87725937	0.135	0.002734029066
-22	54.87974904	0.135	0.00273415283
-21	54.88124284	0.135	0.002734227088
-20	54.88423044	0.135	0.002734375605
-19	54.88572424	0.135	0.002734449864
-18	54.88771598	0.135	0.002734548875
-17	54.89070358	0.135	0.002734697392
-16	54.89319325	0.135	0.002734821156
-15	54.89667878	0.135	0.002734994426
-14	54.89966638	0.135	0.002735142944
-13	54.90364985	0.135	0.002735340967
-12	54.90713539	0.135	0.002735514237
-11	54.91261266	0.135	0.002735786519
-10	54.91609819	0.135	0.002735959789
-9	54.9220734	0.135	0.002736256824
-8	54.92605686	0.135	0.002736454848
-7	54.93302793	0.135	0.002736801389
-6	54.93900314	0.135	0.002737098425
-5	54.94746801	0.135	0.002737519226
-4	54.95443908	0.135	0.002737865768
-3	54.96190808	0.135	0.002738237064
-2	54.97385849	0.135	0.002738831138
-1	54.98331923	0.135	0.002739301447
-6.22E-15	54.99825723	0.135	0.002740044041
1	55.01120351	0.135	0.002740687624
2	55.02962705	0.135	0.002741603493
3	55.03908779	0.135	0.002742073805
4	55.0629886	0.135	0.002743261964
5	55.08240801	0.135	0.002744227346
6	55.11327989	0.135	0.002745762061
7	55.13917243	0.135	0.002747049245
8	55.18050092	0.135	0.002749103796
9	55.21535627	0.135	0.002750836559
10	55.27261863	0.135	0.002753683255
11	55.31992232	0.135	0.002756034888
12	55.37569088	0.135	0.002758807356
13	55.46432306	0.135	0.002763213636
14	55.53253996	0.135	0.002766605017
15	55.64806055	0.135	0.002772348146
16	55.72524025	0.135	0.002776185191
17	55.84822985	0.135	0.002782299777
18	55.92291988	0.135	0.002786013129
19	56.03844047	0.135	0.002791756507
20	56.1056615	0.135	0.002795098592
21	56.20275855	0.135	0.002799926091
22	56.25952298	0.135	0.002802748344
23	56.33919235	0.135	0.00280670943
24	56.38649604	0.135	0.002809061341
25	56.45122741	0.135	0.002812279763
26	56.48907036	0.135	0.002814161313
27	56.52741124	0.135	0.002816067628
28	56.5757108	0.135	0.0028184691
29	56.60508888	0.135	0.002819929795
30	56.64492357	0.135	0.002821910405
31	56.66982025	0.135	0.002823148291
32	56.7031818	0.135	0.002824807062
33	56.72459294	0.135	0.00282587165
34	56.75247722	0.135	0.002827258094
35	56.77090076	0.135	0.002828174139
36	56.79579744	0.135	0.002829412041
37	56.81073545	0.135	0.002830154783
38	56.83164866	0.135	0.002831194624
39	56.8455908	0.135	0.002831887853
40	56.86451227	0.135	0.002832828665
41	56.87596475	0.135	0.002833398105
42	56.89189862	0.135	0.00283419037
43	56.90285316	0.135	0.002834735053
44	56.91330976	0.135	0.002835254978
45	56.92675397	0.135	0.002835923454
46	56.93621471	0.135	0.002836393864
47	56.94816511	0.135	0.002836988066
48	56.95662999	0.135	0.00283740896
49	56.96708659	0.135	0.002837928888
50	56.97455559	0.135	0.002838300266
51	56.98401633	0.135	0.002838770677
52	56.9909874	0.135	0.002839117297
53	56.99945227	0.135	0.002839538193
54	57.00592541	0.135	0.002839860054
55	57.01389235	0.135	0.002840256192
56	57.01936962	0.135	0.002840528536
57	57.02683862	0.135	0.002840899916
58	57.03181796	0.135	0.002841147502
59	57.03878903	0.135	0.002841494123
60	57.04277249	0.135	0.002841692193
61	57.0487477	0.135	0.002841989297
62	57.0532291	0.135	0.002842212125
63	57.05721257	0.135	0.002842410195
64	57.06268984	0.135	0.002842682541
65	57.06667331	0.135	0.002842880611
66	57.07165264	0.135	0.002843128198
67	57.07464024	0.135	0.002843276751
68	57.07912165	0.135	0.00284349958
69	57.08310511	0.135	0.00284369765
70	57.08708858	0.135	0.00284389572
71	57.09007618	0.135	0.002844044273
72	57.09356172	0.135	0.002844217584
73	57.09654932	0.135	0.002844366137
74	57.10003486	0.135	0.002844539449
75	57.10202659	0.135	0.002844638484
76	57.10551212	0.135	0.002844811796
77	57.10750386	0.135	0.002844910831
78	57.11049146	0.135	0.002845059384
79	57.11298113	0.135	0.002845183179
80	57.11497286	0.135	0.002845282214
81	57.11796046	0.135	0.002845430767
