1. 223.
2. 223.
3. 220.5
4. 220.5
5. 222.
6. 222.
7. 221.
8. 221.
9. 223.
10. 223.
11. 222.5
12. 220.
13. 220.5
14. 221.
15. 220.
16. 221.
17. 223.
18. 223.
19. 223.
20. 223.
21. 223.
22. 223.
23. 223.
24. 223.
25. 223.
26. 222.5
27. 222.
28. 221.
29. 223.
30. 223.
31. 223.
32. 223.
33. 223.
34. 223.
35. 223.
36. 223.
37. 223.
38. 223.
39. 223.
40. 223.
41. 223.
42. 223.
43. 223.
44. 223.
45. 223.
46. 223.
47. 223.5
48. 223.5
49. 223.
50. 223.
51. 223.
52. 223.
53. 224.
54. 224.
55. 224.
56. 224.
57. 222.
58. 223.
59. 224.
60. 224.
61. 223.
62. 223.
63. 223.
64. 223.
65. 225.
66. 226.
67. 225.5
68. 226.
71. 223.
72. 223.
73. 223.
74. 226.
75. 225.
76. 225.5
77. 225.
78. 225.5
79. 225.
80. 225.5
81. 227.
82. 227.
83. 224.
84. 224.
85. 225.5
86. 226.
87. 226.5
88. 224.5
89. 231.
90. 231.
90. 229.
91. 222.5
92. 226.5
93. 227.
94. 227.
95. 227.
96. 227.
97. 225.5
98. 225.5
99. 227.
100. 227.
101. 228.
102. 227.
103. 227.
104. 227.
105. 227.
106. 227.
107. 227.
108. 227.
109. 227.
110. 227.
111. 227.
112. 226.5
113. 227.
114. 227.
115. 228.
116. 228.
118. 227.
119. 227.
120. 227.
121. 228.
122. 228.
122. 226.
123. 227.
124. 224.
125. 227.
126. 227.
127. 227.
128. 224.
129. 228.
130. 228.
131. 228.
132. 228.
133. 227.
134. 227.
135. 228.5
136. 229.
137. 228.
138. 228.
139. 228.
140. 228.
141. 228.
142. 228.
143. 228.
144. 228.
145. 228.
146. 228.
147. 231.
148. 231.
149. 228.
150. 228.
151. 228.
152. 228.
153. 228.
154. 228.
155. 228.
156. 227.
157. 229.5
158. 229.5
159. 231.
159. 228.
160. 228.
161. 230.5
162. 230.
163. 229.
164. 229.
166. 228.
167. 229.
169. 231.
170. 231.
171. 231.
172. 231.
174. 227.
175. 229.
176. 230.
176. 228.
177. 231.
178. 231.
179. 229.
181. 231.
182. 231.
183. 231.
184. 231.
185. 231.
187. 229.5
188. 230.
191. 232.
192. 229.
193. 231.
194. 231.
195. 231.
196. 231.
197. 231.
198. 231.
202. 231.
203. 229.5
204. 229.
205. 228.
206. 228.
207. 231.
208. 231.
209. 230.
210. 229.
211. 231.
212. 231.
213. 231.
214. 231.
215. 231.
216. 231.
217. 231.
218. 231.
219. 233.5
220. 231.
221. 231.
222. 231.
223. 231.
224. 232.
225. 231.
226. 231.
227. 231.
228. 231.
229. 232.
230. 231.
232. 232.
233. 232.
234. 232.
235. 232.
236. 232.
237. 232.
238. 231.
239. 230.
240. 230.
241. 232.
242. 232.
243. 232.
244. 231.
245. 231.
246. 231.
247. 231.
248. 231.
249. 232.
250. 232.
251. 232.
252. 232.
253. 231.
254. 232.
255. 232.
257. 231.
258. 234.
259. 233.
260. 233.
262. 233.
263. 233.
264. 233.
265. 236.
266. 234.
267. 234.
268. 233.
269. 231.
270. 231.5
271. 232.
272. 232.
273. 231.
274. 231.
275. 233.
276. 234.5
277. 233.
278. 234.
279. 233.
280. 234.
281. 228.
282. 232.
283. 232.
284. 232.
285. 233.5
286. 232.5
287. 236.
288. 236.
289. 235.
290. 235.
291. 232.
292. 232.
293. 235.
294. 235.
295. 232.
296. 232.
297. 236.
298. 235.
299. 232.
300. 232.
301. 236.
302. 236.
303. 232.
304. 232.
305. 235.
306. 235.
307. 232.
308. 232.
309. 233.5
310. 233.5
311. 236.
313. 235.
314. 235.
315. 235.
316. 252.5
316. 235.
317. 244.
318. 246.
319. 232.
320. 232.
321. 231.
327. 234.5
328. 232.
329. 235.
330. 235.
331. 236.
332. 235.
333. 233.
334. 233.
335. 234.
336. 234.
338. 235.
339. 235.
340. 235.
341. 235.
342. 235.
343. 235.
344. 236.
345. 234.
346. 234.
347. 234.
348. 234.
349. 235.
350. 235.
351. 235.
352. 235.
353. 235.
354. 235.
355. 235.
356. 235.
357. 235.
358. 235.
359. 235.
360. 235.
361. 235.
362. 235.
363. 235.
364. 235.
365. 234.
366. 234.
367. 234.
368. 234.
369. 234.
370. 234.
371. 234.
372. 234.
374. 235.
375. 235.
376. 235.
377. 234.
378. 234.
379. 234.
380. 233.5
381. 234.
382. 234.
383. 234.
384. 234.
385. 235.
386. 234.5
387. 235.
388. 235.
389. 234.
390. 234.
391. 234.
392. 234.
393. 235.
394. 235.
395. 235.
396. 235.
397. 233.
398. 234.
399. 234.
400. 234.
401. 234.
402. 234.
403. 234.
404. 233.
405. 235.
406. 235.
407. 235.
408. 235.
409. 235.
410. 235.
411. 235.
412. 235.
413. 234.
414. 234.
415. 234.
416. 234.
417. 236.
417. 234.
418. 234.
419. 233.5
420. 236.
420. 233.5
421. 234.5
422. 234.
423. 234.
424. 234.
425. 234.
426. 234.
427. 234.
428. 234.
429. 234.
430. 234.
431. 234.
432. 234.
433. 235.
434. 235.
435. 235.
436. 235.
437. 235.
438. 235.
439. 235.
440. 236.
441. 234.5
442. 234.
443. 234.
444. 233.
445. 235.
446. 235.
447. 235.
448. 235.
449. 235.
450. 235.
451. 235.
452. 236.
453. 234.
454. 234.
455. 234.
456. 234.
457. 235.
458. 235.
459. 235.
460. 235.
461. 236.
462. 235.
463. 235.
464. 235.
465. 231.
466. 234.
467. 234.5
467. 232.
468. 232.5
469. 233.5
470. 233.
471. 233.
472. 234.
473. 232.
474. 232.
475. 232.
476. 232.
477. 231.
478. 233.
479. 232.
481. 234.
482. 234.
483. 233.
484. 233.
485. 233.5
486. 233.5
487. 233.5
488. 233.5
489. 232.
490. 232.
491. 235.
492. 235.
493. 233.5
494. 234.
495. 233.5
496. 233.
497. 232.
498. 233.
499. 235.
500. 235.
501. 233.5
502. 233.5
503. 234.
504. 233.
505. 232.
506. 232.
507. 232.
508. 232.
509. 233.
510. 233.
511. 233.
512. 233.
513. 232.
514. 232.
515. 232.
516. 232.
517. 234.
518. 233.
519. 233.
520. 232.
521. 234.
522. 234.5
523. 234.
524. 234.5
525. 233.
526. 233.
527. 233.
528. 233.
529. 234.
530. 233.
531. 233.
532. 234.
533. 232.
534. 232.
535. 234.5
536. 234.5
537. 232.
538. 232.
539. 232.
540. 232.
541. 232.
542. 232.
543. 232.
544. 232.
545. 235.
546. 232.
547. 232.
548. 232.
549. 231.
550. 232.
551. 232.
552. 232.
553. 233.
554. 233.
555. 232.5
556. 235.
557. 232.
558. 232.
559. 232.
560. 232.
561. 231.
562. 232.
563. 232.
564. 235.
564. 231.5
565. 232.
566. 232.
567. 232.
568. 232.
569. 231.
570. 231.
571. 232.
572. 232.
573. 232.
574. 232.
575. 232.
576. 232.
577. 232.
578. 232.
579. 232.
580. 231.
581. 232.
582. 232.
583. 235.
584. 235.
585. 231.
586. 231.
587. 231.
588. 232.
589. 232.
590. 232.
591. 232.
592. 232.
593. 231.
594. 232.
595. 232.
596. 232.
597. 232.
598. 232.
599. 232.
600. 235.
600. 232.
601. 232.
602. 232.
603. 232.
604. 232.
605. 231.
606. 231.
607. 231.
608. 231.
609. 231.
610. 231.
611. 231.
612. 231.
613. 231.5
614. 231.
615. 232.
616. 232.
617. 232.
618. 232.
619. 232.
620. 232.
621. 232.
622. 232.
623. 232.
624. 232.
625. 231.
626. 231.
627. 231.
628. 231.
629. 231.
630. 231.
631. 231.
632. 231.
633. 231.
634. 231.
635. 231.
636. 231.
637. 230.5
638. 231.
639. 232.
640. 232.