1. 415.
2. 423.
2. 420.5
3. 421.5
4. 421.5
5. 420.
6. 420.
7. 420.
8. 420.
9. 423.
9. 420.5
10. 419.
11. 421.5
12. 423.
12. 420.
13. 420.
14. 420.
15. 420.
16. 420.
17. 420.
18. 420.
19. 419.
20. 419.
21. 420.
22. 420.
23. 420.
24. 420.
25. 419.
26. 419.
27. 419.
28. 419.
29. 419.5
30. 420.
31. 420.
32. 420.
33. 419.
34. 420.
35. 420.
36. 417.5
37. 419.
38. 419.
39. 419.
40. 419.
41. 420.
42. 419.5
43. 419.5
44. 419.
45. 419.
46. 419.
47. 419.
48. 419.5
49. 419.
50. 419.
51. 419.
52. 419.
53. 419.
54. 419.
55. 419.
56. 419.
57. 419.
58. 419.
59. 419.
60. 419.
61. 419.
62. 419.
63. 419.
64. 419.
65. 419.
66. 419.
67. 419.
68. 419.
69. 419.
70. 419.
71. 419.
72. 419.
73. 419.
73. 414.
74. 419.
75. 419.
76. 419.
77. 419.
78. 419.
79. 419.
80. 419.
81. 418.
82. 418.5
85. 419.
86. 419.
87. 416.
88. 416.
89. 419.5
90. 419.
91. 419.
92. 420.
93. 419.
94. 419.
95. 419.
96. 419.
97. 419.
98. 419.
99. 419.
100. 419.
103. 418.
104. 419.
104. 416.
105. 420.
106. 419.
107. 419.
108. 419.
109. 416.
110. 416.
111. 417.5
112. 418.
113. 419.
114. 419.
115. 419.
116. 419.
118. 418.
119. 419.
120. 416.
121. 418.
122. 418.
123. 419.
124. 419.
125. 414.
126. 417.
127. 418.
128. 418.5
133. 419.
134. 419.
135. 419.
136. 419.
137. 419.
138. 416.
139. 416.
140. 418.5
141. 415.
142. 420.
143. 420.
145. 418.
146. 418.5
147. 417.5
149. 417.5
150. 416.
151. 416.5
152. 418.
153. 417.
154. 420.
154. 418.
155. 418.
156. 419.
156. 416.
157. 419.
158. 419.
159. 417.
160. 417.
161. 423.
163. 418.5
164. 418.
165. 419.
166. 419.
167. 416.
168. 416.
169. 417.5
170. 417.5
171. 417.5
172. 415.
173. 419.
174. 419.
175. 419.
176. 419.
177. 419.
178. 419.
179. 417.
181. 416.
182. 419.
183. 418.5
184. 416.
185. 419.
187. 419.
188. 419.
189. 417.
190. 417.5
191. 418.
192. 417.5
193. 419.
194. 419.
195. 419.
196. 419.
197. 419.
198. 419.
201. 418.
202. 417.5
205. 419.
206. 419.
207. 419.
208. 419.
209. 418.
213. 419.
214. 419.
215. 419.
216. 419.
217. 419.
218. 419.
219. 419.
221. 422.
223. 419.
224. 419.
225. 420.
226. 420.
227. 418.
228. 419.
228. 416.5
229. 419.
230. 419.
232. 420.
233. 419.
234. 419.
235. 419.
236. 419.
237. 423.
238. 419.
239. 417.
240. 417.5
242. 420.
243. 418.5
244. 416.
245. 419.
246. 419.
247. 419.
248. 419.
249. 419.
250. 419.
251. 419.
252. 419.
253. 419.
254. 419.
255. 419.
256. 419.
257. 419.
258. 419.
259. 417.5
260. 417.5
261. 419.
262. 419.
263. 419.
264. 419.
265. 419.
266. 419.
267. 419.
268. 419.
269. 420.
270. 419.
271. 419.
272. 419.
273. 419.
274. 419.
275. 419.
276. 419.
277. 416.
278. 421.
279. 420.5
280. 419.
281. 418.
282. 418.5
283. 421.5
284. 429.
357. 420.
358. 420.
359. 423.
360. 423.
361. 425.5
364. 419.
367. 424.
373. 424.
376. 424.
377. 423.
388. 424.
389. 426.5
389. 424.
397. 424.
400. 427.
401. 423.
402. 423.
403. 423.
405. 420.
408. 423.
409. 423.
410. 423.
413. 424.
414. 424.
415. 424.
416. 424.
417. 424.
418. 424.
419. 424.
420. 424.
421. 424.
422. 424.
423. 424.
424. 424.
425. 425.
426. 427.
427. 426.
428. 424.
429. 426.
430. 425.
431. 425.
432. 425.5
433. 427.
434. 427.
435. 424.
436. 424.
437. 425.5
438. 425.5
439. 426.5
439. 424.
440. 424.
441. 427.
442. 427.
443. 427.
444. 427.
445. 427.
446. 427.
447. 427.
448. 428.
449. 427.
450. 427.
451. 427.
452. 427.
453. 428.
454. 428.
455. 427.
456. 427.
457. 427.
458. 427.
459. 427.
460. 427.
461. 427.
462. 427.
463. 427.
464. 427.
465. 427.
466. 428.
467. 427.
468. 432.
469. 428.
470. 428.
471. 428.
472. 428.
473. 428.
474. 428.
475. 428.
476. 428.
477. 423.
478. 432.
478. 427.
479. 427.
481. 428.
482. 428.
483. 428.
484. 428.
485. 429.5
486. 429.5
487. 429.
488. 429.5
489. 429.
490. 430.
491. 430.
492. 429.
493. 429.
494. 429.
495. 429.
496. 429.
497. 430.
498. 430.
499. 429.
500. 429.5
501. 428.
502. 429.5
503. 430.
504. 429.5
505. 428.
506. 431.
507. 431.
508. 431.
509. 430.
510. 430.
511. 430.
512. 430.
513. 431.
514. 431.
515. 431.
516. 431.
517. 432.
518. 432.
519. 431.
520. 431.
521. 431.
522. 431.
523. 432.
524. 432.
525. 431.5
526. 432.
527. 432.
528. 432.
529. 431.
530. 431.5
531. 432.
532. 432.
533. 432.
534. 432.
535. 432.
536. 432.
537. 431.
538. 431.
539. 432.
540. 432.
541. 432.
542. 432.
543. 432.
544. 432.
545. 433.
546. 433.
547. 433.
548. 433.
549. 433.
550. 434.
551. 434.
552. 433.5
553. 433.
554. 433.
555. 433.
556. 434.
557. 434.5
557. 432.
558. 435.
558. 432.
559. 435.
560. 432.
561. 433.
562. 433.
563. 433.
564. 433.
565. 434.
566. 434.
567. 434.
568. 434.
569. 435.
570. 435.
571. 435.
572. 436.
573. 435.
574. 435.
575. 435.
576. 435.
577. 435.
578. 435.
579. 435.
580. 435.
581. 435.
582. 435.
583. 435.
584. 435.
585. 436.
586. 436.
587. 436.
588. 436.
589. 436.
590. 436.
591. 436.
592. 436.
593. 436.
594. 436.
595. 436.
596. 436.
597. 436.
598. 436.
599. 436.
600. 436.
601. 437.
602. 437.
603. 437.
604. 438.
605. 438.
606. 437.5
607. 437.
608. 437.
609. 437.5
610. 438.
611. 438.
612. 437.5
613. 437.5
614. 437.5
615. 436.5
616. 438.
617. 437.5
618. 438.
619. 438.
620. 437.5
621. 436.5
622. 438.
623. 438.
624. 437.
625. 437.
626. 439.
627. 439.
629. 439.
630. 439.
631. 439.
632. 439.
633. 439.
634. 439.
635. 439.
636. 439.
637. 440.
638. 439.
639. 440.
640. 440.