1. 296.
2. 296.
3. 295.5
4. 295.
5. 297.
6. 297.
7. 297.
8. 297.
9. 297.
10. 297.
11. 297.
12. 297.
13. 296.
14. 296.
15. 296.
16. 296.
17. 296.
18. 296.
19. 296.
20. 296.
21. 299.
22. 299.
23. 296.
24. 296.
25. 297.
26. 297.
27. 297.
28. 297.
29. 295.
30. 296.
31. 296.
32. 296.
33. 299.
34. 296.5
35. 296.
36. 296.
37. 298.
38. 298.
39. 297.
40. 297.
41. 296.
42. 294.
43. 299.
44. 299.
47. 297.
48. 295.
49. 297.5
50. 297.5
51. 297.
52. 297.
53. 297.5
54. 298.
55. 297.
56. 297.5
57. 299.
58. 298.5
61. 298.
62. 298.
63. 297.
64. 297.
65. 299.
66. 299.
67. 299.
68. 299.
69. 299.
70. 299.
71. 299.
72. 296.
73. 297.5
74. 298.
75. 299.
76. 299.
77. 298.
78. 297.5
79. 297.5
80. 297.5
81. 295.
82. 299.
83. 299.
84. 300.
84. 295.
85. 298.
86. 297.5
87. 297.5
88. 298.
89. 299.
90. 299.
91. 299.
92. 299.
93. 299.
94. 299.
95. 299.
96. 299.
97. 300.
99. 299.
100. 298.
101. 296.5
102. 299.
103. 299.
104. 299.
105. 297.
106. 299.
107. 299.
108. 299.
109. 299.
109. 295.
110. 299.
111. 299.
112. 299.
113. 297.
114. 303.
115. 300.
116. 300.
117. 299.
118. 299.
119. 299.
120. 299.
123. 298.
124. 298.
125. 298.
126. 298.
127. 298.
128. 296.
129. 299.
130. 299.
133. 300.
134. 300.
135. 299.
136. 299.
137. 298.5
141. 299.
142. 300.
143. 300.
144. 300.
145. 300.
146. 300.
147. 300.
148. 300.
149. 300.
150. 301.
151. 302.
151. 299.
152. 300.
153. 300.
154. 303.
156. 299.
161. 299.
162. 299.
163. 301.
164. 301.5
165. 303.
166. 303.
167. 303.
168. 303.
169. 300.
170. 300.
171. 299.
172. 299.
173. 300.
174. 300.
175. 300.
176. 300.
178. 303.
179. 302.
180. 303.
180. 300.
181. 303.
182. 303.
183. 303.
184. 304.
189. 303.
190. 303.
191. 303.
192. 303.
193. 304.
194. 304.
195. 304.
196. 304.
197. 308.
197. 306.
198. 304.
199. 303.
200. 304.
203. 305.
204. 306.
205. 305.
206. 303.
207. 303.
208. 307.
209. 306.
210. 306.
213. 309.
214. 309.
215. 309.
216. 309.
217. 309.
218. 310.
219. 311.
220. 312.
220. 308.
221. 311.
222. 312.
223. 312.
224. 315.
225. 311.
226. 311.
227. 312.
228. 312.
229. 319.
230. 314.
231. 314.
232. 314.
233. 315.
234. 316.
235. 317.
236. 318.
237. 319.
238. 319.
239. 320.
240. 324.
241. 322.
242. 322.
243. 322.
244. 322.
245. 319.
247. 328.
248. 324.
249. 326.
250. 326.
251. 324.
252. 327.
252. 324.
253. 329.
254. 329.
255. 330.
256. 330.5
257. 328.
258. 331.
259. 332.
260. 332.
261. 333.5
262. 333.5
263. 335.
263. 332.
265. 337.5
266. 337.5
269. 341.
270. 341.5
273. 345.
274. 343.
275. 343.
276. 340.
277. 343.
278. 343.
279. 344.
280. 345.
281. 351.
282. 348.
283. 348.
284. 347.
285. 348.
286. 354.5
287. 352.
289. 350.
290. 354.
291. 351.5
350. 348.
351. 348.
352. 351.
353. 354.
354. 356.
355. 356.
356. 356.5
357. 350.5
357. 348.
358. 349.
359. 348.
360. 344.
361. 348.
362. 348.
363. 348.
364. 347.
365. 347.
366. 347.
367. 344.
368. 344.
369. 345.
370. 346.
371. 344.
372. 343.
373. 343.
374. 343.
375. 341.
376. 341.
378. 340.
379. 340.
380. 339.
381. 336.
382. 336.
383. 336.
384. 336.
385. 335.
386. 335.
387. 333.5
388. 334.
389. 333.
390. 333.
391. 332.
392. 332.
393. 331.
394. 331.
395. 328.
396. 328.
397. 328.
398. 328.
399. 328.
400. 327.5
401. 326.
402. 326.
403. 325.
404. 325.
405. 324.
406. 323.5
407. 323.
408. 323.
409. 323.
410. 323.
411. 320.
412. 320.
413. 316.
414. 316.
415. 319.
416. 319.
417. 319.
418. 319.
419. 316.
420. 316.
421. 316.
422. 316.
423. 315.5
424. 316.
425. 315.
426. 315.
427. 315.
428. 315.
429. 314.
430. 314.
431. 313.
432. 313.
433. 312.
434. 312.
435. 312.
436. 312.
437. 311.
438. 311.5
439. 312.
440. 312.
441. 311.
442. 311.
443. 311.
444. 311.
445. 311.
446. 311.
447. 311.
448. 311.
449. 310.
450. 310.
451. 310.
452. 310.
453. 309.
454. 309.
455. 309.
456. 309.
457. 309.
458. 309.
459. 310.
460. 310.
461. 309.
463. 309.
464. 309.
465. 308.
466. 308.
467. 308.
468. 308.
469. 308.
470. 308.
471. 307.
472. 307.
473. 308.
474. 308.
475. 308.
476. 308.
477. 307.5
478. 307.5
479. 307.5
480. 307.5
481. 308.
482. 308.
483. 308.
484. 308.
485. 308.
486. 307.5
487. 307.5
488. 307.
489. 308.
490. 308.
491. 308.
492. 308.
493. 308.
494. 307.5
495. 307.5
496. 307.5
497. 307.
498. 307.
499. 307.
500. 307.
501. 307.
502. 307.
503. 307.
504. 307.
505. 307.
506. 307.
507. 307.
508. 307.
509. 307.
510. 307.
511. 307.
512. 307.
513. 307.
514. 307.
515. 307.
516. 307.
517. 307.
518. 307.
519. 307.
520. 307.
521. 308.
522. 308.
523. 308.
524. 307.5
525. 307.
526. 307.
527. 307.
528. 307.
529. 307.
530. 307.
531. 307.
532. 307.
533. 307.
534. 307.
535. 307.
536. 307.
537. 307.
538. 307.
539. 307.
540. 307.
541. 307.
542. 307.
543. 307.
544. 307.
545. 307.
546. 307.
547. 307.
548. 307.
549. 307.
550. 307.
551. 308.
552. 308.
553. 307.
554. 307.
555. 307.
556. 307.
557. 307.
558. 307.
559. 307.
560. 307.
561. 307.
562. 307.
563. 307.
564. 307.
565. 307.
566. 307.
567. 307.
568. 307.
569. 307.
570. 307.
571. 307.
572. 308.
573. 307.
574. 307.
575. 307.
576. 307.5
577. 307.
578. 307.
579. 307.
580. 307.
581. 307.
582. 307.
583. 307.
584. 307.
585. 307.
586. 307.
587. 307.
588. 307.
589. 307.
590. 307.
591. 307.
592. 307.
593. 308.
594. 307.5
595. 307.
596. 308.
597. 308.
598. 308.
599. 307.5
600. 307.
601. 307.
602. 307.
603. 307.
604. 307.
605. 307.
606. 307.
607. 307.
608. 307.
609. 308.
610. 308.
611. 307.
612. 307.
613. 308.
614. 308.
615. 308.
616. 308.
617. 308.
618. 308.
619. 308.
620. 308.
621. 308.
622. 307.
623. 307.
624. 307.
625. 307.
626. 307.
627. 307.
628. 308.
629. 307.5
630. 308.
631. 308.
632. 307.5
633. 308.
634. 308.
635. 308.
636. 308.
637. 307.
638. 307.
639. 307.
640. 307.