#Magnetic Field (Oe),Voltage (V) 
-50.00, 0.260189 
-49.00, 0.260202 
-48.00, 0.260212 
-47.00, 0.260227 
-46.00, 0.260238 
-45.00, 0.260251 
-44.00, 0.260261 
-43.00, 0.260276 
-42.00, 0.260286 
-41.00, 0.260300 
-40.00, 0.260310 
-39.00, 0.260324 
-38.00, 0.260335 
-37.00, 0.260348 
-36.00, 0.260358 
-35.00, 0.260368 
-34.00, 0.260382 
-33.00, 0.260393 
-32.00, 0.260406 
-31.00, 0.260416 
-30.00, 0.260429 
-29.00, 0.260439 
-28.00, 0.260452 
-27.00, 0.260462 
-26.00, 0.260475 
-25.00, 0.260484 
-24.00, 0.260497 
-23.00, 0.260507 
-22.00, 0.260520 
-21.00, 0.260528 
-20.00, 0.260541 
-19.00, 0.260547 
-18.00, 0.260552 
-17.00, 0.260563 
-16.00, 0.260571 
-15.00, 0.260583 
-14.00, 0.260591 
-13.00, 0.260613 
-12.00, 0.260621 
-11.00, 0.260632 
-10.00, 0.260639 
-9.00, 0.260649 
-8.00, 0.260653 
-7.00, 0.260656 
-6.00, 0.260659 
-5.00, 0.260666 
-4.00, 0.260671 
-3.00, 0.260675 
-2.00, 0.260682 
-1.00, 0.260685 
-6.22E-15, 0.260684 
1.00, 0.260692 
2.00, 0.260701 
3.00, 0.260693 
4.00, 0.260673 
5.00, 0.260673 
6.00, 0.260687 
7.00, 0.260671 
8.00, 0.260666 
9.00, 0.260673 
10.00, 0.260754 
11.00, 0.260812 
12.00, 0.260927 
13.00, 0.261022 
14.00, 0.261014 
15.00, 0.261173 
16.00, 0.261227 
17.00, 0.261300 
18.00, 0.261324 
19.00, 0.261518 
20.00, 0.261654 
21.00, 0.261842 
22.00, 0.261893 
23.00, 0.262093 
24.00, 0.262156 
25.00, 0.262369 
26.00, 0.262501 
27.00, 0.262563 
28.00, 0.262690 
29.00, 0.262739 
30.00, 0.263267 
31.00, 0.263358 
32.00, 0.263471 
33.00, 0.263677 
34.00, 0.263798 
35.00, 0.263804 
36.00, 0.263887 
37.00, 0.263888 
38.00, 0.263879 
39.00, 0.263879 
40.00, 0.263877 
41.00, 0.263956 
42.00, 0.263941 
43.00, 0.263933 
44.00, 0.263931 
45.00, 0.263916 
46.00, 0.263896 
47.00, 0.263909 
48.00, 0.263896 
49.00, 0.263878 
50.00, 0.263860 
51.00, 0.263842 
51.00, 0.263841 
50.00, 0.263859 
49.00, 0.263873 
48.00, 0.263891 
47.00, 0.263905 
46.00, 0.263922 
45.00, 0.263936 
44.00, 0.263951 
43.00, 0.263964 
42.00, 0.263974 
41.00, 0.263991 
40.00, 0.264003 
39.00, 0.264021 
38.00, 0.264032 
37.00, 0.264048 
36.00, 0.264059 
35.00, 0.264076 
34.00, 0.264087 
33.00, 0.264092 
32.00, 0.264104 
31.00, 0.264115 
30.00, 0.264125 
29.00, 0.264136 
28.00, 0.264146 
27.00, 0.264178 
26.00, 0.264186 
25.00, 0.264186 
24.00, 0.264190 
23.00, 0.264198 
22.00, 0.264203 
21.00, 0.264249 
20.00, 0.264404 
19.00, 0.264411 
18.00, 0.264416 
17.00, 0.264400 
16.00, 0.264407 
15.00, 0.264409 
14.00, 0.264409 
13.00, 0.264403 
12.00, 0.264401 
11.00, 0.264397 
10.00, 0.264391 
9.00, 0.264362 
8.00, 0.264352 
7.00, 0.264280 
6.00, 0.264133 
5.00, 0.264031 
4.00, 0.263960 
3.00, 0.263885 
2.00, 0.263882 
1.00, 0.263668 
-6.22E-15, 0.263615 
-1.00, 0.263469 
-2.00, 0.263386 
-3.00, 0.263330 
-4.00, 0.263058 
-5.00, 0.263050 
-6.00, 0.263040 
-7.00, 0.263026 
-8.00, 0.262944 
-9.00, 0.262874 
-10.00, 0.262678 
-11.00, 0.262693 
-12.00, 0.262497 
-13.00, 0.261350 
-14.00, 0.260462 
-15.00, 0.260481 
-16.00, 0.260482 
-17.00, 0.260407 
-18.00, 0.260410 
-19.00, 0.260505 
-20.00, 0.260493 
-21.00, 0.260480 
-22.00, 0.260471 
-23.00, 0.260462 
-24.00, 0.260452 
-25.00, 0.260439 
-26.00, 0.260453 
-27.00, 0.260439 
-28.00, 0.260432 
-29.00, 0.260425 
-30.00, 0.260459 
-31.00, 0.260443 
-32.00, 0.260432 
-33.00, 0.260420 
-34.00, 0.260409 
-35.00, 0.260394 
-36.00, 0.260379 
-37.00, 0.260367 
-38.00, 0.260353 
-39.00, 0.260342 
-40.00, 0.260326 
-41.00, 0.260315 
-42.00, 0.260299 
-43.00, 0.260287 
-44.00, 0.260273 
-45.00, 0.260262 
-46.00, 0.260246 
-47.00, 0.260234 
-48.00, 0.260219 
-49.00, 0.260206 
-50.00, 0.260191 
