0.0625  0.9562753801114364  0.05
0.125  0.9314855038247237  0.05
0.1875  0.9052475839707873  0.05
0.25  0.7324896905593855  0.05
0.3125  0.6428683854314226  0.05
0.375  0.5184782950860957  0.05
0.4375  0.4325085780841754  0.05
0.5  0.3234488620266314  0.05
0.5625  0.2883967639374193  0.05
0.625  0.23192306481568925  0.05
0.6875  0.18767903799540403  0.05
0.75  0.030125602039852678  0.05
0.8125  0.03237636541064627  0.05
0.875  0.07959517738533699  0.05
0.9375  0.15512953694085058  0.05
1.  0.3022633550539868  0.05
1.0625  0.30328642931343847  0.05
1.125  0.35193754525136145  0.05
1.1875  0.4223093146976422  0.05
1.25  0.6234299745018416  0.05
1.3125  0.7012623162401234  0.05
1.375  0.8043409827808732  0.05
1.4375  0.8757515660905971  0.05
1.5  0.9553939622879088  0.05
1.5625  0.9717474108351434  0.05
1.625  0.9865898573991878  0.05
1.6875  0.9914219158245978  0.05
1.75  0.9285421978783014  0.05
1.8125  0.8944816948405578  0.05
1.875  0.8396763937419335  0.05
1.9375  0.7954166273176567  0.05
2.  0.5711272704378758  0.05
2.0625  0.49765479900525705  0.05
2.125  0.4028709037680612  0.05
2.1875  0.34087260364529226  0.05
2.25  0.284839613435326  0.05
2.3125  0.217757421223282  0.05
2.375  0.11995152201970598  0.05
2.4375  0.04758082286649668  0.05
2.5  0.033005949570308814  0.05
2.5625  0.09212390216262159  0.05
2.625  0.17916391223596814  0.05
2.6875  0.24465640444486417  0.05
2.75  0.31523278874303523  0.05
2.8125  0.35185884723140365  0.05
2.875  0.45344225139295496  0.05
2.9375  0.5652721377530141  0.05
3.  0.7655585985456606  0.05
3.0625  0.8231655491547832  0.05
3.125  0.8899172096830044  0.05
3.1875  0.9422513929549533  0.05
3.25  0.9688670633046873  0.05
3.3125  0.9723612553908144  0.05
3.375  0.9690087197406113  0.05
3.4375  0.9607926464570151  0.05
3.5  0.8664179809236  0.05
3.5625  0.8211036610318885  0.05
3.625  0.7490792331664935  0.05
3.6875  0.700050366732773  0.05
3.75  0.4522932603015708  0.05
3.8125  0.40021091069348697  0.05
3.875  0.33881071552239744  0.05
3.9375  0.2996033619794126  0.05
4.  0.1541694210973652  0.05
4.0625  0.09124248433909403  0.05
4.125  0.03741303868794661  0.05
4.1875  0.03464286838543142  0.05
4.25  0.1364938458148393  0.05
4.3125  0.20647212516133093  0.05
4.375  0.28203796392482766  0.05
4.4375  0.3203796392482765  0.05
4.5  0.40682154436994367  0.05
4.5625  0.5160543960713948  0.05
4.625  0.6640381528000755  0.05
4.6875  0.77531715302043  0.05
4.75  0.883149179966632  0.05
4.8125  0.9156357226052193  0.05
4.875  0.9545912424843391  0.05
4.9375  0.9778858563918532  0.05
5.  0.9794755563950011  0.05
5.0625  0.9738565177700129  0.05
5.125  0.9575188088267699  0.05
5.1875  0.9408663078036956  0.05
5.25  0.8059621619920043  0.05
5.3125  0.7251392954953253  0.05
5.375  0.6094846853653162  0.05
5.4375  0.5267258475776749  0.05
5.5  0.33687474423143515  0.05
5.5625  0.30837032140271353  0.05
5.625  0.26486605597003177  0.05
5.6875  0.2291843737211572  0.05
5.75  0.04449586048415022  0.05
5.8125  0.022051185192180564  0.05
5.875  0.040261907010419616  0.05
5.9375  0.11099568734850632  0.05
6.  0.2609783737841156  0.05
6.0625  0.29075770453615385  0.05
6.125  0.3391412472062203  0.05
6.1875  0.37930871659269055  0.05
6.25  0.5771083199546699  0.05
6.3125  0.6659898636950294  0.05
6.375  0.778779865898574  0.05
6.4375  0.8613813076462996  0.05
6.5  0.9361601662102181  0.05
6.5625  0.9584946642742469  0.05
6.625  0.9844964900683099  0.05
6.6875  1.  0.05
6.75  0.9589668523939938  0.05
6.8125  0.9363962602700916  0.05
6.875  0.8986054710863475  0.05
6.9375  0.868401171026537  0.05
7.  0.670082160732836  0.05
7.0625  0.5694431328107785  0.05
7.125  0.44922403752321594  0.05
7.1875  0.37499606509900213  0.05
7.25  0.31107753328926246  0.05
7.3125  0.2536594579280385  0.05
7.375  0.16887021122548557  0.05
7.4375  0.10394434476028583  0.05
7.5  0.019044920829791923  0.05
7.5625  0.05913369219630434  0.05
7.625  0.13529763591148047  0.05
7.6875  0.20932099348380395  0.05
7.75  0.3150124342871533  0.05
7.8125  0.3306261214467844  0.05
7.875  0.3972046463310983  0.05
7.9375  0.487376837598766  0.05
8.  0.712563351906066  0.05
8.0625  0.7740894639090881  0.05
8.125  0.8561557591211005  0.05
8.1875  0.9097018919003997  0.05
8.25  0.971290962319388  0.05
8.3125  0.9816948405578115  0.05
8.375  0.9836937702647401  0.05
8.4375  0.9764378128246294  0.05
8.5  0.9010608493090314  0.05
8.5625  0.8534485472345515  0.05
8.625  0.7829351213523468  0.05
8.6875  0.7311675638240942  0.05
8.75  0.5004564485157553  0.05
8.8125  0.42942361570182896  0.05
8.875  0.3559511442692102  0.05
8.9375  0.3111090124972456  0.05
9.  0.2221330311329367  0.05
9.0625  0.15133629237888374  0.05
9.125  0.05954292190008499  0.05
9.1875  0.  0.05
9.25  0.0735826486605597  0.05
9.3125  0.14417477256272232  0.05
9.375  0.22937324896905595  0.05
9.4375  0.2795825857021437  0.05
9.5  0.3533541096106022  0.05
9.5625  0.4167689740926118  0.05
9.625  0.537900966411685  0.05
9.6875  0.6593477508105896  0.05
9.75  0.8254792709415432  0.05
9.8125  0.8639783423049076  0.05
9.875  0.9096861522964083  0.05
9.9375  0.94020524443605  0.05
10.  0.9616425850725596  0.05
10.0625  0.9614064910126862  0.05
10.125  0.9522932603015708  0.05
10.1875  0.9400006295841596  0.05
10.25  0.8270217521327163  0.05
10.3125  0.7617023955677276  0.05
10.375  0.661787389429282  0.05
10.4375  0.58727610413322  0.05
10.5  0.3582806056599616  0.05
10.5625  0.33242043630182266  0.05
10.625  0.2999968520792017  0.05
10.6875  0.2798344193660087  0.05