-319. -0.06194734306669488 0.5 0.19635908363069826
-318. -0.04810720287323138 0.5 0.19635529596435072
-317. -0.034328735056906534 0.5 0.19635247142218915
-316. -0.020611939617764998 0.5 0.19635059736690408
-315. -0.20330635740514652 0.5 0.1964523018785915
-314. -0.18971290672030464 0.5 0.19643902270163716
-313. -0.17618112841264605 0.5 0.19642671530798891
-312. -0.16271102248217076 0.5 0.19641536743255764
-311. -0.05112781850417544 0.5 0.19635604136031512
-310. -0.1359558277527255 0.5 0.19639550137517808
-309. -0.3190202798030729 0.5 0.19660246896717082
-308. -0.3057968633812639 0.5 0.19658194788035055
-306. -0.27953504766915116 0.5 0.19654376263840911
-305. -0.2664966483788251 0.5 0.19652607489398674
-304. -0.05717038061632026 0.5 0.19635766865549595
-303. -0.24060486692970057 0.5 0.19649345047715375
-302. -0.22775148477087978 0.5 0.19647849045157503
-301. -0.018610234139880222 0.5 0.19635040212642094
-300. -0.005880196735403728 0.5 0.19634962683457594
-299. -0.1895613725574726 0.5 0.1964388798430382
-298. -0.17695467990729577 0.5 0.19642739435482492
-297. -0.16440965963432455 0.5 0.1964167487760263
-296. -0.15192631173853663 0.5 0.19640693170266516
-295. -0.13950463621988737 0.5 0.19639793177463896
-294. -0.12714463307842144 0.5 0.19638973767620693
-293. -0.11484630231409415 0.5 0.19638233813646772
-292. -0.10260964392695017 0.5 0.19637572192982813
-291. -0.09043465791698951 0.5 0.19636987787646248
-290. 0.019853426140491213 0.5 0.19635052103876446
-289. -0.06626970302855112 0.5 0.19636046174178298
-288. -0.054279734150051086 0.5 0.19635686753366594
-287. -0.4350505193474808 0.5 0.19681965134361312
-286. -0.4231838952233474 0.5 0.19679438382587075
-285. -0.2150294026270129 0.5 0.19646449078896758
-284. -0.20328612325722376 0.5 0.19645228143029134
-283. 0.004745024584788788 0.5 0.19634959684020806
-282. 0.016364959200255953 0.5 0.19635020684176466
-281. 0.027923221438562133 0.5 0.19635147981027418
-280. 0.039419811299685005 0.5 0.1963534050971424
-279. 0.05085472878364689 0.5 0.19635597210436928
-278. 0.06222797389047012 0.5 0.19635917028489555
-277. 0.07353954662008771 0.5 0.19636298914294134
-276. 0.08478944697254433 0.5 0.19636741823433665
-275. -0.2967214067508842 0.5 0.19656836536753144
-274. -0.2855948511527495 0.5 0.19655227026083885
-273. -0.07818042708241381 0.5 0.19636474000373536
-272. -0.06717721623860114 0.5 0.19636076288783752
-271. -0.6452843003200803 0.5 0.1973823062904082
-270. -0.43805489338124987 0.5 0.1968261588573028
-269. 0.16181192287912144 0.5 0.1964146420809119
-268. 0.17256844421426784 0.5 0.19642358334486984
-267. -0.16034840331415265 0.5 0.1964134699717178
-266. -0.002453071096351309 0.5 0.1963495558138001
-265. -0.38458064859145663 0.5 0.19671699979272167
-264. 0.21497780578308742 0.5 0.1964644356466627
-263. 0.02907642438304451 0.5 0.19635164327106208
-262. -0.05871185896952298 0.5 0.19635811285288315
-261. -0.048387044274570426 0.5 0.1963553631135353
-260. -0.03812390195677886 0.5 0.19635315520471155
-259. -0.32244674329019135 0.5 0.1966079277459446
-258. -0.3123069457267218 0.5 0.19659194243105446
-257. -0.3022288205404355 0.5 0.1965765591760692
-256. -0.29221236773133247 0.5 0.19656176885846877
-255. 0.30679103524871804 0.5 0.196583460586685
-254. 0.3166841433034991 0.5 0.19659878056217062
-253. -0.45888258441630686 0.5 0.1968724970838866
-252. -0.3509380506911891 0.5 0.1966555699768265
-251. 0.5423429740542383 0.5 0.1970796394432204
-250. 0.355639851750991 0.5 0.19666381855298823
-249. -0.22382402462816375 0.5 0.1964740828526034
-248. -0.21430095083634865 0.5 0.19646371350582484
-247. -0.20483954942173918 0.5 0.1964538572109275
-246. -0.19543982038429067 0.5 0.19644450534296615
-245. 0.4029468588240607 0.5 0.19675289808706203
-244. 0.4122232431071873 0.5 0.19677166337245447
-243. 0.4214379550131528 0.5 0.19679072490460414
-242. -0.15845762800615115 0.5 0.19641197143673006
-241. -0.1493662608545522 0.5 0.19640501412757325
-240. -0.14033656608011427 0.5 0.19639851057776542
-239. 0.06498099716652476 0.5 0.19636004113923322
-238. 0.27023688803602514 0.5 0.19653106261919837
-237. 0.18090679525427678 0.5 0.19643091002937238
-236. -0.3011840516033567 0.5 0.1965749932369603
-235. -0.8815113412628323 0.5 0.19827251962934345
-234. -0.08745351735393422 0.5 0.19636855923669233
-233. -0.07885552921964548 0.5 0.19636500362159875
-232. -0.07031921346254005 0.5 0.1963618371526909
-231. 0.13450497076676646 0.5 0.19639452578252325
-230. 0.1429179417695276 0.5 0.19640032842713426
-229. -0.04508030045423432 0.5 0.19635459453440846
-228. 0.2577336370682703 0.5 0.19651466089161282
-227. 0.16778682051486743 0.5 0.19641953769067147
-226. 0.1759531020089623 0.5 0.19642651570681274
-225. -0.20864137057282794 0.5 0.19645776429112077
-224. -0.20059843383305503 0.5 0.1964495833660659
-223. 0.0037323713789189617 0.5 0.1963495754919095
-222. 0.011651963364369902 0.5 0.1963498784770115
-221. 0.019509882972637536 0.5 0.19635048740999753
-220. 0.6163547527518081 0.5 0.19729199585021118
-219. 0.6240893276057538 0.5 0.19731573953328513
-218. 0.5335874596578574 0.5 0.19705629842134215
-217. 0.05032483763405358 0.5 0.19635583878122106
-216. 0.057874395356471646 0.5 0.19635787006066513
-215. 0.654410903249815 0.5 0.1974116476492397
-214. 0.6618371162179111 0.5 0.19743582316862987
-213. 0.08015303426078225 0.5 0.19636551664238083
-212. 0.18563067289923743 0.5 0.19643521403149705
-211. 0.48739618000987134 0.5 0.19693940573658822
-210. 0.39640093304462015 0.5 0.19673991224555018
-209. 0.30534401370218567 0.5 0.19658126045970645
-208. 0.5087497332566779 0.5 0.19699213751225364
-207. 0.41756946915992144 0.5 0.19678267147020123
-206. -0.06637154901274249 0.5 0.1963604953339861
-205. 0.2350239238349032 0.5 0.19648685410745206
-204. 0.43818295388068457 0.5 0.19682643722838794
-203. 0.1504064594259221 0.5 0.19640578934759642
-202. 0.1570926038680194 0.5 0.1964109006274862
-201. 0.7527656984810196 0.5 0.1977536785598493
-200. 0.7593284981687727 0.5 0.19777817971548575
-199. 0.7658296254793647 0.5 0.19780265728775479
-198. 0.772269080412818 0.5 0.19782710534775702
-197. 0.9749964038184279 0.5 0.19869947174095132
-196. 0.9813125139975146 0.5 0.19872983352505494
-195. 0.7912174109500784 0.5 0.19790021405347225
-194. 0.7974101763748208 0.5 0.19792448595948833
-193. 0.8035412694224247 0.5 0.1979486995963775
-192. 0.8096106900928451 0.5 0.19797284938995097
-191. 0.8156184383861047 0.5 0.19799692982496012
-190. 0.8215645143021809 0.5 0.19802093544504154
-189. 0.8274489178410961 0.5 0.19804486085266193
-188. 1.0296211898522347 0.5 0.1989683779615803
-187. 0.839032707787466 0.5 0.19809244973419343
-186. 0.8447320941948759 0.5 0.1981161027066704
-185. 0.8503698082251249 0.5 0.19813965446369994
-184. 1.0522953907275525 0.5 0.19908419032560434
-183. 1.254159300852864 0.5 0.20022285717525615
-182. 1.6523110794503317 0.5 0.2030253349425796
-181. 1.6577021039719146 0.5 0.20306824656638284
-180. 1.0739828335682278 0.5 0.19919725798569665
-179. 1.6682991358835746 0.5 0.20315297790768672
-178. 1.6735051432736745 0.5 0.20319478865762783
-177. 1.0896008557384824 0.5 0.19928007053610375
-176. 1.0946835183742378 0.5 0.19930727104342918
-175. 1.688753131180896 0.5 0.20331794860520797
-174. 1.6937124490623074 0.5 0.2033582301986267
-173. 1.1095614720184714 0.5 0.19938759821223825
-172. 1.1143974451455605 0.5 0.19941393445785405
-171. 1.1191717458954664 0.5 0.19944004376209973
-170. 1.1238843742682114 0.5 0.1994659218894219
-169. 1.7175839528118593 0.5 0.2035536636459912
-168. 1.7221732364302822 0.5 0.20359152737810718
-167. 1.7267008476715218 0.5 0.20362897436486224
-166. 1.7311667865356004 0.5 0.20366600081949388
-165. 1.9319205938718578 0.5 0.20542147694155835
-164. 1.9362631879815921 0.5 0.20546140133600557
-163. 1.940544109714188 0.5 0.20550083885859396
-162. 1.9447633590696003 0.5 0.20553978602640982
-161. 1.9489209360478295 0.5 0.20557823940989012
-160. 1.9530168406488975 0.5 0.20561619563268985
-159. 1.7607015320234425 0.5 0.20391310450458638
-158. 1.7646740918701886 0.5 0.20394663693636056
-157. 1.964934520189136 0.5 0.20572704836907732
-156. 1.9687837352815154 0.5 0.20576298324550105
-155. 1.7762217371473943 0.5 0.20404450835663362
-154. 1.7799476074854517 0.5 0.20407621290484734
-153. 1.9799613462957326 0.5 0.20586769619610654
-152. 2.229000797941171 0.5 0.20833899978080864
-151. 2.576153347634129 0.5 0.21221254379749532
-150. 2.57963252846352 0.5 0.21225381324392373
-149. 2.5830500369157505 0.5 0.2122943975428783
-148. 2.5864058729908423 0.5 0.212334294179177
-147. 2.589700036688728 0.5 0.21237350068533223
-146. 2.5929325280094533 0.5 0.21241201464142795
-145. 2.5961033469530173 0.5 0.2124498336749956
-144. 2.7955620343687824 0.5 0.21490728536076745
-143. 3.093133819832068 0.5 0.21885241895168145
-142. 2.9979448512194455 0.5 0.21755497449843403
-141. 3.000868980654343 0.5 0.21759434071847072
-140. 3.1019062081367386 0.5 0.21897363507920192
-139. 3.3992313040913356 0.5 0.22324224655636118
-138. 3.40197041639475 0.5 0.22328298923041678
-137. 3.404647856320982 0.5 0.22332283908927678
-136. 3.603613164719392 0.5 0.2263510768809643
-135. 3.409817719041917 0.5 0.22339985364988643
-134. 3.4123101418366435 0.5 0.22343701509658626
-133. 3.414740892254209 0.5 0.22347327721779056
-132. 3.417109970294613 0.5 0.22350863848624047
-131. 3.615766916807196 0.5 0.22654027477417915
-130. 3.6180126500932337 0.5 0.22657528658011108
-129. 4.209245333550219 0.5 0.23633795461452786
-128. 4.211367722081957 0.5 0.23637487542746752
-127. 3.6243798156884255 0.5 0.2266746417567563
-126. 3.6263788594657966 0.5 0.2267058624798923
-125. 4.217364853414116 0.5 0.23647927018187462
-124. 4.2192405524371654 0.5 0.23651194234285247
-123. 4.221054579083054 0.5 0.23654354977754677
-122. 4.222806933351781 0.5 0.2365740915272727
-121. 4.224497615243325 0.5 0.2366035666665447
-120. 4.2261266247577085 0.5 0.23663197430301425
-119. 4.620393043593633 0.5 0.2437228540205448
-118. 4.720073478778397 0.5 0.24558108554918523
-117. 4.819692241585956 0.5 0.24746340265240424
-116. 4.624725020742311 0.5 0.24380307739786497
-115. 5.018744750069569 0.5 0.2512978352914646
-114. 5.020003725320941 0.5 0.2513223912475299
-113. 5.0212010281951756 0.5 0.2513457477888746
-112. 5.218686199541588 0.5 0.2552440300891208
-111. 5.121585387236775 0.5 0.25331600525562276
-110. 5.220772443404184 0.5 0.25528569035755594
-109. 5.221723056769707 0.5 0.25530467645211313
-108. 5.222611997758092 0.5 0.25532243264699156
-107. 5.812487888917401 0.5 0.2674814411333072
-106. 5.813253485151441 0.5 0.2674976885249556
-105. 5.81395740900832 0.5 0.26751262813015336
-104. 5.814599660488039 0.5 0.26752625969258154
-103. 6.011529780439935 0.5 0.271743696571676
-102. 6.012048687165332 0.5 0.2717549070631372
-101. 6.012505921513522 0.5 0.2717647855995787
-100. 6.0129014834845735 0.5 0.2717733320222659
-99. 6.209584913927805 0.5 0.2760586200903863
-98. 6.308031901569171 0.5 0.2782297627053055
-97. 6.30824244640874 0.5 0.2782344243433549
-96. 6.406566089295784 0.5 0.28041979318694304
-95. 6.6030028302303485 0.5 0.2848349028048478
-94. 6.60302835793839 0.5 0.28483548071529374
-93. 6.602992213269248 0.5 0.28483466245249284
-92. 6.602894396222967 0.5 0.2848324480273414
-91. 6.9954339884982275 0.5 0.29384060153947367
-90. 6.995212826697602 0.5 0.29383545980135206
-89. 7.191279533369157 0.5 0.29842182375616666
-88. 7.190935026814187 0.5 0.2984137165984862
-87. 7.386878388731441 0.5 0.3030515212718469
-86. 7.386410537422128 0.5 0.3030403848262516
-85. 7.385881013735653 0.5 0.3030277807264707
-84. 7.385289817672017 0.5 0.30301370910510345
-83. 7.384636949231221 0.5 0.3029981701102252
-82. 7.580271949262626 0.5 0.3076799213676892
-81. 7.579495736067485 0.5 0.3076612464954585
-80. 7.578657850495183 0.5 0.3076410887250011
-79. 8.166806915093806 0.5 0.3220041500496548
-78. 8.165845684767161 0.5 0.32198034282212845
-77. 8.164822782063377 0.5 0.3219550092714494
-76. 9.538184992927942 0.5 0.3569283434351174
-75. 8.35894150037362 0.5 0.32678344889499056
-74. 8.946782203086393 0.5 0.34164601762811925
-73. 8.94551261087392 0.5 0.34161355044454245
-72. 8.944181346284308 0.5 0.3415795077529901
-71. 8.550089327618766 0.5 0.3315777345619635
-70. 8.74498425912415 0.5 0.3365048512847482
-69. 8.743467977403009 0.5 0.3364663713058932
-68. 8.840064793729368 0.5 0.33892229699458953
-67. 9.13294947852795 0.5 0.3464231062397798
-66. 9.131248179675305 0.5 0.34637930646679654
-65. 9.325834749294861 0.5 0.35140567526563854
-64. 9.324010105687872 0.5 0.3513583880468848
-63. 9.714822871402445 0.5 0.36155075206049464
-62. 9.712874883041158 0.5 0.36149963814217445
-61. 9.710865222302685 0.5 0.36144690915105204
-60. 9.70879388918703 0.5 0.36139256538492986
-59. 8.921262720296765 0.5 0.34099370258703876
-58. 9.409941894550194 0.5 0.35358850120823754
-57. 9.505860314727736 0.5 0.35608521123959636
-52. 9.690003018683857 0.5 0.3608997221929722
-51. 9.68737663417371 0.5 0.36083086040552087
-50. 9.684688577286376 0.5 0.36076038733986854
-49. 9.681938848021883 0.5 0.3606883033980947
-48. 9.67912744638023 0.5 0.3606146089919087
-43. 9.664145352514478 0.5 0.36022199508233566
-42. 9.660963916609834 0.5 0.3601386470784912
-41. 9.068672185779922 0.5 0.3447701238482473
-40. 7.592745848750698 0.5 0.3079801369788546
13. 8.01656269507083 0.5 0.3182957778476849
16. 8.585521033409345 0.5 0.3324706122754729
21. 7.9617551563020035 0.5 0.31694951474290145
25. 8.521919872413669 0.5 0.330868789957833
33. 8.264842244587445 0.5 0.32443766695399207
34. 8.060624167168715 0.5 0.319380625514151
35. 8.44539303992091 0.5 0.32894700787118325
36. 8.43740115859722 0.5 0.32874666692026955
37. 9.214745768293795 0.5 0.3485320179800865
38. 9.206630542215782 0.5 0.3483225196292609
45. 9.148097133108877 0.5 0.34681319657913506
46. 9.13948852801351 0.5 0.3465914778209264
47. 8.541769627992895 0.5 0.33136826600755664
48. 8.533037678143206 0.5 0.33114849509204713
53. 9.077501465785277 0.5 0.3449969577335453
54. 9.068399481672577 0.5 0.34476311892013045
55. 9.059235825182693 0.5 0.344527772574048
56. 9.05001049631565 0.5 0.34429092041279896
57. 9.040723495071445 0.5 0.34405256417121405
58. 9.031374821450079 0.5 0.34381270560159033
59. 9.021964475451552 0.5 0.3435713464738279
60. 9.012492457075842 0.5 0.34332848857556864
61. 8.610259684624225 0.5 0.3330947885002086
62. 8.40431478064483 0.5 0.3279179771569376
63. 8.394657745137637 0.5 0.32767632458526474
64. 7.992239955554537 0.5 0.3176978915640118
65. 8.669682968265745 0.5 0.3345966268651927
66. 8.168967063503619 0.5 0.32205765522652036
67. 8.159063338487737 0.5 0.3218123910070522
68. 8.149097941094716 0.5 0.3215657113206868
69. 7.550022248776404 0.5 0.3069527230389582
70. 7.53993350662904 0.5 0.30671045564553184
71. 7.52978309210447 0.5 0.30646684131036706
72. 7.519571005202761 0.5 0.3062218828078654
73. 7.312947705074507 0.5 0.3012954156338016
74. 7.302612273418475 0.5 0.3010505103556382
75. 7.292215169385261 0.5 0.3008042924306387
76. 7.281756392974886 0.5 0.3005567648830758
77. 7.271235944187327 0.5 0.3003079307671375
78. 7.260653823022608 0.5 0.30005779316718567
79. 6.660961406932642 0.5 0.28614972395672733
80. 6.748430711438281 0.5 0.28814420806269714
81. 6.639488802717375 0.5 0.28566197306816
82. 6.62865999204399 0.5 0.2854162785220784
83. 6.617769508993421 0.5 0.2851693762022057
84. 6.312293042291692 0.5 0.2783241229890408
85. 6.595803525760844 0.5 0.2846719633431936
86. 6.388378484729408 0.5 0.2800142945369581
87. 6.377241312170195 0.5 0.27976626746646366
88. 6.3660424672337985 0.5 0.27951708198265673
89. 6.158432409070901 0.5 0.2749373283370902
90. 5.9507606785307985 0.5 0.27043434800260757
91. 5.546677734764195 0.5 0.2619116388034508
92. 5.829756511593176 0.5 0.26784819370661245
93. 5.720074534346249 0.5 0.2655287882425933
94. 5.708505655146887 0.5 0.26528554489691175
95. 5.304176021871595 0.5 0.2569591955906402
96. 5.292483797917866 0.5 0.25672365210547243
97. 4.986205590312934 0.5 0.250664475914661
98. 4.876215251180179 0.5 0.24854241648693223
99. 4.864338010094968 0.5 0.24831502854082466
100. 4.852399096632572 0.5 0.2480868094770104
101. 4.840398510793016 0.5 0.24785776570280033
102. 4.828336252576277 0.5 0.2476279036859265
103. 4.619862781133015 0.5 0.24371303750368578
104. 4.509502407737295 0.5 0.2416860323885205
105. 4.202730821115007 0.5 0.23622470920992975
106. 4.190421873389601 0.5 0.236011066927476
107. 4.178051253287035 0.5 0.23579679140183643
108. 4.165618960807307 0.5 0.23558189039280925
109. 3.9567754551010563 0.5 0.232039382446809
110. 3.9442198178669847 0.5 0.23183053729707248
111. 3.7352529674063897 0.5 0.22842559890099232
112. 3.7225739854179736 0.5 0.228223383496687
113. 3.7098333310523963 0.5 0.22802069736388675
114. 3.6970310043096806 0.5 0.2278175493507301
115. 3.2914679234910573 0.5 0.2216596197045074
116. 3.573066563268018 0.5 0.22587767679199852
117. 3.3637296785444346 0.5 0.22271648298156518
118. 3.350680662293008 0.5 0.22252431070011272
119. 3.239395203239784 0.5 0.22090920718581025
120. 3.422572383083397 0.5 0.22359024351243023
121. 2.8202897271524012 0.5 0.2152225677329432
122. 2.806994021392331 0.5 0.21505275751801753
123. 2.793636643255077 0.5 0.21488283348798962
124. 2.780217592740684 0.5 0.2147128066128716
125. 2.766736869849108 0.5 0.21454268794922923
126. 2.7531944745803716 0.5 0.21437248864057723
127. 2.739590406934451 0.5 0.21420221991776814
128. 2.72592466691137 0.5 0.21403189309937992
129. 2.319498172812426 0.5 0.20930150150737062
130. 2.3057090880350226 0.5 0.20915266180575925
131. 2.2918583308804363 0.5 0.20900394409122283
132. 2.277945901348689 0.5 0.20885536060663995
133. 2.067622258590396 0.5 0.20670754034368796
134. 2.0535864843043488 0.5 0.2065708561397836
135. 2.039489037641096 0.5 0.20643441835379572
136. 2.0253299186006823 0.5 0.20629823982151083
137. 2.011109127183085 0.5 0.206162333465732
138. 1.9968266633883496 0.5 0.20602671229640135
139. 1.982482527216453 0.5 0.20589138941070997
140. 1.7717271778179886 0.5 0.20400634467810602
141. 1.7572596968917478 0.5 0.20388410858397843
142. 1.7427305435883234 0.5 0.20376228718681635
143. 1.7281397179077382 0.5 0.20364089412187694
144. 1.1244385973019058 0.5 0.1994689721805214
145. 1.6005982789904036 0.5 0.20262036463087538
146. 1.585822436178313 0.5 0.20250687296265585
147. 1.4728101505643805 0.5 0.20167169363990767
148. 1.2615614221485836 0.5 0.20026826448534393
149. 1.4429501030543723 0.5 0.20146078490794347
150. 1.3297528003089343 0.5 0.20069863357247425
151. 1.2164938251863355 0.5 0.19999578811745167
152. 1.2995227185359155 0.5 0.20050516500017274
153. 1.1861403986589725 0.5 0.1998176577221999
154. 1.2690459472542528 0.5 0.2003144384183703
155. 1.3028024382600092 0.5 0.20052594857583866
156. 1.1892351012515607 0.5 0.19983562026663276
157. 1.321043017927654 0.5 0.2006424550904895
158. 1.2073523361648837 0.5 0.19994168404695273
159. 1.1917747524496334 0.5 0.19985039488789966
160. 1.2743102667818809 0.5 0.20034707253421602
161. 0.865910256613562 0.5 0.19820537155522727
162. 0.8501476557668065 0.5 0.1981387235018452
163. 1.4233720050909537 0.5 0.2013247276567111
164. 1.4074860594898764 0.5 0.20121562840221097
165. 0.8024898189635292 0.5 0.19794453411951182
166. 0.786480528608085 0.5 0.19788177407229082
167. 0.7704095658755022 0.5 0.1978200247965255
168. 0.7542769307657361 0.5 0.1977593019221131
169. 1.3271312458268951 0.5 0.2006816872503905
170. 1.3108752659628071 0.5 0.20057731999446646
171. 0.5091594503240874 0.5 0.19699317125649604
172. 0.49278012570565505 0.5 0.1969524893550034
173. 0.47633912871003936 0.5 0.19691298386036074
174. 0.459836459337285 0.5 0.19687467056940017
175. 0.6396216584367094 0.5 0.19736430630838148
176. 0.6229956443096107 0.5 0.19731236433215704
177. 0.50813318738067 0.5 0.19699058348289822
178. 0.4913838284992271 0.5 0.19694908246859807
179. 0.47457279724064555 0.5 0.1969088188816277
180. 0.4577000936048583 0.5 0.19686980890984418
181. 0.44076571759193245 0.5 0.19683206878680198
182. 0.5219444396265043 0.5 0.1970258440039856
183. 0.40671194843453073 0.5 0.1967604632436514
184. 0.3895925552901219 0.5 0.19672663051008246
185. 0.2742367193438264 0.5 0.19653647329329066
186. 0.2569939814450509 0.5 0.1965137149089618
187. 0.23968957116911446 0.5 0.1964923580507606
188. 0.22232348851599473 0.5 0.19647241908928653
189. 0.2048957334857363 0.5 0.19645391442804008
190. 0.1874063060782946 0.5 0.19643686050224848
191. 0.16985520629369188 0.5 0.1964212737776737
192. 0.15224243413190588 0.5 0.19640717074940262
193. 0.13456798959295888 0.5 0.19639456794061932
194. 0.11683187267687323 0.5 0.19638348190135996
195. 0.09903408338358194 0.5 0.19637392920724991
196. 0.08117462171312967 0.5 0.19636592645822387
197. 0.06325348766551642 0.5 0.19635949027722824
198. 0.045270681240742176 0.5 0.19635463730890682
199. 0.223575743288169 0.5 0.1964738067916918
200. 0.2054695921090505 0.5 0.196454499735802
201. -0.20539731314595316 0.5 0.19645442592477924
202. 0.16907227261933047 0.5 0.19642061412700398
203. 0.15078110430870667 0.5 0.19640606987306275
204. 0.1324282636209442 0.5 0.19639314755759973
205. 0.11401375055597611 0.5 0.19638186438629504
206. 0.09553756511386935 0.5 0.19637223758476696
207. 0.07699970729457928 0.5 0.196364284397132
208. 0.05840017709812823 0.5 0.19635802208454736
209. 0.0397389745245162 0.5 0.1963534679237355
210. 0.021016099573743174 0.5 0.19635063920549126
211. 0.0022315522457868487 0.5 0.19634955323317155
212. -0.016614667459352785 0.5 0.19635022732116822
213. -0.23187210039099315 0.5 0.1964831971269296
214. 0.24003218727297274 0.5 0.19649276648403943
215. 0.3191757208610312 0.5 0.19660271534443582
216. 0.20190804122254427 0.5 0.19645089354760417
217. -0.1117708516424434 0.5 0.19638060524611484
218. -0.13098710561057125 0.5 0.1963922037195717
219. -0.1502650319558378 0.5 0.19640568363130878
220. -0.16960463067830994 0.5 0.196421062327054
221. 0.40004272077014313 0.5 0.19674711070086714
222. 0.380579777293349 0.5 0.1967094010170297
223. -0.22799346110869229 0.5 0.19647876451399784
224. -0.2475797493398084 0.5 0.19650191170905457
225. 0.3218209125999784 0.5 0.19660692637885557
226. 0.30211127961451806 0.5 0.19657638273120032
227. 0.08599043340253461 0.5 0.1963679282398357
228. 0.45885653736145404 0.5 0.1968724377964145
229. -0.34643627615293754 0.5 0.19664777486949894
230. 0.22265602390102202 0.5 0.19647278683356956
231. 0.20263802902971206 0.5 0.19645162755227052
232. 0.18255836178126347 0.5 0.19643240219635497
233. 0.16241702215560921 0.5 0.1964151298048428
234. 0.14221401015283863 0.5 0.19639982942230508
235. 0.12194932577286244 0.5 0.1963865200969629
236. 0.10162296901572523 0.5 0.19637522087876713
237. -0.3114641418172971 0.5 0.19659063668849866
238. -0.13556430247939416 0.5 0.19639523707306278
239. -0.1560756763680143 0.5 0.19641010890478977
240. -0.17664872263381778 0.5 0.19642712542095167
241. -0.1972834412767822 0.5 0.19644630498620694
242. -0.21797983229692997 0.5 0.1964676659437188
243. -0.23873789569423867 0.5 0.19649122661313786
244. -0.2595576314686861 0.5 0.19651700528857274
245. -0.0840894987709547 0.5 0.1963671243053931
246. -0.10503257929976871 0.5 0.19637697287527386
247. -0.1260373322057437 0.5 0.1963890406478652
248. -0.14710375748887966 0.5 0.19640334653737163
249. -0.16823185514917663 0.5 0.19641990943314022
250. -0.1894216251866569 0.5 0.19643874819750837
251. -0.014323526751936076 0.5 0.19635005104826506
252. -0.03563664154373831 0.5 0.1963526989808105
253. -0.2533609695620859 0.5 0.19650910787489714
254. -0.07844788825884805 0.5 0.19636484417248543
255. 0.48910260236593067 0.5 0.1969435370782032
256. 0.4675427980654398 0.5 0.196892394748366
257. 0.05322223968908621 0.5 0.1963565848382249
258. 0.031539090634273424 0.5 0.19635201448515469
259. 0.009794269202299656 0.5 0.19634977940185933
260. -0.012012224606835098 0.5 0.19634989967763025
261. -0.4265794724918773 0.5 0.19680154296942234
262. 0.14053931149272986 0.5 0.19639865215622415
263. 0.02037303012738648 0.5 0.19635057301707773
264. -0.09985492361507325 0.5 0.19637433514102026
265. -0.5146688610087817 0.5 0.1970071521763667
266. -0.5368453890809494 0.5 0.19706493956658486
267. 0.029965033017830583 0.5 0.1963517737387486
268. -0.1886843806580211 0.5 0.196438055300335
269. -0.4073954667110337 0.5 0.1967618441446046
270. -0.4298186842918453 0.5 0.19680842551386335
271. 0.03857027787358732 0.5 0.19635324033718113
272. 0.1141984859631125 0.5 0.19638196920954543
273. -0.10475928959856641 0.5 0.19637683031728437
274. -0.12742919668806657 0.5 0.1963899177888402
275. -0.15016077615470536 0.5 0.1964056057642895
276. -0.1729540279985275 0.5 0.19642391453021546
277. 0.0005405886298514837 0.5 0.19634954157609355
278. -0.022376007968314925 0.5 0.1963507859486843
279. -0.045354276943619994 0.5 0.19635465614802788
280. -0.06839421829610837 0.5 0.1963611731622075
281. 0.10485370882360434 0.5 0.19637687952785368
282. -0.016484347707909366 0.5 0.1963502165945218
283. -0.13788407661658406 0.5 0.19639681417007288
284. -0.16117070747773868 0.5 0.19641412723191704
285. -0.184519010716032 0.5 0.1964341912048157
286. -0.20792898633153092 0.5 0.19645702671927323
287. 0.06312367694985227 0.5 0.19635944948312897
288. -0.6476330363927582 0.5 0.197389818341641
289. -0.2785289474410159 0.5 0.19654236775607464
290. -0.3021856125651588 0.5 0.1965764943070797
291. -0.12955440921714523 0.5 0.1963912756555601
292. 0.3375394330277728 0.5 0.19663266452700673
293. 0.2155229803474213 0.5 0.1964650189507129
294. -0.004729915134772225 0.5 0.19634959648419567
295. -0.028694942144742337 0.5 0.19635158846576573
296. 0.143627899317444 0.5 0.19640083419795376
297. 0.021364757128426233 0.5 0.19635067595118905
298. 0.09538948341160956 0.5 0.19637216728418927
299. -0.026997003531730165 0.5 0.19635135331290612
300. -0.05127039242754985 0.5 0.19635607766462695
301. 0.022569316724128204 0.5 0.19635080755463735
302. -0.001827416926035763 0.5 0.19634954915389927
303. -0.02628582295338304 0.5 0.19635125907982406
304. -0.0508059013578913 0.5 0.19635595976074846
305. 0.12096188870982384 0.5 0.1963859237266421
306. 0.09631846555099362 0.5 0.19637261011426566
307. 0.07161337001498008 0.5 0.19636229390566026
308. 0.046846602101805565 0.5 0.1963549983062553
309. 0.21836770266083214 0.5 0.19646808657117887
310. 0.19347758999335796 0.5 0.19644260846390876
311. 0.16852580494867817 0.5 0.19642015551234845
312. 0.1435123475268374 0.5 0.19640075170866483
313. 0.5111362994265598 0.5 0.19699817059982225
314. 0.6823490380997368 0.5 0.19750399969781335
315. 0.06810194099832682 0.5 0.19636107395800867
316. 0.04284179406781978 0.5 0.19635410510970727
317. 0.01751997476015175 0.5 0.19635030416870158
318. -0.00786351692469958 0.5 0.19634969462007903
319. -0.03330868098671189 0.5 0.1963522998511165
320. 0.5302331051222233 0.5 0.1970474560893744