-319. 0.4380354731873797 0.5 0.19224142570014513
-318. 0.4385222922550232 0.5 0.1922455023053473
-317. 0.4389902261671714 0.5 0.19224942495334843
-316. 0.4394392749238567 0.5 0.19225319314706635
-315. 0.4398694385250575 0.5 0.19225680640952733
-314. 0.4402807169707738 0.5 0.1922602642838611
-313. 0.25027355549800945 0.5 0.19100277887459668
-312. 0.2506470636327675 0.5 0.1910045778671203
-311. 0.4414012413750696 0.5 0.19226970131082902
-310. 0.4417369791988695 0.5 0.1922725334658249
-309. 0.4420538318671956 0.5 0.1922752082497033
-308. 0.44235179938003727 0.5 0.19227772532610418
-307. 0.15703154959287852 0.5 0.19063726014015295
-306. 0.06209196941325305 0.5 0.19043673949458798
-304. 0.6337543726396413 0.5 0.19423508713915913
-303. 0.44355835961206413 0.5 0.19228793472797712
-302. 0.44374301619203116 0.5 0.19228949961956654
-301. 0.4439087876165244 0.5 0.19229090501089302
-300. 0.4440556738855332 0.5 0.1922921507260538
-299. 0.25378412023603963 0.5 0.19101979263477073
-298. 0.25389323619409015 0.5 0.19102032523237022
-297. 0.0635839122336492 0.5 0.1904385477236138
-296. 0.06365525788074153 0.5 0.19043863526944377
-295. 0.44450682789838486 0.5 0.19229597940580745
-294. 0.444540403234519 0.5 0.19229626449239987
-293. 0.4445550934151686 0.5 0.19229638923266829
-292. 0.06375178891430888 0.5 0.19043875387562567
-291. 0.254128263547018 0.5 0.19102147317909227
-290. 0.15888652087971597 0.5 0.19064290560305047
-289. 0.15882567043845994 0.5 0.19064271936033664
-288. 0.15874593484170854 0.5 0.1906424754242329
-287. 0.4442466462340101 0.5 0.19229377093122757
-286. 0.44412914032631134 0.5 0.19229277393287603
-285. 0.44399274926312804 0.5 0.19229161702454906
-284. 0.34863769566296215 0.5 0.1915683915634174
-283. 0.06286420214428319 0.5 0.19043767007998563
-282. 0.06267115561466799 0.5 0.1904374363698291
-281. 0.06245922392956825 0.5 0.1904371806238972
-280. 0.062228407088984 0.5 0.19043690307369057
-279. 0.4427778146189616 0.5 0.19228132697255196
-278. 0.2521096727044014 0.5 0.1910116481446718
-277. 0.06142264563436742 0.5 0.19043594222189175
-276. 0.06111628817186673 0.5 0.19043558018221315
-275. 0.060791045553892344 0.5 0.1904351978052326
-274. 0.2508464725434512 0.5 0.19100553940665918
-273. 0.2504834596145078 0.5 0.191003789544374
-272. 0.1549017841485926 0.5 0.1906308599160423
-270. 0.4396806646578422 0.5 0.19225522033116602
-269. 0.24884255634397545 0.5 0.19099591117635714
-268. 0.24838511763763108 0.5 0.1909937240758854
-267. 0.24790879377582384 0.5 0.19099145093219608
-266. 0.05701402999550346 0.5 0.1904309066664206
-265. 0.24689949058575575 0.5 0.19098664859936448
-264. 0.15116673387599688 0.5 0.19061984613172914
-263. 0.05541509201075347 0.5 0.19042917295385575
-262. 0.05484434237154525 0.5 0.19042856603485706
-261. 0.05425470757685252 0.5 0.19042794563055804
-260. 0.05364618762668609 0.5 0.19042731238518576
-259. 0.05301878252104595 0.5 0.19042666696361107
-258. 0.05237249225991048 0.5 0.19042601005134951
-257. 0.051707316843301314 0.5 0.19042534235456193
-256. -0.13937629849181013 0.5 0.1905868386865068
-255. 0.05032031054365106 0.5 0.19042397753528406
-254. 0.04959847966059915 0.5 0.1904232819283494
-253. 0.048857763622073544 0.5 0.19042257856800152
-252. 0.04809816242807424 0.5 0.19042186826363963
-251. -0.1430798786844382 0.5 0.1905969189191276
-250. -0.1438772501893957 0.5 0.1905991236798236
-249. -0.14469350684984858 0.5 0.19060139332353712
-248. 0.23527046086027126 0.5 0.19093272187409557
-247. -0.14638267563716456 0.5 0.19060613083600433
-246. -0.14725558776404934 0.5 0.1906086005440163
-245. -0.14814738504640781 0.5 0.19061113881355313
-244. -0.14905806748426165 0.5 0.1906137466154878
-243. 0.040411919685439425 0.5 0.19041530681677563
-242. 0.03946346693664903 0.5 0.19041457613249368
-241. 0.038496129032363297 0.5 0.19041384877060744
-240. 0.03750990597260386 0.5 0.1904131257883503
-239. -0.15389475700565786 0.5 0.1906278640256155
-238. -0.1549187503763755 0.5 0.19063091055728376
-237. -0.15596162890256687 0.5 0.19063403399085496
-236. -0.15702339258424272 0.5 0.19063723546096242
-235. 0.3654947341768957 0.5 0.19168376545409574
-234. 0.12639575673048944 0.5 0.19055359193443236
-233. 0.12527733758237083 0.5 0.19055087906151233
-232. 0.028940255897280456 0.5 0.19040763328122295
-231. -0.06741571094331608 0.5 0.1904433884938384
-229. -0.35538407747242834 0.5 0.19161392009731637
-228. -0.35659692239793706 0.5 0.1916221964570757
-227. 0.30856978919163186 0.5 0.19131577381620904
-226. 0.11691961919213632 0.5 0.19053136849817293
-225. 0.5916490057077401 0.5 0.19374661770365043
-224. -0.36163715365478477 0.5 0.19165688878633513
-223. -0.1725448695946767 0.5 0.19068650933286546
-222. -0.1738710254530709 0.5 0.190690933886744
-221. -0.17521606646693882 0.5 0.19069545594589138
-220. -0.3669795473992982 0.5 0.19169418548930647
-219. 0.01243675080191119 0.5 0.19040104669268698
-218. 0.011035054321600535 0.5 0.1904007293462549
-217. 0.009614472685805358 0.5 0.19040044639597012
-216. 0.008175005894547307 0.5 0.190400199394633
-215. 0.006716653947804734 0.5 0.190399989915673
-214. 0.005239416845577642 0.5 0.1903998195531458
-213. 0.19414284935089463 0.5 0.19076277073864303
-212. 0.19262784193769847 0.5 0.19075712938623426
-211. -0.18970516015699607 0.5 0.19074637075791767
-210. -0.19125793788112877 0.5 0.1907520662539086
-209. -0.1928296007607568 0.5 0.19075787812351333
-208. -0.38481970355887635 0.5 0.19182263966610402
-207. -0.7672282462754981 0.5 0.19599519852228997
-206. -0.1976579003325048 0.5 0.19077602911348512
-205. -0.19930510383404926 0.5 0.19078232371782325
-204. -0.20097119249105663 0.5 0.19078874341666768
-203. -0.3930557210665771 0.5 0.19188396785588802
-201. -0.20608276939499665 0.5 0.19080877122651593
-200. -0.11262462129243321 0.5 0.19052186516804237
-199. 0.3616137511807029 0.5 0.19165672659463567
-197. 0.16763651208241492 0.5 0.1906704270687427
-196. 0.16581934218156386 0.5 0.19066459047715553
-195. 0.44958261926974413 0.5 0.19233931729034612
-194. -0.028271207849609573 0.5 0.1904072640838951
-193. -0.030145033216903372 0.5 0.19040831988015902
-192. -0.032037743739681684 0.5 0.19040945507186627
-191. 0.1564502153450949 0.5 0.1906355045039805
-190. 0.15451973451134754 0.5 0.19062972102936848
-189. 0.3429699232851659 0.5 0.19153080842566686
-188. 0.34100167214047117 0.5 0.19151789930414628
-187. 0.33901453584030267 0.5 0.19150494081526684
-186. 0.5274080691476675 0.5 0.193063968069464
-185. 0.7157827172995478 0.5 0.1952789843388753
-184. 0.7137389255329475 0.5 0.19525150510970293
-180. 0.32457579738567605 0.5 0.19141303231899695
-179. 0.5128371346046925 0.5 0.19291972788121683
-178. 0.3202804771421889 0.5 0.19138645450587613
-177. 0.3181044892872294 0.5 0.19137312404507942
-176. 0.506309171039803 0.5 0.19285638307129965
-175. 0.5040954128738745 0.5 0.19283508120924586
-174. 0.5018627695524721 0.5 0.19281368979811037
-173. 0.49961124107558547 0.5 0.19279221121801154
-172. 0.49734082744322494 0.5 0.19277064787039538
-171. 0.8758506381814263 0.5 0.1976605018247342
-170. 0.8735424542380967 0.5 0.1976229802317701
-169. 0.8712153851392935 0.5 0.19758524469128838
-168. 0.8688694308850166 0.5 0.19754729753207254
-167. 1.056904146238273 0.5 0.20088555806622244
-166. 1.0545204216730377 0.5 0.2008395393192216
-165. 0.48091914766326477 0.5 0.19261753715716132
-164. 0.4784976527870714 0.5 0.1925953846881242
-163. 0.8568563822814181 0.5 0.19735447043510068
-162. 0.8543971170942666 0.5 0.19731530364723548
-161. 1.0423185215146482 0.5 0.20060544082465678
-160. 1.0398214860165276 0.5 0.20055783659011658
-159. 1.227705120125951 0.5 0.20442186401398593
-158. 1.2251703143168722 0.5 0.20436599714813014
-157. 1.2226166233523197 0.5 0.20430981541537901
-156. 1.2200440472322933 0.5 0.204253321157707
-155. 1.4078521407197897 0.5 0.20864380877293914
-154. 1.4052417942888054 0.5 0.20857916208444888
-153. 1.593012117465343 0.5 0.21347870397833826
-152. 1.5903640007234006 0.5 0.21340616917685679
-151. 1.77809655358898 0.5 0.21878059045171233
-150. 1.7754106665360685 0.5 0.21870045626806978
-149. 1.7727058943276832 0.5 0.21861985144285948
-148. 1.7699822369638134 0.5 0.21853877803089974
-147. 1.7672396944444697 0.5 0.21845723810502551
-146. 1.7644782667696306 0.5 0.2183752337561647
-145. 1.9520975087023467 0.5 0.22416287765656032
-144. 1.94929831071656 0.5 0.22407338678191668
-143. 1.946480227575289 0.5 0.22398338582481894
-142. 1.9436432592785449 0.5 0.22389287678944858
-141. 1.9407874058263155 0.5 0.2238018616973193
-140. 2.8899104410337015 0.5 0.2587047397378844
-139. 2.3158181529814716 0.5 0.2365393140358423
-138. 2.3129056440627997 0.5 0.23643461963994652
-137. 2.500373804751672 0.5 0.24334275663536198
-136. 2.4974235255220423 0.5 0.24323144904225832
-135. 2.684853915899967 0.5 0.2504581290019363
-134. 2.6818658663593897 0.5 0.25034051319781775
-133. 2.6788589316633167 0.5 0.2502222305336385
-132. 2.675833111811781 0.5 0.25010328256520437
-131. 2.8631879615677787 0.5 0.2576110471679716
-130. 3.0505239261683026 0.5 0.2653915839627435
-129. 3.047441450850313 0.5 0.26526147536351646
-128. 3.044340090376861 0.5 0.2651306380488593
-127. 3.4220189542739603 0.5 0.28153989599637164
-126. 3.2284802687265213 0.5 0.27301459105664766
-125. 3.225322252786626 0.5 0.27287745383827466
-124. 3.602944461217272 0.5 0.28971226783308035
-123. 3.694948452347938 0.5 0.29393782234255134
-122. 3.5965340035600915 0.5 0.2894195529826566
-121. 3.4029008922352513 0.5 0.2806874604329792
-120. 3.9708471148070204 0.5 0.3068680091841523
-119. 4.157975342697258 0.5 0.3158405250876911
-118. 4.154685130669003 0.5 0.31568144802120074
-117. 4.151376033485276 0.5 0.3155215041007378
-116. 4.148048051146064 0.5 0.31536069419096885
-115. 5.477498066992491 0.5 0.38269543030759257
-114. 4.712534095290249 0.5 0.34325499654796304
-113. 4.709149457484606 0.5 0.3430843356846316
-112. 4.896145489286495 0.5 0.352568146202433
-111. 5.2735221906959175 0.5 0.37202269299372265
-110. 5.174881120042321 0.5 0.3668994953629082
-109. 5.266620718996248 0.5 0.37166341496977734
-108. 5.643940764939249 0.5 0.3914779593894428
-107. 5.164443929293175 0.5 0.3663589267055856
-106. 5.636925982306706 0.5 0.3911065460017427
-105. 5.538190485875719 0.5 0.38589053986385047
-104. 5.439436104289238 0.5 0.38069613648325473
-103. 5.62626216969181 0.5 0.39054213644920877
-102. 5.622669795175879 0.5 0.3903520580287047
-101. 5.619058535504486 0.5 0.39016100948266635
-100. 5.615428390677607 0.5 0.389968991312371
-99. 6.278177802365796 0.5 0.42547492362147454
-98. 6.369709664609469 0.5 0.430443022949079
-97. 6.366022864316138 0.5 0.43024263985141975
-96. 6.362317178867343 0.5 0.4300412532183449
-95. 5.977793498737029 0.5 0.409275466852392
-94. 6.735648262029337 0.5 0.45044029846643124
-92. 6.918504249806384 0.5 0.4605075869842717
-91. 7.1051036933432075 0.5 0.47082797512930985
-90. 7.101284696961538 0.5 0.4706162997125679
-89. 7.192646592805882 0.5 0.475685265340867
-88. 7.2839896034947635 0.5 0.4807635071878478
-87. 7.660913061172666 0.5 0.5018210852351057
-85. 7.081906437720957 0.5 0.46954250908449807
-84. 7.26837368516941 0.5 0.479894618170058
-83. 8.026020711751451 0.5 0.522361709210242
-82. 8.212450188888948 0.5 0.5328990742593306
-81. 8.398860780870978 0.5 0.5434659603126214
-80. 8.394852932934496 0.5 0.543238461749464
-79. 8.010027090316516 0.5 0.5214592028471196
-78. 8.386780581595122 0.5 0.542780289188992
-77. 8.573115632955227 0.5 0.553369895095015
-76. 8.664232021778346 0.5 0.5585581626299833
-75. 8.564929970682956 0.5 0.5529041111444641
-74. 8.56080881181361 0.5 0.5526696272223119
-73. 8.556668767788791 0.5 0.5524340822699233
-71. 9.405130020706267 0.5 0.6009666993809616
-70. 9.115333989070468 0.5 0.5843345775851274
-69. 9.111118404423731 0.5 0.5840930369195002
-68. 10.058881708436589 0.5 0.6386702945813025
-67. 9.293030134426814 0.5 0.5945266530263326
-66. 9.859956558602677 0.5 0.6271727273199352
-65. 9.855665433334014 0.5 0.6269249380889327
-64. 9.280156758620814 0.5 0.59378759304907
-63. 9.275827863041204 0.5 0.5935390949929685
-61. 10.076311524158333 0.5 0.6396786909608065
-60. 9.833926529658497 0.5 0.6256697873464901
-59. 10.59112031250903 0.5 0.6695294837188961
-58. 10.586696991152008 0.5 0.6692724764173634
-57. 10.582254784639503 0.5 0.6690143805820492
-56. 10.577793692971532 0.5 0.6687551963349557
-55. 11.049312603055611 0.5 0.6961969719092588
-54. 11.140013518458181 0.5 0.7014860406094732
-53. 10.94509621656074 0.5 0.690123784403427
-52. 11.416558471178387 0.5 0.7176315798488919
-51. 11.12640362158849 0.5 0.7006921986252428
-50. 11.121829218987624 0.5 0.700425397639245
-49. 11.307635485994314 0.5 0.7112689282427493
-48. 11.30302331308249 0.5 0.7109996078083837
-47. 11.48879180977822 0.5 0.7218533987529276
-46. 11.484141866555449 0.5 0.7215815677429521
-45. 11.479473038177193 0.5 0.7213086404355901
-44. 11.284385769880446 0.5 0.7099113787462139
-43. 11.660478280717255 0.5 0.7318953046410549
-42. 11.560553019491058 0.5 0.7260494523288403
-41. 12.507806424305986 0.5 0.781594579133193
-40. 12.979042057057862 0.5 0.8093238505214291
37. 10.5563640401562 0.5 0.6675102820733304
38. 11.216526185543703 0.5 0.7059502165547696
39. 11.210271004105179 0.5 0.7055851706268522
40. 12.631993598233807 0.5 0.7888964678439813
41. 13.101699533391857 0.5 0.8165508661686938
42. 12.333789477434822 0.5 0.7713700910422518
43. 12.327458755374371 0.5 0.7709982885469437
44. 11.940310038632413 0.5 0.7482838847369655
46. 11.737154613971104 0.5 0.7363833463713372
47. 11.54034879652572 0.5 0.724867879406495
48. 11.53392364868788 0.5 0.7244921571080769
49. 11.90827872522059 0.5 0.7464066513979954
50. 10.949818033256692 0.5 0.6903988529617374
51. 10.94333622995241 0.5 0.6900212590192734
52. 10.746435986729635 0.5 0.6785591898800561
55. 10.726820610417468 0.5 0.6774182199068519
56. 10.720244381335796 0.5 0.6770357364404415
59. 10.129203718868826 0.5 0.6427396949335625
60. 10.360551392619 0.5 0.656144594134616
61. 10.115881294306153 0.5 0.6419685598335885
63. 10.10248332912155 0.5 0.6411931423446309
64. 10.095756018796045 0.5 0.6408038282844214
65. 9.898610268552025 0.5 0.6294052161922118
66. 9.89184518791555 0.5 0.629014433439938
67. 9.885061222123591 0.5 0.6286225843818646
70. 9.007798017381278 0.5 0.5781768296685484
73. 9.84396083910681 0.5 0.6262491118211491
74. 9.075446458174431 0.5 0.58204961563804
75. 9.068511411138628 0.5 0.5816524499278217
77. 7.912187333022505 0.5 0.5159434653930997
78. 8.190794962664807 0.5 0.5316734725731886
79. 8.564583484533145 0.5 0.5528843964093557
80. 9.223952453390513 0.5 0.5905621460530416
81. 8.264906321606757 0.5 0.5358695923827874
82. 8.257839078482606 0.5 0.5354692445280674
83. 8.060353395439973 0.5 0.5242998786539508
84. 7.862848827241845 0.5 0.5131654982370618
85. 7.665325373888244 0.5 0.5020685127651857
86. 7.658182590142187 0.5 0.5016679799550687
87. 7.460621366477617 0.5 0.4906114906957313
88. 7.4534408124206015 0.5 0.4902104431640875
89. 7.255841818445084 0.5 0.4791975420226739
90. 7.2486234940770995 0.5 0.47879611408328276
91. 7.050986729790623 0.5 0.46783018378717584
92. 7.043730635111669 0.5 0.46742852278812225
93. 6.846056100514236 0.5 0.45651326989716745
94. 6.648362680761316 0.5 0.4456517013133534
95. 6.450650375852925 0.5 0.4348479344208567
96. 6.443318740552065 0.5 0.43444849428991716
97. 6.435968220095722 0.5 0.43404811288821826
98. 6.428598814483915 0.5 0.43364679113597554
99. 6.2308109689535955 0.5 0.42290963691880384
100. 6.22340379303082 0.5 0.4225088353723219
101. 6.025578177189553 0.5 0.4118412452369022
102. 6.018133230955809 0.5 0.41144120363226744
103. 6.010669399566601 0.5 0.41104025363492924
104. 5.81278712825888 0.5 0.4004501534954079
105. 5.805285526558714 0.5 0.4000502468255282
106. 5.226566375414011 0.5 0.36958070937824644
107. 5.219027003402877 0.5 0.3691891557718518
108. 5.211468746236268 0.5 0.3687967723540401
109. 5.0134920491511465 0.5 0.35857439865137486
110. 5.00589602167358 0.5 0.35818437870641323
111. 4.807881554277522 0.5 0.3480779149293006
112. 4.800247756488986 0.5 0.34769070475056235
113. 4.411795964018941 0.5 0.32824517718074325
114. 4.404124395919448 0.5 0.3278665549492044
115. 4.39643394266448 0.5 0.3274872238350877
116. 4.19832504949101 0.5 0.3177950759131558
117. 4.190596825925084 0.5 0.3174201918222367
118. 4.182849717203685 0.5 0.3170446412229547
119. 4.1750837233267895 0.5 0.31666842683505386
120. 4.167298844294431 0.5 0.31629155139945525
121. 3.7786959705805434 0.5 0.29782281689496914
122. 3.7708733212372274 0.5 0.29745841052234423
123. 3.763031786738427 0.5 0.2970934351307194
124. 3.755171367084142 0.5 0.2967278941198308
125. 3.3664929527483474 0.5 0.27907020751699074
126. 3.3585947627830937 0.5 0.2787204344090103
127. 3.3506776876623765 0.5 0.278370209976468
128. 3.342741727386186 0.5 0.27801953843977073
129. 3.2395871045729803 0.5 0.2734974244348012
130. 3.3268131513673405 0.5 0.27731687110231856
131. 2.747621871335643 0.5 0.25294613260847526
132. 2.7396103704375254 0.5 0.2526267468329914
136. 2.516975960527234 0.5 0.24397061638668044
137. 2.3184704790887083 0.5 0.23663473003386643
138. 2.3103456672577156 0.5 0.23634266809328783
139. 2.302201970271228 0.5 0.23605059544658852
140. 2.294039388129277 0.5 0.23575851924231173
141. 2.285857920831842 0.5 0.23546644668115718
142. 2.277657568378933 0.5 0.23517438501630802
143. 2.079038776007511 0.5 0.22831684711134573
144. 2.070800653243644 0.5 0.228041686993106
146. 1.6734686427234202 0.5 0.21572779586163715
147. 1.0939752002040677 0.5 0.2016132013889259
148. 1.656860201107316 0.5 0.21525639890899428
149. 1.838927207329076 0.5 0.2206198603321615
150. 1.8305757736323234 0.5 0.2203646036590676
151. 1.8222054547800972 0.5 0.22010964060260155
152. 1.8138162507723863 0.5 0.21985498010709076
153. 1.6150086068461733 0.5 0.21408491232053978
154. 1.2257825230014794 0.5 0.2043794809881402
155. 1.9789348825794075 0.5 0.2250255585571626
156. 1.399271473660727 0.5 0.20843167977857127
157. 1.390787843875626 0.5 0.20822301412134106
158. 1.3822853289350296 0.5 0.20801494906086626
159. 1.1833643740759525 0.5 0.20345911877693235
160. 1.174824088824409 0.5 0.203277245037267
161. 1.5470640279434162 0.5 0.2122338359687549
162. 1.5384859723809141 0.5 0.21200467351348642
163. 0.9586903673738744 0.5 0.1990675381475171
164. 0.9500745415004251 0.5 0.19891575742246187
165. 0.7510402757084627 0.5 0.19576476107298688
166. 0.7423866795240335 0.5 0.19564348286982744
167. 0.8289139755656502 0.5 0.19691563621733427
168. 0.7250228316887539 0.5 0.1954041514321335
169. 0.14511391574885024 0.5 0.19060256729114022
170. 0.8979829979945757 0.5 0.19802493898071666
171. 0.6988354212697385 0.5 0.19505338533304892
172. 0.6900685141524455 0.5 0.19493870342018765
173. 0.6812827218796679 0.5 0.19482516047042633
174. 0.6724780444514167 0.5 0.19471276786614616
175. 0.66365448186767 0.5 0.19460153701595262
176. 0.6548120341284606 0.5 0.1944914793540743
177. 0.265151591707731 0.5 0.19107649964100204
178. 0.4466709284205702 0.5 0.19231439784741539
181. 0.6103165181001886 0.5 0.19395919078273138
182. 0.4109612046650866 0.5 0.19202170745849778
183. 0.21158700607448938 0.5 0.19083089752416058
184. 0.20259347709144707 0.5 0.19079504547443515
185. 0.19358106295290933 0.5 0.19076067370843114
186. 0.27974954104040684 0.5 0.1911529390888882
187. 0.2706993565909325 0.5 0.1911050705739509
188. 0.2616302869859521 0.5 0.19105866971510754
189. 0.3477421096070177 0.5 0.19156241242603964
190. 0.24343549230957012 0.5 0.19097031476204238
191. 0.23430976723816863 0.5 0.19092838255690153
192. 0.3203649343927914 0.5 0.19138697371819632
193. 0.12080188424740308 0.5 0.19054026417796946
194. 0.11161950370956963 0.5 0.19051969247831108
195. 0.10241823801623 0.5 0.19050070698810223
196. 0.2835976419304561 0.5 0.19117376576938971
197. 0.2743586059261583 0.5 0.1911242370741881
198. 0.2651006847663976 0.5 0.19107624019040192
199. 0.25582387845116317 0.5 0.1910297863578918
200. 0.2465281869804334 0.5 0.19098488681081166
201. 0.2372136103542408 0.5 0.19094155277669064
202. 0.13268037119104395 0.5 0.19056928374775228
203. 0.12332802425388227 0.5 0.1905462082899708
204. 0.11395679216124689 0.5 0.1905247748008793
205. 0.009366897531618132 0.5 0.1904004010677336
206. 0.09515767250953344 0.5 0.19048687687508223
207. 0.1809295623319534 0.5 0.1907150520164043
208. 0.0762830122358927 0.5 0.19045567608010527
209. -0.028382423015652497 0.5 0.19040732485684214
210. -0.03786696604117334 0.5 0.19041338537618308
211. 0.14302916054084988 0.5 0.1905967790952547
212. 0.13350684720437084 0.5 0.19057140388633753
216. -0.047570923768589 0.5 0.19042138178394055
217. -0.10478755157322346 0.5 0.19050543985787372
218. 0.07597637892045142 0.5 0.19045522587321598
219. -0.028877907885895695 0.5 0.19040759851122208
220. 0.056648474915301256 0.5 0.19043050595180386
221. -0.14344335958350213 0.5 0.19059792244030363
222. 0.03724503028823466 0.5 0.19041293480855712
223. -0.06768479714001807 0.5 0.1904437390714829
224. 0.017766045039251617 0.5 0.19040259925078076
225. -0.18240133008146822 0.5 0.19072020137207382
226. -0.001788480831637033 0.5 0.1903995856165387
227. -0.01159407150030814 0.5 0.19040085136492868
228. -0.021418547324452943 0.5 0.19040397974152196
229. -0.031261908304082264 0.5 0.190408981391831
230. -0.04112415443918529 0.5 0.19041586692581097
231. -0.051005285729762005 0.5 0.19042464691681796
232. -0.25130485693885185 0.5 0.1910077525934976
233. 0.11957535098563793 0.5 0.19053742239270913
234. 0.10963756422860767 0.5 0.19051546526071153
235. 0.09968089231611452 0.5 0.19049537356919316
236. 0.08970533524813683 0.5 0.19047715878636312
237. -0.11068866173835396 0.5 0.19051769769424912
238. -0.12070198911728985 0.5 0.19054003164526892
239. -0.1307342016517211 0.5 0.19056434319759807
240. -0.1407852993416152 0.5 0.19059064254836197
241. 0.03954427257601311 0.5 0.19041463770873318
242. 0.029455404575160778 0.5 0.19040792343658083
243. 0.019347651418823927 0.5 0.19040316543950617
244. 0.009221013107002556 0.5 0.1904003749115854
245. -0.0009245103602925119 0.5 0.19039956300743083
246. -0.011088918983082924 0.5 0.19040074084103206
247. -0.021272212761336208 0.5 0.1904039194845969
248. -0.03147439169506319 0.5 0.19040910996739255
249. -0.041695455784285525 0.5 0.19041632327458693
250. -0.05193540502898155 0.5 0.1904255703460911
251. -0.0621942394291621 0.5 0.19043686207540259
252. -0.07247195898480552 0.5 0.19045020930845027
253. -0.08276856369593345 0.5 0.19046562284244112
254. -0.09308405356255674 0.5 0.1904831134247091
255. -0.1034184285846429 0.5 0.19050269175156653
256. -0.1137716887622244 0.5 0.1905243684671586
257. -0.12414383409526877 0.5 0.19054815416232065
258. -0.13453486458379768 0.5 0.1905740593734399
259. -0.14494478022782192 0.5 0.19060209458132035
260. -0.1553735810272982 0.5 0.1906322702100523
261. 0.0245782877807371 0.5 0.19040538159898057
262. 0.01411171667029177 0.5 0.19040147561408519
263. 0.003626260404372738 0.5 0.19039968160237092
264. -0.006878081017041636 0.5 0.19040001108379248
265. -0.01740130759392971 0.5 0.19040247552807413
266. -0.027943419326302302 0.5 0.1904070863534272
267. -0.03850441621413777 0.5 0.19041385492526994
268. -0.0490842982574794 0.5 0.1904227925549494
269. -0.05968306545627308 0.5 0.1904339104984661
270. -0.07030071781055129 0.5 0.19044721995520167
271. -0.08093725532032485 0.5 0.1904627320666501
272. -0.09159267798556127 0.5 0.1904804579151528
273. -0.10226698580629304 0.5 0.19050040852263822
274. -0.11296017878249849 0.5 0.19052259484936598
275. -0.12367225691416683 0.5 0.19054702779267632
276. -0.13440322020134135 0.5 0.19057371818574548
277. -0.14515306864397873 0.5 0.1906026767963464
278. -0.15592180224210064 0.5 0.19063391432561688
279. -0.16670942099569622 0.5 0.19066744140683375
280. -0.17751592490477633 0.5 0.19070326860419515
281. 0.002058240793676788 0.5 0.19039959562585368
282. -0.008786033426350726 0.5 0.19040029935960376
283. -0.019649192801873584 0.5 0.19040327886331013
284. -0.030531237332870137 0.5 0.19040854590267986
285. 0.14896738774367738 0.5 0.19061348623296898
286. -0.05235198186130599 0.5 0.19042598933571878
287. 0.12710887290428333 0.5 0.19055533425944918
288. -0.07424826701165828 0.5 0.1904527225027252
289. 0.1051748174429728 0.5 0.19050622372874987
290. -0.0010203154024181077 0.5 0.19039956480466733
291. -0.012034556021773838 0.5 0.19040095175765853
292. 0.07213209558490562 0.5 0.19044973538732285
293. 0.06108008465459167 0.5 0.19043553751805786
294. 0.05000918856880403 0.5 0.19042367648422612
295. 0.03891940732753186 0.5 0.19041416482173967
296. 0.027810740930775173 0.5 0.19040701500299964
297. 0.016683189378555615 0.5 0.19040223943533738
298. 0.005536752670840709 0.5 0.19039985045945906
299. -0.005628569192347893 0.5 0.19039986034789455
300. -0.016812776211021015 0.5 0.19040228130345083
301. 0.16238368637784992 0.5 0.1906537288054053
302. 0.1511617090482294 0.5 0.1906198314953313
303. 0.13992084656311357 0.5 0.1905883042689721
304. 0.12866109892253483 0.5 0.19055916057831845
305. 0.11738246612646074 0.5 0.1905324138151002
306. 0.1060849481749238 0.5 0.19050807730906053
307. 0.09476854506790232 0.5 0.1904861643262301
308. 0.08343325680538549 0.5 0.1904666880672032
309. 0.0720790833874058 0.5 0.1904496616654158
310. 0.06070602481394159 0.5 0.19043509818542592
311. 0.04931408108500367 0.5 0.19042301062119785
312. 0.03790325220057043 0.5 0.19041341189438987
313. 0.026473538160674295 0.5 0.1904063148526469
314. 0.015024938965304473 0.5 0.19040173226789778
315. 0.0035574546144284806 0.5 0.19039967683465922
316. -0.007928914891899563 0.5 0.1904001611683455
317. -0.019434169553733772 0.5 0.19040319780358578
318. -0.030958309371020034 0.5 0.19040879919254902
319. -0.04250133434380164 0.5 0.19041697770327767
320. -0.054063244472056945 0.5 0.19042774561802991