-319. 0.8431051715418385 0.5 0.19810933478743484
-318. 0.9358539002479037 0.5 0.19851558534279082
-317. 0.7340755572045391 0.5 0.19768505108357737
-316. 1.0231683058092043 0.5 0.1989358677535976
-315. 0.8213844418150662 0.5 0.19802020593516895
-314. 0.9141221286195848 0.5 0.1984166742772383
-313. 0.7123327436746847 0.5 0.19760735695199028
-312. 0.805064909528441 0.5 0.19795474524484782
-311. 1.0941438557561727 0.5 0.19930437714086027
-310. 1.2850452710838367 0.5 0.20041402203346267
-309. 0.7887205329633469 0.5 0.19789048049115188
-308. 0.9796164273402376 0.5 0.1987216615731433
-307. 0.48328616826898557 0.5 0.19692951409148937
-306. 0.4778270008457409 0.5 0.1969165041744937
-305. 0.47236507294710955 0.5 0.19690363473926267
-304. 0.2705508437237406 0.5 0.19653148444541257
-303. 0.46143293572370914 0.5 0.19687831832155878
-302. 0.4559627263989178 0.5 0.1968658718425088
-301. 0.45048975659875096 0.5 0.1968535668520657
-300. 0.4450140263231974 0.5 0.1968414036016235
-299. 0.6358850764216305 0.5 0.19735251473700727
-298. 0.6304038251953036 0.5 0.19733534123805932
-297. 0.62491981349359 0.5 0.19731830640028822
-296. 0.6194330413164899 0.5 0.1973014104843978
-295. 0.41759396781465213 0.5 0.19678272223899554
-294. 0.41210167468678977 0.5 0.19677141470040885
-293. 0.4066066210835296 0.5 0.19676025065782984
-292. 0.4011088070048939 0.5 0.19674923036155834
-291. 0.39560823245087157 0.5 0.196738354061749
-290. 0.39010489742146254 0.5 0.1967276220084095
-289. 0.38459880191666684 0.5 0.1967170344513985
-288. 0.3790899459364845 0.5 0.19670659164042403
-287. 0.2754035590562456 0.5 0.19653806665685192
-286. 0.36806395254997093 0.5 0.19668614125465136
-285. 0.3625468151436286 0.5 0.19667613417849827
-284. 0.3570269172619107 0.5 0.1966662728456682
-283. 0.3515042589048062 0.5 0.19665655750508707
-282. 0.345978840072315 0.5 0.1966469884055186
-281. 0.340450660764426 0.5 0.19663756579556274
-280. 0.33491972098116146 0.5 0.19662828992365347
-279. 0.3293860207225215 0.5 0.19661916103805707
-278. 0.32384955998848364 0.5 0.19661017938687017
-277. 0.3183103387790591 0.5 0.1966013452180179
-276. 0.31276835709424794 0.5 0.19659265877925194
-275. 0.11087407408471033 0.5 0.19638010880295023
-274. 0.1053265714491258 0.5 0.1963771266469891
-273. 0.2961258491875167 0.5 0.19656748831834742
-272. 0.29057282560117004 0.5 0.1965593952739085
-271. 0.28501704153944785 0.5 0.19655145119564643
-270. 0.2794584970023166 0.5 0.19654365633023232
-269. 0.27389719198980994 0.5 0.19653601092415066
-268. 0.2683331265019166 0.5 0.19652851522369721
-267. 0.06641675968928569 0.5 0.19636051026250623
-266. 0.060847173250630174 0.5 0.1963587476934806
-265. 0.05527482633657683 0.5 0.19635713862612042
-264. 0.04969971894713682 0.5 0.1963556832937084
-263. 0.04412185108233246 0.5 0.1963543819292872
-262. 0.038541222742119116 0.5 0.19635323476565744
-261. 0.03295783392653027 0.5 0.19635224203537607
-260. 0.027371684635554755 0.5 0.1963514039707543
-259. 0.021782774869203735 0.5 0.19635072080385593
-258. 0.01619110462745489 0.5 0.19635019276649548
-257. 0.20694621475968145 0.5 0.19645601333616203
-256. 0.20134902356715928 0.5 0.19645033324303052
-255. -0.0006004689501116408 0.5 0.19634954174600858
-254. -0.006203181093384827 0.5 0.19634963653989465
-253. 0.18454088713729508 0.5 0.19643421127383162
-252. 0.17893265404323738 0.5 0.19642914419828114
-251. 0.1733216604737819 0.5 0.19642423098466447
-250. 0.16770790642896202 0.5 0.1964194718755534
-249. -0.03425814894061772 0.5 0.19635245938308837
-248. -0.03987742393622206 0.5 0.1963534953347484
-247. -0.04549945940721307 0.5 0.19635468894892796
-246. -0.05112425535357958 0.5 0.196356040454307
-245. 0.13959772907402931 0.5 0.1963979963717252
-244. 0.1339674121768783 0.5 0.19639416697091094
-243. -0.46071428774374557 0.5 0.19687667474309667
-242. -0.2700005847422855 0.5 0.196530745448049
-241. -0.0792896422162233 0.5 0.1963651743337729
-240. -0.0849310010149098 0.5 0.19636747797320575
-239. 0.6948230431084541 0.5 0.1975464657207061
-238. 0.6891761633590054 0.5 0.197527147532198
-237. -0.6909202628113644 0.5 0.19753309753803155
-236. -0.6965726635115975 0.5 0.19755248284057
-235. 0.0831703387102309 0.5 0.1963667420228153
-234. 0.07751241705923555 0.5 0.19636448138590856
-233. -0.12449780591650852 0.5 0.19638808166772334
-232. -0.1301612485182772 0.5 0.19639166750502318
-231. 0.06052208925391837 0.5 0.19635864958101135
-230. 0.05485312570138753 0.5 0.19635702314119483
-229. -0.1471681391759032 0.5 0.19640339363860213
-228. -0.15284262367921855 0.5 0.19640762596964959
-227. -0.35486940950728263 0.5 0.19666245943577937
-226. -0.16419987411199807 0.5 0.1964165774010563
-225. -0.16988264004146225 0.5 0.1964212969468487
-224. -0.7646167889944104 0.5 0.19779807520068357
-223. 0.2114426283721624 0.5 0.19646068902823186
-222. 0.009402040167176152 0.5 0.1963497606779241
-221. -0.19264130851319675 0.5 0.19644180584612092
-220. -0.19833787681959425 0.5 0.19644734185728177
-219. -0.20403720560137842 0.5 0.19645304182479315
-218. -0.2097392948585381 0.5 0.19645890596899981
-217. -0.2154441445910956 0.5 0.19646493450992292
-216. -0.22115175479903976 0.5 0.1964711276672577
-215. 0.3130991118533751 0.5 0.1965931729302272
-214. -0.03622571579170371 0.5 0.19635280425079354
-212. -0.5385341116586927 0.5 0.19706943918606656
-211. -0.24973121296951595 0.5 0.19650457036641988
-210. -0.25545538602978013 0.5 0.19651175581736302
-209. -0.2611823195654086 0.5 0.19651910741331585
-208. -0.26691201357643496 0.5 0.196526625371304
-205. 0.01040665281223149 0.5 0.19634981016526035
-204. 0.10284068732433953 0.5 0.19637583995714392
-203. -0.2956018907623331 0.5 0.19656671816365204
-202. -0.3013481476256683 0.5 0.1965752388321302
-201. -0.3070971649643901 0.5 0.19658392737215605
-200. -0.21467417235381758 0.5 0.19646411141691283
-199. 0.2704451414800924 0.5 0.1965313423708531
-198. 0.2646878427152106 0.5 0.1965236876885176
-197. -0.13377129822377087 0.5 0.1963940364256026
-196. -0.13953411793942602 0.5 0.19639795222732961
-194. -0.5928545057079498 0.5 0.19722165430562266
-193. -0.6968003772744237 0.5 0.19755326707043433
-192. 0.6227851618415684 0.5 0.19731171543776022
-191. -0.1683896236484572 0.5 0.19642004145520278
-190. -0.17416900621642117 0.5 0.1964249629288633
-189. -0.17995114925976066 0.5 0.1964300528050568
-188. -0.185736052778498 0.5 0.1964353113087462
-185. 0.09141698508703545 0.5 0.1963703220657413
-184. 0.08562103966675146 0.5 0.19636777061105745
-183. 0.177997104195773 0.5 0.1964283141282566
-182. 0.17219563782471567 0.5 0.19642326383657857
-181. -0.02995812987106806 0.5 0.19635177271007628
-180. -0.03576511719288755 0.5 0.19635272179278496
-179. 0.3511242167086304 0.5 0.1966558944953402
-178. 0.3453117084360376 0.5 0.19664584327189252
-177. -0.05320264201065487 0.5 0.1963565796517487
-176. -0.05902067123402102 0.5 0.19635820326197687
-175. -0.2611910017821359 0.5 0.19651911868209487
-174. -0.2670145519562642 0.5 0.19652676139559827
-173. 0.316207759942307 0.5 0.1965980317443367
-172. 0.3103786888174053 0.5 0.1965889601994333
-171. 0.304546857217117 0.5 0.19658005285448404
-170. 0.298712265141442 0.5 0.1965713099717433
-169. -0.2961737099576947 0.5 0.19656755873564824
-168. -0.30201382298414303 0.5 0.19657623648750808
-167. 0.2811919260621082 0.5 0.19654607071552177
-166. 0.27534629208488653 0.5 0.19653798829908356
-165. 0.2694978976322894 0.5 0.19653007165229922
-164. 0.26364674270430555 0.5 0.1965223210358766
-163. 0.45414236815028597 0.5 0.19686176268718922
-162. 0.4482856922715288 0.5 0.19684865316328684
-161. 0.442426255917385 0.5 0.1968357068831317
-160. 0.43656405908786566 0.5 0.19682292411969707
-159. 0.4306991017829485 0.5 0.19681030514573344
-158. 0.4248313840026447 0.5 0.1967978502337662
-157. 0.4189609057469542 0.5 0.19678555965609332
-156. 0.4130876670158882 0.5 0.19677343368478292
-155. 0.4072116678094244 0.5 0.1967614725916711
-154. 0.4013329081275851 0.5 0.19674967664835935
-153. 0.3954513879703591 0.5 0.19673804612621243
-152. 0.38956710733774647 0.5 0.1967265812963558
-151. 0.5800296070791092 0.5 0.19718440951779287
-150. 0.5741398054957232 0.5 0.19716757555987813
-149. 0.6664220138616316 0.5 0.19745088368919836
-148. 0.7587014617521645 0.5 0.19777582971820623
-147. 0.36010429704389435 0.5 0.19667175200378223
-146. 0.3542034535589617 0.5 0.19666128700761304
-144. 0.931442107711045 0.5 0.19849532131110068
-141. 0.7173569107022673 0.5 0.19762510510969725
-140. 1.1041385860637611 0.5 0.1993581978166718
-139. 1.0982184192511328 0.5 0.19932626094296707
-138. 0.8959459511137561 0.5 0.19833569423847336
-137. 0.8900202633503546 0.5 0.1983096381213184
-136. 0.2950431925634914 0.5 0.19656589844497435
-135. 0.8781606063974139 0.5 0.19825799867362723
-134. 0.8722266372078524 0.5 0.19823241595009253
-133. 1.3571637596663206 0.5 0.20087773964302486
-132. 1.253049499101327 0.5 0.20021607139702768
-131. 1.6398063301843298 0.5 0.20292630282877547
-130. 1.4375117782438707 0.5 0.20142281428429684
-129. 1.235214465828025 0.5 0.2001078136674572
-128. 1.229263933786166 0.5 0.2000720266379888
-127. 1.6160097229676331 0.5 0.2027397910622486
-126. 1.6100536699750005 0.5 0.20269350906659994
-125. 1.015046233958884 0.5 0.19889523109068438
-124. 1.7944828234129377 0.5 0.20420048504750002
-123. 1.886693259418815 0.5 0.20501054912714112
-122. 1.7825513940999549 0.5 0.20409840581162988
-121. 1.7765815387303892 0.5 0.2040475673329319
-119. 1.7646335465650975 0.5 0.20394629433904712
-118. 2.347704032317458 0.5 0.20960838631363243
-117. 2.3417231350463563 0.5 0.20954304088182157
-116. 1.7466908547517823 0.5 0.2037953998174369
-115. 2.3297530590779827 0.5 0.2094126993127163
-114. 2.3237638803807212 0.5 0.20934770385531268
-113. 2.317771941208062 0.5 0.20928282573649182
-112. 2.3117772415600277 0.5 0.20921806529703196
-111. 2.894828403984704 0.5 0.21618687909366707
-110. 2.8888281833858955 0.5 0.21610848394609267
-109. 2.686475661462339 0.5 0.21354423823550236
-108. 2.6804699199127575 0.5 0.21347052406467687
-107. 2.478111877038439 0.5 0.21106930159929388
-106. 3.0611492370861706 0.5 0.21841280318199988
-105. 3.0551352141104404 0.5 0.21833055496495168
-104. 3.1472932010839934 0.5 0.21960518572121954
-103. 3.239448427582182 0.5 0.22090996937587604
-102. 2.8407270414815677 0.5 0.21548489045910826
-101. 3.227401058303004 0.5 0.22073769960486683
-100. 3.2213732329503406 0.5 0.22065169613256566
-99. 3.608041728821026 0.5 0.22641996102649928
-98. 3.994707464216313 0.5 0.23267320776224748
-97. 3.7923218165881276 0.5 0.2293420496703553
-96. 3.4917586380598853 0.5 0.22463250368054116
-95. 3.9765908624537047 0.5 0.23236994953937856
-94. 3.9705464742487324 0.5 0.23226898996579998
-93. 3.9644993255683625 0.5 0.23216809413097994
-92. 3.9584494164126167 0.5 0.23206726232879143
-91. 4.34509582848022 0.5 0.23872683821517124
-90. 4.339040398373701 0.5 0.2386192565424008
-88. 4.6214455680085464 0.5 0.24374234111049053
-87. 4.7135566269005595 0.5 0.24545882116965304
-86. 4.7074901548924935 0.5 0.2453451036509896
-85. 5.290469544957139 0.5 0.2566831050468279
-84. 5.2843975519983 0.5 0.2565609300574741
-83. 4.68927417601601 0.5 0.24500420496672104
-82. 5.272245284654495 0.5 0.25631666043380114
-81. 5.462514551118859 0.5 0.26017850472669535
-80. 5.456431516258484 0.5 0.26005382273430794
-79. 5.646695261772096 0.5 0.2639905319526099
-78. 5.640606705960948 0.5 0.26386338945858206
-77. 5.830864930523787 0.5 0.2678717543885302
-76. 5.824770853761866 0.5 0.2677422477562798
-75. 6.407722639072656 0.5 0.2804455979713803
-74. 6.008923959661248 0.5 0.271687407905847
-73. 6.199171142322529 0.5 0.27582996286520534
-72. 6.193066023659072 0.5 0.2756960020115528
-71. 6.383307685369602 0.5 0.2799013404072469
-70. 6.377197045755373 0.5 0.27976528206965245
-69. 6.371083645665756 0.5 0.27962922651384203
-68. 6.3649674851007525 0.5 0.27949317392077366
-67. 6.947897186608449 0.5 0.2927371049546429
-66. 6.745425964243332 0.5 0.2880754923630953
-65. 6.739301522252169 0.5 0.2879354762589436
-64. 6.929523860634981 0.5 0.2923115019952144
-63. 6.923393897693056 0.5 0.2921696195514495
-62. 6.917261174275755 0.5 0.2920277299772811
-61. 7.500174312931142 0.5 0.3057569888956022
-60. 7.494036068563057 0.5 0.30560997247257643
-59. 7.6842446045689465 0.5 0.31018837640165015
-58. 7.6781008392500985 0.5 0.31003976890519014
-57. 7.671954313455854 0.5 0.3098911423540268
-56. 7.665805027186221 0.5 0.30974249688121575
-55. 8.052352062139938 0.5 0.3191767843453619
-54. 8.046197254919543 0.5 0.3190251690168699
-53. 9.021787391470573 0.5 0.3435668053629733
-52. 8.230228899901958 0.5 0.3235772423800357
-51. 8.322240581680072 0.5 0.3258673910451944
-50. 8.414249502982823 0.5 0.32816668232691926
-49. 8.408080893385495 0.5 0.3280122453799715
-48. 8.598259064162145 0.5 0.33279192503714045
-47. 8.984784015312778 0.5 0.3426185376051917
-46. 8.978607124289303 0.5 0.3424603699367888
-45. 8.972427472790427 0.5 0.34230216737252994
-44. 8.868070290391497 0.5 0.3396360188100295
-43. 8.86188511794186 0.5 0.33947832429187635
-42. 9.542920577989605 0.5 0.35705193561817644
-41. 9.438555114164513 0.5 0.35433247684615116
38. 9.824340167136022 0.5 0.3644292376603164
39. 10.210627717403492 0.5 0.3746552269094249
40. 10.695087277620267 0.5 0.3876301564175941
41. 10.001446832265474 0.5 0.36910385080448793
42. 9.99502701940807 0.5 0.3689339884254136
43. 9.399555823527184 0.5 0.3533186240236897
44. 9.393130489719008 0.5 0.35315171082778585
45. 9.190352854586084 0.5 0.3479024804938104
46. 9.183921999827124 0.5 0.3477366001294597
48. 9.171052008883075 0.5 0.3474047370463757
49. 9.164612872697967 0.5 0.34723875452956693
50. 9.158170976037471 0.5 0.3470727381642762
51. 8.562677696353502 0.5 0.3318948130502719
52. 8.16353119704352 0.5 0.3219230231309008
53. 9.138828723203673 0.5 0.3465744869945804
54. 8.543327162093556 0.5 0.3314074752495664
55. 8.536871463056126 0.5 0.33124497634914024
56. 9.11946162609142 0.5 0.3460759348604897
57. 8.327602242705769 0.5 0.32600112741410747
58. 8.32113826224219 0.5 0.3258398996723164
59. 8.314671521303225 0.5 0.32567864857887807
60. 8.308202019888885 0.5 0.3255173742597529
61. 7.712681135451061 0.5 0.3108768280968504
62. 7.706206113085948 0.5 0.3107199777170138
63. 7.699728330245437 0.5 0.3105631131193976
64. 7.6932477869295495 0.5 0.3104062344512194
65. 7.883114023987638 0.5 0.31502403231667675
66. 7.483928878022242 0.5 0.30536800457548074
67. 7.281090512430834 0.5 0.30054101064035554
68. 7.274598927213411 0.5 0.30038745675535317
69. 7.464454122369952 0.5 0.3049021566762417
70. 7.6543065570511075 0.5 0.3094646752509829
71. 6.862408527010066 0.5 0.2907611717207236
72. 6.855905899891097 0.5 0.2906113291685853
73. 6.84940051229673 0.5 0.29046148791051046
74. 6.646542823377626 0.5 0.2858221234223246
75. 6.640031914832485 0.5 0.28567430071365146
76. 6.829867786661332 0.5 0.2900119737352175
77. 6.234302734617354 0.5 0.27660213026653147
78. 6.620482626344778 0.5 0.28523086833658357
79. 6.221261594199378 0.5 0.27631523803321656
80. 6.2147368832773155 0.5 0.27617181467949287
81. 6.011859871030527 0.5 0.27175082780977405
82. 6.005329639157691 0.5 0.2716097874524123
83. 5.998796646809469 0.5 0.27146876765232825
84. 5.992260893985871 0.5 0.271327768636301
85. 5.789372839837524 0.5 0.26699144027968924
86. 5.782831566063153 0.5 0.2668529677048113
87. 5.7762875318133835 0.5 0.2667145215220984
88. 5.769740737088239 0.5 0.2665761019712028
89. 5.174142559339633 0.5 0.2543568959096722
90. 5.167590243663715 0.5 0.2542267813935051
91. 5.16103516751241 0.5 0.25409671049779087
92. 5.15447733088573 0.5 0.25396668349829155
93. 4.951567192934301 0.5 0.24999303754074503
94. 4.945003835356837 0.5 0.24986613708341424
95. 4.938437717303996 0.5 0.24973928728441638
96. 4.931868838775759 0.5 0.24961248843372197
97. 4.728947658922794 0.5 0.24574774995232349
98. 4.722373259443795 0.5 0.2456242581212302
99. 4.519446558640046 0.5 0.24186735856946046
100. 4.512866638210272 0.5 0.24174734781263288
101. 4.506283957305123 0.5 0.24162740215644826
102. 4.401523745499896 0.5 0.2397342052086606
103. 4.296760773219292 0.5 0.23787094950783558
104. 4.290169810887972 0.5 0.2377547453904459
105. 4.087226547231926 0.5 0.2342371228883637
106. 4.080630063949832 0.5 0.23412478169030268
107. 4.074030820192363 0.5 0.23401252121663638
108. 4.067428815959508 0.5 0.23390034181177094
109. 3.668124969552552 0.5 0.22736078844359187
110. 3.6615174443689233 0.5 0.22725675440271437
111. 3.6549071587099076 0.5 0.2271528170378454
112. 3.6482941125755057 0.5 0.22704897671720653
113. 3.543503535541058 0.5 0.22542242228209847
114. 3.5368849684558823 0.5 0.2253208928838322
115. 3.235739329621277 0.5 0.2208568775584287
116. 3.229115241585339 0.5 0.22076218036849282
117. 3.222488393074026 0.5 0.22066759735696398
118. 3.215858784087315 0.5 0.2205731289136968
119. 3.209226414625217 0.5 0.2204787754291376
120. 3.202591284687733 0.5 0.22038453729432306
121. 2.8032543125761484 0.5 0.21500511518564028
122. 2.992963202537253 0.5 0.21748798084629217
123. 2.9863197911736084 0.5 0.21739878099932572
124. 2.7833240784852267 0.5 0.2147521066594708
125. 2.580325605321447 0.5 0.21226204009632627
126. 2.5736739125316648 0.5 0.21218316226329145
127. 2.5670194592664846 0.5 0.2121044261821631
128. 2.5603622455259183 0.5 0.21202583226468233
129. 2.553702271309965 0.5 0.21194738092302068
130. 2.547039536618636 0.5 0.2118690725697784
131. 3.129422663999996 0.5 0.21935564331962437
132. 2.0428319336863914 0.5 0.20646669467354833
133. 2.3306852288429343 0.5 0.20942282858635408
134. 2.3240114522500703 0.5 0.20935038762649144
135. 1.7282862926337106 0.5 0.20364210888084158
136. 1.7216069950900619 0.5 0.20358685053999293
137. 2.0094492483450694 0.5 0.20614652680485093
138. 1.9045896594259777 0.5 0.20517208710566534
139. 1.897902080456169 0.5 0.2051115595634723
140. 1.8912117410109734 0.5 0.2050512022892068
141. 1.4918195593916672 0.5 0.20180809456843102
142. 1.4851236989957097 0.5 0.2017598597867477
143. 1.4784250781243655 0.5 0.20171181077332478
144. 1.4717236967776235 0.5 0.20166394792958195
145. 2.054068177503592 0.5 0.20657553306602897
146. 1.6546621935073638 0.5 0.20304403333183713
147. 1.6479525307344727 0.5 0.2029907372326565
148. 1.444890566636833 0.5 0.20147436627892315
149. 1.438175382913169 0.5 0.20142744030394005
150. 1.4314574387141292 0.5 0.20138070290654037
151. 1.4247367340396915 0.5 0.20133415448790326
152. 1.4180132688898672 0.5 0.20128779544915879
153. 1.0185879615659434 0.5 0.19891291239776032
154. 1.011858975465357 0.5 0.19887937070588882
155. 1.005127228889384 0.5 0.19884603210277998
156. 1.4892665739614181 0.5 0.20178967946587756
157. 1.1880049951606286 0.5 0.1998284749656898
158. 1.1812649671585067 0.5 0.19978945100628315
159. 0.978172637831625 0.5 0.198714716094062
160. 1.1677766297280807 0.5 0.199711999331656
161. 1.1610283202997875 0.5 0.1996735723940285
162. 1.0561024799714491 0.5 0.19910387632327106
163. 0.9511738791677017 0.5 0.1985866795377093
164. 0.9444172883132487 0.5 0.19855518562135624
165. 0.741308396134058 0.5 0.19771140718183305
166. 0.7345462843288539 0.5 0.1976867586340498
167. 0.7277814120482409 0.5 0.19766232299978728
168. 0.7210137792922523 0.5 0.19763810063483617
169. 0.714243386060877 0.5 0.19761409189458484
170. 0.7074702323541263 0.5 0.19759029713401524
171. 0.7006943181719889 0.5 0.19756671670769876
172. 0.6939156435144537 0.5 0.19754335096979225
173. 0.4907846675321697 0.5 0.1969476234957585
174. 0.8766995536225964 0.5 0.19825168394540058
175. 0.8699125975389124 0.5 0.19822248570625073
176. 0.8631228809798416 0.5 0.19819349839163547
177. 0.4636313222466601 0.5 0.19688336194376335
178. 0.45683608473681603 0.5 0.19686784910791813
179. 0.45003808675159646 0.5 0.19685255795672538
180. 0.44323732829097906 0.5 0.196837488821154
181. 0.436433809354975 0.5 0.19682264203163718
182. 0.4296275299435842 0.5 0.19680801791806837
183. 0.42281849005682914 0.5 0.1967936168097975
184. 0.4160066896946651 0.5 0.1967794390356267
185. 0.4091921288571255 0.5 0.1967654849238068
186. 0.40237480754418814 0.5 0.19675175480203308
187. 0.3955547257558864 0.5 0.19673824899744163
188. 0.38873188349218685 0.5 0.19672496783660506
189. 0.18555673990373855 0.5 0.19643514581611404
190. 0.17872837668926564 0.5 0.1964289625814175
191. 0.17189725299941724 0.5 0.19642300860768402
192. 0.16506336883418218 0.5 0.19641728419702847
193. -0.03812281665581278 0.5 0.19635315499893138
194. 0.15138731907752973 0.5 0.19640652527013058
195. 0.14454515348614583 0.5 0.19640149135482696
196. 0.03952545699468306 0.5 0.196353425837178
197. 0.32720208172655774 0.5 0.1966155999586831
198. 0.32035163470899153 0.5 0.1966045830701752
199. 0.31349842721606097 0.5 0.19659379437942687
200. 0.30664245924774375 0.5 0.1965832342059466
201. 0.1034341899546666 0.5 0.19637614436134435
202. 0.09657270103556488 0.5 0.19637273205182731
203. 0.08970845164108766 0.5 0.19636955258460662
204. 0.08284144177122377 0.5 0.19636660625369556
205. 0.2723212122753353 0.5 0.19653387223716853
206. 0.26544868145468686 0.5 0.19652468984232127
207. 0.25857339015867414 0.5 0.19651573818389337
208. 0.2516953383872636 0.5 0.1965070175763732
209. 0.24481452614046637 0.5 0.19649852833360426
210. 0.23793095341828246 0.5 0.1964902707687814
211. 0.23104462022072308 0.5 0.1964822451944469
212. 0.224155526547777 0.5 0.19647445192248672
213. -0.07726063887460997 0.5 0.1963643844866006
214. -0.08415525349832938 0.5 0.19636715181407274
215. -0.09105262859743543 0.5 0.19637015675105401
216. -0.09795276417192815 0.5 0.1963733995706942
217. 0.18966865105223557 0.5 0.19643898096788376
218. 0.1827629945269695 0.5 0.19643258802253846
219. 0.17585457752631678 0.5 0.19642642954407133
220. 0.16894340005028854 0.5 0.19642050583898057
221. -0.034320078750499576 0.5 0.1963524699444447
222. -0.04123677717731229 0.5 0.19635376953025285
223. -0.048156236079500515 0.5 0.19635530770194468
224. -0.05507845545707541 0.5 0.19635708473890395
225. -0.062003435310036964 0.5 0.19635910091974704
226. -0.06893117563838519 0.5 0.1963613565223195
227. -0.07586167644213124 0.5 0.19636385182369273
228. -0.08279493772124163 0.5 0.19636658710016056
229. 0.10661858137361221 0.5 0.19637780752252795
230. 0.09967979914371733 0.5 0.1963742482548339
231. 0.09273825643844694 0.5 0.19637092708559914
232. 0.08579395325778989 0.5 0.19636784431278914
233. -0.11750265124762707 0.5 0.196383872724362
234. -0.12445247537905746 0.5 0.19638805360961162
235. -0.1314050599858745 0.5 0.19639247638196516
236. -0.13836040506807823 0.5 0.19639714131137775
237. 0.05103103022369346 0.5 0.1963560167722377
238. 0.0440701641907164 0.5 0.1963543705938273
239. -0.15924300316700937 0.5 0.1964125917293962
240. -0.1662093901507486 0.5 0.19641822797040728
241. 0.023171003239476417 0.5 0.19635087599412612
242. 0.01619909530496386 0.5 0.19635019341012497
243. 0.00922442689505348 0.5 0.19634975245084665
244. 0.19859653885914083 0.5 0.19644759705398643
245. -0.20108273220026704 0.5 0.19645006688432065
246. -0.20806568203632625 0.5 0.19645716805272231
247. -0.018701851498410058 0.5 0.1963504106273332
248. -0.025690322285231444 0.5 0.1963511821095979
249. -0.032681553547450656 0.5 0.1963521969382573
250. -0.03967554528505654 0.5 0.19635345539749047
251. -0.04667229749804909 0.5 0.1963549577706766
252. 0.04450296023827506 0.5 0.1963544659205408
253. -0.060674083350171854 0.5 0.1963586953884053
254. -0.06767911698931324 0.5 0.1963609311956762
255. -0.07468691110385245 0.5 0.19636341204235003
256. -0.081697465693756 0.5 0.19636613820775506
257. -0.08871078075905738 0.5 0.19636910997039914
258. -0.09572685629974542 0.5 0.19637232760796614
259. -0.10274569231582013 0.5 0.19637579139731248
260. -0.011592518382589321 0.5 0.19634987504084278
261. -0.1167916457741184 0.5 0.19638345853461203
262. -0.12381876321635311 0.5 0.19638766243211075
263. -0.13084864113396333 0.5 0.19639211358047326
264. -0.13788127952697138 0.5 0.19639681225236835
265. 0.05143286245401832 0.5 0.1963561191584177
266. 0.04439470311024811 0.5 0.1963544419886982
267. 0.03735378329109123 0.5 0.19635301065789026
268. 0.030310102996558848 0.5 0.19635182546137123
269. 0.023263662226628637 0.5 0.19635088669371434
270. 0.01621446098131176 0.5 0.19635019464868506
271. -0.18718704158875385 0.5 0.1964366563399005
272. -0.19424176378484406 0.5 0.19644334491372878
273. -0.004949705606936538 0.5 0.19634960177482372
274. -0.012009948753800077 0.5 0.19634989954167503
275. -0.01907295237603912 0.5 0.19635044548773553
276. -0.02613871647366483 0.5 0.19635123990184658
277. -0.033207241046666044 0.5 0.19635228307201608
278. -0.04027852609506508 0.5 0.1963535752854148
279. -0.04735257161885079 0.5 0.1963551168283728
280. -0.05442937761802316 0.5 0.19635690798637576
281. -0.061508944092571044 0.5 0.1963589490440614
282. -0.06859127104251675 0.5 0.1963612402852159
283. -0.07567635846783796 0.5 0.19636378199277046
284. -0.082764206368557 0.5 0.1963665744487975
285. -0.2862043555940024 0.5 0.1965531360486149
286. -0.19512295402080262 0.5 0.1964441977350634
287. -0.10404431292298945 0.5 0.1963764591154841
288. -0.11114320272524399 0.5 0.196380257368829
289. -0.11824485300287403 0.5 0.19638430776800536
290. -0.1253492637559019 0.5 0.19638861058985982
291. -0.13245643498431645 0.5 0.19639316611035576
292. -0.13956636668810649 0.5 0.19639797460456992
293. 0.344194793256122 0.5 0.1966439310162644
294. 0.4352541110262397 0.5 0.1968200909180437
295. -0.16091272465180775 0.5 0.19641392066691782
296. -0.16803369825714445 0.5 0.19641974378891977
297. 0.021192108511505398 0.5 0.19635065767984883
298. 0.014065613955395363 0.5 0.19635003284018362
299. 0.006936358923898661 0.5 0.1963496604967277
300. 0.19615388426637737 0.5 0.19644520037074303
301. -0.20367997341460564 0.5 0.19645267981419673
302. -0.21081750987225117 0.5 0.19646003297731432
303. -0.21795780680529456 0.5 0.19646764208050307
304. -0.22510086421371342 0.5 0.19647550738793593
305. -0.03589714124815689 0.5 0.19635274532033228
306. -0.04304571960734909 0.5 0.1963541486640701
307. -0.050197058441927955 0.5 0.19635580684032666
308. -0.05735115775189349 0.5 0.19635772013718622
309. 0.13184152331212753 0.5 0.19639276204588205
310. 0.12468190305138868 0.5 0.19638819572276764
311. 0.11751952231527431 0.5 0.19638388258297051
312. 0.11035438110376211 0.5 0.19637982293813463
313. 0.2995360202662365 0.5 0.1965725341034746
314. 0.29236535810396214 0.5 0.1965619910242235
315. 0.088842394616939 0.5 0.19636916807718785
316. -0.016508558920789725 0.5 0.1963502185809633
317. 0.07448726791544578 0.5 0.1963633379867827
318. 0.06730556385163591 0.5 0.19636080580883086
319. 0.2564706401617903 0.5 0.19651304722116267
320. 0.2492834151472071 0.5 0.19650401511042082