-40	64.29	0.14	0.0032
-39	64.29	0.14	0.0032
-38	64.29	0.14	0.0032
-37	64.29	0.14	0.0032
-36	64.29	0.14	0.0032
-35	64.29	0.14	0.0032
-34	64.29	0.14	0.0032
-33	64.30	0.14	0.0032
-32	64.30	0.14	0.0032
-31	64.30	0.14	0.0032
-30	64.30	0.14	0.0032
-29	64.30	0.14	0.0032
-28	64.30	0.14	0.0032
-27	64.30	0.14	0.0032
-26	64.30	0.14	0.0032
-25	64.31	0.14	0.0032
-24	64.31	0.14	0.0032
-23	64.31	0.14	0.0032
-22	64.31	0.14	0.0032
-21	64.31	0.14	0.0032
-20	64.31	0.14	0.0032
-19	64.31	0.14	0.0032
-18	64.32	0.14	0.0032
-17	64.32	0.14	0.0032
-16	64.32	0.14	0.0032
-15	64.32	0.14	0.0032
-14	64.32	0.14	0.0032
-13	64.32	0.14	0.0032
-12	64.33	0.14	0.0032
-11	64.33	0.14	0.0032
-10	64.33	0.14	0.0032
-9	64.33	0.14	0.0032
-8	64.33	0.14	0.0032
-7	64.33	0.14	0.0032
-6	64.34	0.14	0.0032
-5	64.34	0.14	0.0032
-4	64.34	0.14	0.0032
-3	64.34	0.14	0.0032
-2	64.35	0.14	0.0032
-1	64.35	0.14	0.0032
0	64.35	0.14	0.0032
1	64.36	0.14	0.0032
2	64.36	0.14	0.0032
3	64.36	0.14	0.0032
4	64.37	0.14	0.0032
5	64.38	0.14	0.0032
6	64.38	0.14	0.0032
7	64.39	0.14	0.0032
8	64.42	0.14	0.0032
9	64.42	0.14	0.0032
10	64.43	0.14	0.0032
11	64.44	0.14	0.0032
12	64.46	0.14	0.0032
13	64.49	0.14	0.0032
14	64.51	0.14	0.0032
15	64.58	0.14	0.0032
16	64.63	0.14	0.0032
17	64.75	0.14	0.0032
18	64.83	0.14	0.0032
19	65.11	0.14	0.0032
20	65.30	0.14	0.0033
21	65.87	0.14	0.0033
22	66.12	0.14	0.0033
23	66.77	0.14	0.0033
24	67.17	0.14	0.0033
25	67.93	0.14	0.0034
26	68.15	0.14	0.0034
27	68.37	0.14	0.0034
28	68.59	0.14	0.0034
29	68.66	0.14	0.0034
30	68.74	0.14	0.0034
31	68.77	0.14	0.0034
32	68.82	0.14	0.0034
33	68.83	0.14	0.0034
34	68.86	0.14	0.0034
35	68.87	0.14	0.0034
36	68.88	0.14	0.0034
37	68.89	0.14	0.0034
38	68.90	0.14	0.0034
39	68.91	0.14	0.0034
40	68.91	0.14	0.0034
40	68.91	0.14	0.0034
39	68.91	0.14	0.0034
38	68.91	0.14	0.0034
37	68.90	0.14	0.0034
36	68.90	0.14	0.0034
35	68.89	0.14	0.0034
34	68.89	0.14	0.0034
33	68.88	0.14	0.0034
32	68.87	0.14	0.0034
31	68.86	0.14	0.0034
30	68.86	0.14	0.0034
29	68.84	0.14	0.0034
28	68.83	0.14	0.0034
27	68.81	0.14	0.0034
26	68.80	0.14	0.0034
25	68.78	0.14	0.0034
24	68.74	0.14	0.0034
23	68.72	0.14	0.0034
22	68.66	0.14	0.0034
21	68.61	0.14	0.0034
20	68.50	0.14	0.0034
19	68.42	0.14	0.0034
18	68.20	0.14	0.0034
17	68.04	0.14	0.0034
16	67.61	0.14	0.0034
15	67.31	0.14	0.0034
14	66.48	0.14	0.0033
13	66.03	0.14	0.0033
12	65.27	0.14	0.0033
11	65.04	0.14	0.0032
10	64.84	0.14	0.0032
9	64.66	0.14	0.0032
8	64.60	0.14	0.0032
7	64.53	0.14	0.0032
6	64.50	0.14	0.0032
5	64.46	0.14	0.0032
4	64.44	0.14	0.0032
3	64.42	0.14	0.0032
2	64.42	0.14	0.0032
1	64.40	0.14	0.0032
0	64.39	0.14	0.0032
-1	64.38	0.14	0.0032
-2	64.38	0.14	0.0032
-3	64.37	0.14	0.0032
-4	64.37	0.14	0.0032
-5	64.36	0.14	0.0032
-6	64.36	0.14	0.0032
-7	64.35	0.14	0.0032
-8	64.35	0.14	0.0032
-9	64.35	0.14	0.0032
-10	64.34	0.14	0.0032
-11	64.34	0.14	0.0032
-12	64.34	0.14	0.0032
-13	64.34	0.14	0.0032
-14	64.34	0.14	0.0032
-15	64.33	0.14	0.0032
-16	64.33	0.14	0.0032
-17	64.33	0.14	0.0032
-18	64.33	0.14	0.0032
-19	64.33	0.14	0.0032
-20	64.33	0.14	0.0032
-21	64.33	0.14	0.0032
-22	64.32	0.14	0.0032
-23	64.32	0.14	0.0032
-24	64.32	0.14	0.0032
-25	64.32	0.14	0.0032
-26	64.32	0.14	0.0032
-27	64.32	0.14	0.0032
-28	64.32	0.14	0.0032
-29	64.32	0.14	0.0032
-30	64.32	0.14	0.0032
-31	64.32	0.14	0.0032
-32	64.31	0.14	0.0032
-33	64.31	0.14	0.0032
-34	64.31	0.14	0.0032
-35	64.31	0.14	0.0032
-36	64.31	0.14	0.0032
-37	64.31	0.14	0.0032
-38	64.31	0.14	0.0032
-39	64.31	0.14	0.0032
-40	64.31	0.14	0.0032