0	2.903089987	1	1.25E-02
10	2.301029996	1	5.00E-02
20	1.672097858	1	2.13E-02
30	1.204119983	1	6.25E-02
40	0.3222192947	1	4.76E-02
50	-0.1870866434	1	1.54E-02
60	-0.5086383062	1	3.23E-02
70	-0.638272164	1	4.35E-02
80	-0.6989700043	1	5.00E-02
90	-0.7447274949	1	5.56E-02
100	-0.7695510786	1	5.88E-02
110	-0.7695510786	1	5.88E-02
120	-0.7958800173	1	6.25E-02