\relax 
\providecommand\hyper@newdestlabel[2]{}
\catcode `"\active 
\providecommand\HyperFirstAtBeginDocument{\AtBeginDocument}
\HyperFirstAtBeginDocument{\ifx\hyper@anchor\@undefined
\global\let\oldcontentsline\contentsline
\gdef\contentsline#1#2#3#4{\oldcontentsline{#1}{#2}{#3}}
\global\let\oldnewlabel\newlabel
\gdef\newlabel#1#2{\newlabelxx{#1}#2}
\gdef\newlabelxx#1#2#3#4#5#6{\oldnewlabel{#1}{{#2}{#3}}}
\AtEndDocument{\ifx\hyper@anchor\@undefined
\let\contentsline\oldcontentsline
\let\newlabel\oldnewlabel
\fi}
\fi}
\global\let\hyper@last\relax 
\gdef\HyperFirstAtBeginDocument#1{#1}
\providecommand\HyField@AuxAddToFields[1]{}
\providecommand\HyField@AuxAddToCoFields[2]{}
\citation{angulo}
\citation{coerencia}
\select@language{portuges}
\@writefile{toc}{\select@language{portuges}}
\@writefile{lof}{\select@language{portuges}}
\@writefile{lot}{\select@language{portuges}}
\@writefile{toc}{\contentsline {section}{\numberline {I}Introdu\IeC {\c c}\IeC {\~a}o Te\IeC {\'o}rica}{1}{section.1}}
\@writefile{toc}{\contentsline {subsection}{\numberline {I}Transformada de Fourier \IeC {\'O}tica}{1}{subsection.1.1}}
\newlabel{eq:fourier}{{1}{1}{Transformada de Fourier Ótica}{equation.1.1}{}}
\@writefile{toc}{\contentsline {subsection}{\numberline {II}Interfer\IeC {\'o}metro Laser - Amplia\IeC {\c c}\IeC {\~a}o}{1}{subsection.1.2}}
\newlabel{ampliacaoh}{{2}{1}{Interferómetro Laser - Ampliação}{equation.1.2}{}}
\newlabel{ampliacaox}{{3}{1}{Interferómetro Laser - Ampliação}{equation.1.3}{}}
\@writefile{toc}{\contentsline {subsection}{\numberline {III}Interfer\IeC {\'o}metro Laser - \IeC {\^a}ngulo entre espelhos}{1}{subsection.1.3}}
\newlabel{interfencia_obliqua}{{4}{1}{Interferómetro Laser - ângulo entre espelhos}{equation.1.4}{}}
\@writefile{toc}{\contentsline {subsection}{\numberline {IV}Interfer\IeC {\'o}metro Laser - Coer\IeC {\^e}ncia}{1}{subsection.1.4}}
\newlabel{coerencia}{{5}{1}{Interferómetro Laser - Coerência}{equation.1.5}{}}
\newlabel{ultimaequacao}{{6}{1}{Interferómetro Laser - Coerência}{equation.1.6}{}}
\@writefile{toc}{\contentsline {subsection}{\numberline {V}Determina\IeC {\c c}\IeC {\~a}o do campo de temperaturas em redor de uma ponta aquecida}{1}{subsection.1.5}}
\newlabel{dif_fase}{{7}{2}{Determinação do campo de temperaturas em redor de uma ponta aquecida}{equation.1.7}{}}
\@writefile{toc}{\contentsline {subsection}{\numberline {VI}Anemometria Laser}{2}{subsection.1.6}}
\newlabel{completa}{{13}{2}{Anemometria Laser}{equation.1.13}{}}
\@writefile{toc}{\contentsline {section}{\numberline {II}Resultados e Discuss\IeC {\~a}o}{2}{section.2}}
\@writefile{toc}{\contentsline {subsection}{\numberline {I}Transformada de Fourier \IeC {\'O}ptica}{2}{subsection.2.1}}
\@writefile{lof}{\contentsline {figure}{\numberline {1}{\ignorespaces Montagem para a transformada de Fourier \IeC {\'O}ptica\relax }}{2}{figure.caption.1}}
\providecommand*\caption@xref[2]{\@setref\relax\@undefined{#1}}
\newlabel{1sessao_montagem}{{1}{2}{Montagem para a transformada de Fourier Óptica\relax }{figure.caption.1}{}}
\@writefile{lof}{\contentsline {figure}{\numberline {2}{\ignorespaces Focos para as duas lentes L1 (em cima, $d_f=500~mm$) e L2(em baixo, $d_f=250~mm$) e respetivas calibra\IeC {\c c}\IeC {\~o}es com craveira\relax }}{2}{figure.caption.2}}
\newlabel{planos_fourier}{{2}{2}{Focos para as duas lentes L1 (em cima, $d_f=500~mm$) e L2(em baixo, $d_f=250~mm$) e respetivas calibrações com craveira\relax }{figure.caption.2}{}}
\@writefile{lot}{\contentsline {table}{\numberline {1}{\ignorespaces Frequencias espaciais obtidas\relax }}{3}{table.caption.3}}
\newlabel{tab:freqs}{{1}{3}{Frequencias espaciais obtidas\relax }{table.caption.3}{}}
\@writefile{lof}{\contentsline {figure}{\numberline {3}{\ignorespaces Planos antes e depois do plano de Fourier para o objecto AB (lente L2)\relax }}{3}{figure.caption.4}}
\newlabel{planos_fourier}{{3}{3}{Planos antes e depois do plano de Fourier para o objecto AB (lente L2)\relax }{figure.caption.4}{}}
\@writefile{lof}{\contentsline {figure}{\numberline {4}{\ignorespaces Imagem criada e respetiva transformada de Fourier\relax }}{3}{figure.caption.5}}
\newlabel{sim_plano_fourier}{{4}{3}{Imagem criada e respetiva transformada de Fourier\relax }{figure.caption.5}{}}
\@writefile{lof}{\contentsline {figure}{\numberline {5}{\ignorespaces Imagem original(em cima) e ap\IeC {\'o}s filtragem passa-alto (\IeC {\`a} esquerda) e passa-baixo (\IeC {\`a} direita)\relax }}{3}{figure.caption.6}}
\newlabel{tripla}{{5}{3}{Imagem original(em cima) e após filtragem passa-alto (à esquerda) e passa-baixo (à direita)\relax }{figure.caption.6}{}}
\@writefile{lof}{\contentsline {figure}{\numberline {6}{\ignorespaces Imagem simulada\relax }}{4}{figure.caption.7}}
\newlabel{sim_pi}{{6}{4}{Imagem simulada\relax }{figure.caption.7}{}}
\@writefile{lof}{\contentsline {figure}{\numberline {7}{\ignorespaces Imagem simulada filtrada por um filtro passa-alto(em cima) e passa-baixo(em baixo)\relax }}{4}{figure.caption.8}}
\newlabel{quadrupla}{{7}{4}{Imagem simulada filtrada por um filtro passa-alto(em cima) e passa-baixo(em baixo)\relax }{figure.caption.8}{}}
\@writefile{lof}{\contentsline {figure}{\numberline {8}{\ignorespaces Simula\IeC {\c c}\IeC {\~a}o utilizando a imagem original (passa-alto \IeC {\`a} direita e passa-baixo \IeC {\`a} esquerda)\relax }}{4}{figure.caption.9}}
\newlabel{sim_dupla}{{8}{4}{Simulação utilizando a imagem original (passa-alto à direita e passa-baixo à esquerda)\relax }{figure.caption.9}{}}
\@writefile{lof}{\contentsline {figure}{\numberline {9}{\ignorespaces Filtros de Schlieren vertical e horizontal\relax }}{4}{figure.caption.10}}
\newlabel{duplo_schlieren}{{9}{4}{Filtros de Schlieren vertical e horizontal\relax }{figure.caption.10}{}}
\@writefile{lof}{\contentsline {figure}{\numberline {10}{\ignorespaces Filtros de Schlieren vertical e horizontal simulada\relax }}{4}{figure.caption.11}}
\newlabel{sim_filtros_schlieren}{{10}{4}{Filtros de Schlieren vertical e horizontal simulada\relax }{figure.caption.11}{}}
\@writefile{lof}{\contentsline {figure}{\numberline {11}{\ignorespaces Filtragem de Schlieren vertical e horizontal simulada\relax }}{4}{figure.caption.12}}
\newlabel{sim_schlieren}{{11}{4}{Filtragem de Schlieren vertical e horizontal simulada\relax }{figure.caption.12}{}}
\@writefile{lot}{\contentsline {table}{\numberline {2}{\ignorespaces Dados adquiridos para o estudo da amplia\IeC {\c c}\IeC {\~a}o\relax }}{5}{table.caption.13}}
\newlabel{ampliacoes}{{2}{5}{Dados adquiridos para o estudo da ampliação\relax }{table.caption.13}{}}
\@writefile{lot}{\contentsline {table}{\numberline {3}{\ignorespaces Comprimentos de coer\IeC {\^e}ncia obtidos atrav\IeC {\'e}s do espa\IeC {\c c}amento entre as riscas ($\theta _1$) e atrav\IeC {\'e}s do m\IeC {\'e}todo de confirma\IeC {\c c}\IeC {\~a}o e desvio percentual do m\IeC {\'e}todo de confirma\IeC {\c c}\IeC {\~a}o escolhido em rela\IeC {\c c}\IeC {\~a}o ao m\IeC {\'e}todo proposto\relax }}{5}{table.caption.14}}
\newlabel{angulos}{{3}{5}{Comprimentos de coerência obtidos através do espaçamento entre as riscas ($\theta _1$) e através do método de confirmação e desvio percentual do método de confirmação escolhido em relação ao método proposto\relax }{table.caption.14}{}}
\@writefile{toc}{\contentsline {subsection}{\numberline {II}Interferometria laser}{5}{subsection.2.2}}
\@writefile{toc}{\contentsline {subsubsection}{\numberline {II.1}Caracteriza\IeC {\c c}\IeC {\~a}o do Interfer\IeC {\'o}metro de Michelson}{5}{subsubsection.2.2.1}}
\@writefile{lof}{\contentsline {figure}{\numberline {12}{\ignorespaces Montagem experimental utilizada para caracterizar o Interfer\IeC {\'o}metro de Michelson\relax }}{5}{figure.caption.15}}
\newlabel{2sessao_montagem}{{12}{5}{Montagem experimental utilizada para caracterizar o Interferómetro de Michelson\relax }{figure.caption.15}{}}
\@writefile{lof}{\contentsline {figure}{\numberline {13}{\ignorespaces \IeC {\`A} esquerda uma imagem com o espelho $E1$ tapado (aquele que se encontrava alinhado com o eixo \IeC {\'o}tico) e \IeC {\`a} direita a imagem com ambos os espelhos tapados. Para o c\IeC {\'a}lculo do desvio $\Delta y$ utilizou-se o software $Mathematica$\relax }}{5}{figure.caption.16}}
\newlabel{2esquema_batata}{{13}{5}{À esquerda uma imagem com o espelho $E1$ tapado (aquele que se encontrava alinhado com o eixo ótico) e à direita a imagem com ambos os espelhos tapados. Para o cálculo do desvio $\Delta y$ utilizou-se o software $Mathematica$\relax }{figure.caption.16}{}}
\@writefile{lof}{\contentsline {figure}{\numberline {14}{\ignorespaces Seis exemplos para os padr\IeC {\~o}es obtidos (d=0,2 em cima, d=4,6 no meio e d=8,10.5 em baixo)\relax }}{5}{figure.caption.17}}
\newlabel{coerencia_padroes}{{14}{5}{Seis exemplos para os padrões obtidos (d=0,2 em cima, d=4,6 no meio e d=8,10.5 em baixo)\relax }{figure.caption.17}{}}
\newlabel{angulo}{{14}{6}{Caracterização do Interferómetro de Michelson}{equation.2.14}{}}
\newlabel{coerencia_mudanca_variaveis}{{15}{6}{Caracterização do Interferómetro de Michelson}{equation.2.15}{}}
\@writefile{lof}{\contentsline {figure}{\numberline {15}{\ignorespaces Ajuste aos valores de coer\IeC {\^e}ncia calculados para a 2\IeC {\textordfeminine } sess\IeC {\~a}o\relax }}{6}{figure.caption.18}}
\newlabel{2sessao_coerencia}{{15}{6}{Ajuste aos valores de coerência calculados para a 2ª sessão\relax }{figure.caption.18}{}}
\@writefile{lof}{\contentsline {figure}{\numberline {16}{\ignorespaces Ajuste aos valores de coer\IeC {\^e}ncia calculados para a 3\IeC {\textordfeminine } sess\IeC {\~a}o\relax }}{6}{figure.caption.19}}
\newlabel{3sessao_coerencia}{{16}{6}{Ajuste aos valores de coerência calculados para a 3ª sessão\relax }{figure.caption.19}{}}
\@writefile{lot}{\contentsline {table}{\numberline {4}{\ignorespaces Comprimentos de coer\IeC {\^e}ncia obtidos\relax }}{6}{table.caption.20}}
\newlabel{com}{{4}{6}{Comprimentos de coerência obtidos\relax }{table.caption.20}{}}
\@writefile{toc}{\contentsline {subsubsection}{\numberline {II.2}Determina\IeC {\c c}\IeC {\~a}o do campo de temperatura na vizinhan\IeC {\c c}a de uma ponta aquecida}{6}{subsubsection.2.2.2}}
\@writefile{lof}{\contentsline {figure}{\numberline {17}{\ignorespaces Montagem para verificar temperatura do ferro de soldar\relax }}{6}{figure.caption.21}}
\newlabel{3sessao_montagem}{{17}{6}{Montagem para verificar temperatura do ferro de soldar\relax }{figure.caption.21}{}}
\citation{abel}
\@writefile{lof}{\contentsline {figure}{\numberline {18}{\ignorespaces Risca infinita para T=$200~^oC$ (esquerda abaixo) e $T=450~^oC$ (direita abaixo) e para a temperatura ambiente\relax }}{7}{figure.caption.22}}
\newlabel{3_sessao_risca_infinita}{{18}{7}{Risca infinita para T=$200~^oC$ (esquerda abaixo) e $T=450~^oC$ (direita abaixo) e para a temperatura ambiente\relax }{figure.caption.22}{}}
\@writefile{lof}{\contentsline {figure}{\numberline {19}{\ignorespaces Riscas obtidas para T=$200~^oC$\relax }}{7}{figure.caption.23}}
\newlabel{3sessao_riscas}{{19}{7}{Riscas obtidas para T=$200~^oC$\relax }{figure.caption.23}{}}
\@writefile{lof}{\contentsline {figure}{\numberline {20}{\ignorespaces Pontos de m\IeC {\'a}ximo obtidos para T=$450~^oC$ (exemplo)\relax }}{7}{figure.caption.24}}
\newlabel{3sessao_1_450}{{20}{7}{Pontos de máximo obtidos para T=$450~^oC$ (exemplo)\relax }{figure.caption.24}{}}
\@writefile{lof}{\contentsline {figure}{\numberline {21}{\ignorespaces \IeC {\'I}ndice de refrac\IeC {\c c}\IeC {\~a}o do ar para $T=450~^oC$ (exemplo)\relax }}{7}{figure.caption.25}}
\newlabel{nar}{{21}{7}{Índice de refracção do ar para $T=450~^oC$ (exemplo)\relax }{figure.caption.25}{}}
\@writefile{lof}{\contentsline {figure}{\numberline {22}{\ignorespaces Perfil de temperatura para $T=450~^oC$ (exemplo)\relax }}{8}{figure.caption.26}}
\newlabel{3sessao_1_450_T}{{22}{8}{Perfil de temperatura para $T=450~^oC$ (exemplo)\relax }{figure.caption.26}{}}
\@writefile{lof}{\contentsline {figure}{\numberline {23}{\ignorespaces Perfil de temperatura mais realista para $T=450~^oC$ (exemplo)\relax }}{8}{figure.caption.27}}
\newlabel{temperatura_real}{{23}{8}{Perfil de temperatura mais realista para $T=450~^oC$ (exemplo)\relax }{figure.caption.27}{}}
\@writefile{lot}{\contentsline {table}{\numberline {5}{\ignorespaces Temperaturas \IeC {\`a} superf\IeC {\'\i }cie obtidas com os gr\IeC {\'a}ficos de curvas com espassamento pequeno\relax }}{8}{table.caption.28}}
\newlabel{temperaturas_f}{{5}{8}{Temperaturas à superfície obtidas com os gráficos de curvas com espassamento pequeno\relax }{table.caption.28}{}}
\@writefile{lof}{\contentsline {figure}{\numberline {24}{\ignorespaces Montagem para anemometria\relax }}{8}{figure.caption.29}}
\newlabel{4sessao_montagem}{{24}{8}{Montagem para anemometria\relax }{figure.caption.29}{}}
\@writefile{lof}{\contentsline {figure}{\numberline {25}{\ignorespaces \relax }}{8}{figure.caption.30}}
\newlabel{osciloscopio}{{25}{8}{\relax }{figure.caption.30}{}}
\@writefile{lof}{\contentsline {figure}{\numberline {26}{\ignorespaces Valor de K\relax }}{9}{figure.caption.31}}
\newlabel{K}{{26}{9}{Valor de K\relax }{figure.caption.31}{}}
\@writefile{lof}{\contentsline {figure}{\numberline {27}{\ignorespaces Varia\IeC {\c c}\IeC {\~a}o de amplitude\relax }}{9}{figure.caption.32}}
\newlabel{b}{{27}{9}{Variação de amplitude\relax }{figure.caption.32}{}}
\@writefile{lof}{\contentsline {figure}{\numberline {28}{\ignorespaces Varia\IeC {\c c}\IeC {\~a}o de frequ\IeC {\^e}ncia\relax }}{9}{figure.caption.33}}
\newlabel{a}{{28}{9}{Variação de frequência\relax }{figure.caption.33}{}}
\bibcite{guiaoticac}{1}
\bibcite{oticaF}{2}
\bibcite{angulo}{3}
\bibcite{coerencia}{4}
\bibcite{abel}{5}
\bibcite{guiaanemometria}{6}
\bibcite{oticaF}{7}
\bibcite{anemometria_artigo}{8}
\bibcite{powermeter}{9}
\newlabel{my-label}{{\caption@xref {my-label}{ on input line 119}}{10}{}{table.caption.34}{}}
\@writefile{lot}{\contentsline {table}{\numberline {6}{\ignorespaces Valores de K obtidos segundo v\IeC {\'a}rios m\IeC {\'e}todos\relax }}{10}{table.caption.34}}
\@writefile{toc}{\contentsline {section}{\numberline {III}Conclus\IeC {\~o}es}{10}{section.3}}
