#Magnetic Field (Oe),Voltage (V) 
-100.00, 0.329944 
-99.00, 0.329944 
-98.00, 0.329944 
-97.00, 0.329943 
-96.00, 0.329943 
-95.00, 0.329942 
-94.00, 0.329941 
-93.00, 0.329941 
-92.00, 0.329939 
-91.00, 0.329940 
-90.00, 0.329938 
-89.00, 0.329937 
-88.00, 0.329936 
-87.00, 0.329935 
-86.00, 0.329934 
-85.00, 0.329934 
-84.00, 0.329933 
-83.00, 0.329931 
-82.00, 0.329930 
-81.00, 0.329929 
-80.00, 0.329928 
-79.00, 0.329926 
-78.00, 0.329924 
-77.00, 0.329922 
-76.00, 0.329920 
-75.00, 0.329918 
-74.00, 0.329916 
-73.00, 0.329913 
-72.00, 0.329911 
-71.00, 0.329909 
-70.00, 0.329908 
-69.00, 0.329905 
-68.00, 0.329903 
-67.00, 0.329901 
-66.00, 0.329897 
-65.00, 0.329895 
-64.00, 0.329891 
-63.00, 0.329889 
-62.00, 0.329884 
-61.00, 0.329880 
-60.00, 0.329876 
-59.00, 0.329873 
-58.00, 0.329868 
-57.00, 0.329864 
-56.00, 0.329859 
-55.00, 0.329855 
-54.00, 0.329850 
-53.00, 0.329845 
-52.00, 0.329840 
-51.00, 0.329833 
-50.00, 0.329827 
-49.00, 0.329819 
-48.00, 0.329813 
-47.00, 0.329804 
-46.00, 0.329797 
-45.00, 0.329786 
-44.00, 0.329777 
-43.00, 0.329766 
-42.00, 0.329757 
-41.00, 0.329743 
-40.00, 0.329732 
-39.00, 0.329718 
-38.00, 0.329705 
-37.00, 0.329685 
-36.00, 0.329671 
-35.00, 0.329655 
-34.00, 0.329631 
-33.00, 0.329612 
-32.00, 0.329581 
-31.00, 0.329557 
-30.00, 0.329520 
-29.00, 0.329488 
-28.00, 0.329443 
-27.00, 0.329380 
-26.00, 0.329252 
-25.00, 0.329148 
-24.00, 0.329026 
-23.00, 0.328930 
-22.00, 0.328807 
-21.00, 0.328690 
-20.00, 0.328525 
-19.00, 0.328415 
-18.00, 0.328301 
-17.00, 0.328144 
-16.00, 0.328025 
-15.00, 0.327854 
-14.00, 0.327712 
-13.00, 0.327515 
-12.00, 0.327367 
-11.00, 0.327169 
-10.00, 0.327027 
-9.00, 0.326832 
-8.00, 0.326678 
-7.00, 0.326485 
-6.00, 0.326339 
-5.00, 0.326144 
-4.00, 0.325998 
-3.00, 0.325852 
-2.00, 0.325655 
-1.00, 0.325510 
-1.42E-14, 0.325317 
1.00, 0.325167 
2.00, 0.324964 
3.00, 0.324867 
4.00, 0.324663 
5.00, 0.324511 
6.00, 0.324302 
7.00, 0.324149 
8.00, 0.323945 
9.00, 0.323792 
10.00, 0.323587 
11.00, 0.323429 
12.00, 0.323275 
13.00, 0.323066 
14.00, 0.322909 
15.00, 0.322695 
16.00, 0.322535 
17.00, 0.322323 
18.00, 0.322165 
19.00, 0.321963 
20.00, 0.321817 
21.00, 0.321618 
22.00, 0.321480 
23.00, 0.321300 
24.00, 0.321169 
25.00, 0.320996 
26.00, 0.320867 
27.00, 0.320739 
28.00, 0.320571 
29.00, 0.320446 
30.00, 0.320281 
31.00, 0.320157 
32.00, 0.319995 
33.00, 0.319873 
34.00, 0.319711 
35.00, 0.319578 
36.00, 0.319412 
37.00, 0.319290 
38.00, 0.319132 
39.00, 0.319010 
40.00, 0.318861 
41.00, 0.318755 
42.00, 0.318620 
43.00, 0.318525 
44.00, 0.318433 
45.00, 0.318320 
46.00, 0.318242 
47.00, 0.318144 
48.00, 0.318081 
49.00, 0.318000 
50.00, 0.317947 
51.00, 0.317881 
52.00, 0.317836 
53.00, 0.317782 
54.00, 0.317744 
55.00, 0.317697 
56.00, 0.317663 
57.00, 0.317621 
58.00, 0.317592 
59.00, 0.317554 
60.00, 0.317527 
61.00, 0.317493 
62.00, 0.317468 
63.00, 0.317445 
64.00, 0.317414 
65.00, 0.317392 
66.00, 0.317364 
67.00, 0.317343 
68.00, 0.317317 
69.00, 0.317298 
70.00, 0.317273 
71.00, 0.317255 
72.00, 0.317232 
73.00, 0.317215 
74.00, 0.317194 
75.00, 0.317178 
76.00, 0.317156 
77.00, 0.317141 
78.00, 0.317122 
79.00, 0.317108 
80.00, 0.317095 
81.00, 0.317077 
82.00, 0.317064 
83.00, 0.317048 
84.00, 0.317035 
85.00, 0.317020 
86.00, 0.317008 
87.00, 0.316993 
88.00, 0.316982 
89.00, 0.316968 
90.00, 0.316957 
91.00, 0.316944 
92.00, 0.316934 
93.00, 0.316921 
94.00, 0.316911 
95.00, 0.316902 
96.00, 0.316890 
97.00, 0.316880 
98.00, 0.316868 
99.00, 0.316860 
100.00, 0.316848 
101.00, 0.316840 
101.00, 0.316840 
100.00, 0.316849 
99.00, 0.316862 
98.00, 0.316871 
97.00, 0.316884 
96.00, 0.316893 
95.00, 0.316906 
94.00, 0.316915 
93.00, 0.316925 
92.00, 0.316939 
91.00, 0.316950 
90.00, 0.316964 
89.00, 0.316975 
88.00, 0.316990 
87.00, 0.317001 
86.00, 0.317016 
85.00, 0.317029 
84.00, 0.317045 
83.00, 0.317058 
82.00, 0.317075 
81.00, 0.317089 
80.00, 0.317107 
79.00, 0.317121 
78.00, 0.317136 
77.00, 0.317155 
76.00, 0.317171 
75.00, 0.317192 
74.00, 0.317208 
73.00, 0.317231 
72.00, 0.317249 
71.00, 0.317273 
70.00, 0.317291 
69.00, 0.317315 
68.00, 0.317336 
67.00, 0.317363 
66.00, 0.317384 
65.00, 0.317414 
64.00, 0.317436 
63.00, 0.317468 
62.00, 0.317492 
61.00, 0.317517 
60.00, 0.317552 
59.00, 0.317579 
58.00, 0.317618 
57.00, 0.317648 
56.00, 0.317690 
55.00, 0.317725 
54.00, 0.317772 
53.00, 0.317811 
52.00, 0.317866 
51.00, 0.317911 
50.00, 0.317978 
49.00, 0.318033 
48.00, 0.318113 
47.00, 0.318180 
46.00, 0.318278 
45.00, 0.318357 
44.00, 0.318471 
43.00, 0.318562 
42.00, 0.318659 
41.00, 0.318796 
40.00, 0.318904 
39.00, 0.319052 
38.00, 0.319175 
37.00, 0.319334 
36.00, 0.319455 
35.00, 0.319619 
34.00, 0.319756 
33.00, 0.319920 
32.00, 0.320043 
31.00, 0.320207 
30.00, 0.320329 
29.00, 0.320494 
28.00, 0.320620 
27.00, 0.320789 
26.00, 0.320917 
25.00, 0.321046 
24.00, 0.321219 
23.00, 0.321349 
22.00, 0.321529 
21.00, 0.321666 
20.00, 0.321862 
19.00, 0.322008 
18.00, 0.322211 
17.00, 0.322368 
16.00, 0.322576 
15.00, 0.322737 
14.00, 0.322957 
13.00, 0.323117 
12.00, 0.323326 
11.00, 0.323482 
10.00, 0.323641 
9.00, 0.323850 
8.00, 0.324005 
7.00, 0.324210 
6.00, 0.324361 
5.00, 0.324572 
4.00, 0.324725 
3.00, 0.324930 
2.00, 0.325027 
1.00, 0.325230 
-1.42E-14, 0.325378 
-1.00, 0.325579 
-2.00, 0.325725 
-3.00, 0.325921 
-4.00, 0.326066 
-5.00, 0.326212 
-6.00, 0.326405 
-7.00, 0.326551 
-8.00, 0.326742 
-9.00, 0.326888 
-10.00, 0.327084 
-11.00, 0.327229 
-12.00, 0.327424 
-13.00, 0.327572 
-14.00, 0.327766 
-15.00, 0.327915 
-16.00, 0.328097 
-17.00, 0.328220 
-18.00, 0.328379 
-19.00, 0.328494 
-20.00, 0.328606 
-21.00, 0.328768 
-22.00, 0.328881 
-23.00, 0.329013 
-24.00, 0.329110 
-25.00, 0.329226 
-26.00, 0.329336 
-27.00, 0.329461 
-28.00, 0.329525 
-29.00, 0.329577 
-30.00, 0.329608 
-31.00, 0.329646 
-32.00, 0.329672 
-33.00, 0.329700 
-34.00, 0.329721 
-35.00, 0.329745 
-36.00, 0.329762 
-37.00, 0.329777 
-38.00, 0.329796 
-39.00, 0.329809 
-40.00, 0.329826 
-41.00, 0.329837 
-42.00, 0.329851 
-43.00, 0.329861 
-44.00, 0.329873 
-45.00, 0.329882 
-46.00, 0.329893 
-47.00, 0.329902 
-48.00, 0.329912 
-49.00, 0.329919 
-50.00, 0.329928 
-51.00, 0.329935 
-52.00, 0.329943 
-53.00, 0.329949 
-54.00, 0.329956 
-55.00, 0.329961 
-56.00, 0.329966 
-57.00, 0.329972 
-58.00, 0.329977 
-59.00, 0.329982 
-60.00, 0.329986 
-61.00, 0.329991 
-62.00, 0.329995 
-63.00, 0.330000 
-64.00, 0.330003 
-65.00, 0.330007 
-66.00, 0.330010 
-67.00, 0.330014 
-68.00, 0.330018 
-69.00, 0.330021 
-70.00, 0.330024 
-71.00, 0.330027 
-72.00, 0.330030 
-73.00, 0.330032 
-74.00, 0.330035 
-75.00, 0.330038 
-76.00, 0.330040 
-77.00, 0.330042 
-78.00, 0.330045 
-79.00, 0.330047 
-80.00, 0.330049 
-81.00, 0.330051 
-82.00, 0.330053 
-83.00, 0.330054 
-84.00, 0.330057 
-85.00, 0.330058 
-86.00, 0.330059 
-87.00, 0.330061 
-88.00, 0.330063 
-89.00, 0.330065 
-90.00, 0.330067 
-91.00, 0.330068 
-92.00, 0.330069 
-93.00, 0.330070 
-94.00, 0.330071 
-95.00, 0.330073 
-96.00, 0.330074 
-97.00, 0.330075 
-98.00, 0.330075 
-99.00, 0.330077 
-100.00, 0.330077 
