#Magnetic Field (Oe),Voltage (V) 
-50.00, 0.318364 
-49.00, 0.318392 
-48.00, 0.318415 
-47.00, 0.318444 
-46.00, 0.318467 
-45.00, 0.318499 
-44.00, 0.318522 
-43.00, 0.318552 
-42.00, 0.318576 
-41.00, 0.318607 
-40.00, 0.318631 
-39.00, 0.318663 
-38.00, 0.318688 
-37.00, 0.318721 
-36.00, 0.318744 
-35.00, 0.318768 
-34.00, 0.318800 
-33.00, 0.318824 
-32.00, 0.318857 
-31.00, 0.318882 
-30.00, 0.318915 
-29.00, 0.318940 
-28.00, 0.318973 
-27.00, 0.318999 
-26.00, 0.319032 
-25.00, 0.319059 
-24.00, 0.319093 
-23.00, 0.319118 
-22.00, 0.319153 
-21.00, 0.319178 
-20.00, 0.319213 
-19.00, 0.319238 
-18.00, 0.319265 
-17.00, 0.319300 
-16.00, 0.319327 
-15.00, 0.319362 
-14.00, 0.319389 
-13.00, 0.319425 
-12.00, 0.319453 
-11.00, 0.319489 
-10.00, 0.319516 
-9.00, 0.319553 
-8.00, 0.319580 
-7.00, 0.319619 
-6.00, 0.319647 
-5.00, 0.319683 
-4.00, 0.319715 
-3.00, 0.319744 
-2.00, 0.319782 
-1.00, 0.319812 
-6.22E-15, 0.319854 
1.00, 0.319886 
2.00, 0.319928 
3.00, 0.319950 
4.00, 0.320002 
5.00, 0.320036 
6.00, 0.320065 
7.00, 0.320085 
8.00, 0.320113 
9.00, 0.320138 
10.00, 0.320096 
11.00, 0.320091 
12.00, 0.320083 
13.00, 0.320014 
14.00, 0.320039 
15.00, 0.320079 
16.00, 0.320084 
17.00, 0.319798 
18.00, 0.319745 
19.00, 0.319681 
20.00, 0.319649 
21.00, 0.319603 
22.00, 0.319556 
23.00, 0.319471 
24.00, 0.319387 
25.00, 0.319329 
26.00, 0.319288 
27.00, 0.319244 
28.00, 0.319200 
29.00, 0.319158 
30.00, 0.319113 
31.00, 0.319068 
32.00, 0.319011 
33.00, 0.318970 
34.00, 0.318921 
35.00, 0.318874 
36.00, 0.318825 
37.00, 0.318782 
38.00, 0.318729 
39.00, 0.318694 
40.00, 0.318648 
41.00, 0.318586 
42.00, 0.318535 
43.00, 0.318491 
44.00, 0.318425 
45.00, 0.318379 
46.00, 0.318329 
47.00, 0.318286 
48.00, 0.318246 
49.00, 0.318195 
50.00, 0.318144 
51.00, 0.318103 
51.00, 0.318099 
50.00, 0.318138 
49.00, 0.318169 
48.00, 0.318208 
47.00, 0.318239 
46.00, 0.318281 
45.00, 0.318311 
44.00, 0.318355 
43.00, 0.318386 
42.00, 0.318419 
41.00, 0.318461 
40.00, 0.318496 
39.00, 0.318540 
38.00, 0.318575 
37.00, 0.318619 
36.00, 0.318655 
35.00, 0.318703 
34.00, 0.318739 
33.00, 0.318789 
32.00, 0.318825 
31.00, 0.318875 
30.00, 0.318914 
29.00, 0.318967 
28.00, 0.319006 
27.00, 0.319060 
26.00, 0.319101 
25.00, 0.319141 
24.00, 0.319198 
23.00, 0.319241 
22.00, 0.319300 
21.00, 0.319346 
20.00, 0.319406 
19.00, 0.319453 
18.00, 0.319517 
17.00, 0.319569 
16.00, 0.319638 
15.00, 0.319692 
14.00, 0.319768 
13.00, 0.319823 
12.00, 0.319900 
11.00, 0.319962 
10.00, 0.320026 
9.00, 0.320111 
8.00, 0.320180 
7.00, 0.320280 
6.00, 0.320350 
5.00, 0.320464 
4.00, 0.320576 
3.00, 0.321040 
2.00, 0.321157 
1.00, 0.319934 
-6.22E-15, 0.319925 
-1.00, 0.319922 
-2.00, 0.319927 
-3.00, 0.319894 
-4.00, 0.319910 
-5.00, 0.319894 
-6.00, 0.319889 
-7.00, 0.319856 
-8.00, 0.319821 
-9.00, 0.319798 
-10.00, 0.319759 
-11.00, 0.319730 
-12.00, 0.319687 
-13.00, 0.319657 
-14.00, 0.319621 
-15.00, 0.319596 
-16.00, 0.319561 
-17.00, 0.319534 
-18.00, 0.319476 
-19.00, 0.319452 
-20.00, 0.319422 
-21.00, 0.319387 
-22.00, 0.319362 
-23.00, 0.319327 
-24.00, 0.319299 
-25.00, 0.319265 
-26.00, 0.319238 
-27.00, 0.319204 
-28.00, 0.319180 
-29.00, 0.319146 
-30.00, 0.319118 
-31.00, 0.319087 
-32.00, 0.319056 
-33.00, 0.319022 
-34.00, 0.318997 
-35.00, 0.318964 
-36.00, 0.318938 
-37.00, 0.318912 
-38.00, 0.318872 
-39.00, 0.318849 
-40.00, 0.318815 
-41.00, 0.318790 
-42.00, 0.318753 
-43.00, 0.318726 
-44.00, 0.318694 
-45.00, 0.318655 
-46.00, 0.318623 
-47.00, 0.318592 
-48.00, 0.318561 
-49.00, 0.318536 
-50.00, 0.318499 
