#Magnetic Field (Oe),Voltage (V) 
-400.00, 0.188405 
-395.00, 0.188419 
-390.00, 0.188454 
-385.00, 0.188494 
-380.00, 0.188516 
-375.00, 0.188560 
-370.00, 0.188609 
-365.00, 0.188661 
-360.00, 0.188694 
-355.00, 0.188760 
-350.00, 0.188827 
-345.00, 0.188863 
-340.00, 0.188953 
-335.00, 0.189039 
-330.00, 0.189098 
-325.00, 0.189200 
-320.00, 0.189337 
-315.00, 0.189385 
-310.00, 0.189544 
-305.00, 0.189747 
-300.00, 0.189975 
-295.00, 0.190115 
-290.00, 0.190397 
-285.00, 0.190683 
-280.00, 0.191068 
-275.00, 0.191523 
-270.00, 0.192042 
-265.00, 0.192456 
-260.00, 0.192869 
-255.00, 0.193319 
-250.00, 0.193704 
-245.00, 0.194146 
-240.00, 0.194559 
-235.00, 0.194875 
-230.00, 0.195122 
-225.00, 0.195271 
-220.00, 0.195368 
-215.00, 0.195453 
-210.00, 0.195506 
-205.00, 0.195550 
-200.00, 0.195587 
-195.00, 0.195616 
-190.00, 0.195646 
-185.00, 0.195667 
-180.00, 0.195698 
-175.00, 0.195712 
-170.00, 0.195735 
-165.00, 0.195751 
-160.00, 0.195763 
-155.00, 0.195773 
-150.00, 0.195786 
-145.00, 0.195794 
-140.00, 0.195801 
-135.00, 0.195808 
-130.00, 0.195819 
-125.00, 0.195825 
-120.00, 0.195830 
-115.00, 0.195838 
-110.00, 0.195842 
-105.00, 0.195846 
-100.00, 0.195848 
-95.00, 0.195851 
-90.00, 0.195853 
-85.00, 0.195855 
-80.00, 0.195855 
-75.00, 0.195855 
-70.00, 0.195854 
-65.00, 0.195853 
-60.00, 0.195850 
-55.00, 0.195846 
-50.00, 0.195840 
-45.00, 0.195831 
-40.00, 0.195818 
-35.00, 0.195799 
-30.00, 0.195766 
-25.00, 0.195712 
-20.00, 0.195590 
-15.00, 0.195298 
-10.00, 0.194825 
-5.00, 0.194085 
-3.06E-14, 0.193330 
5.00, 0.192578 
10.00, 0.191704 
15.00, 0.190558 
20.00, 0.189757 
25.00, 0.189284 
30.00, 0.188950 
35.00, 0.188761 
40.00, 0.188529 
45.00, 0.188403 
50.00, 0.188314 
55.00, 0.188202 
60.00, 0.188105 
65.00, 0.188060 
70.00, 0.187991 
75.00, 0.187958 
80.00, 0.187928 
85.00, 0.187874 
90.00, 0.187852 
95.00, 0.187832 
100.00, 0.187813 
105.00, 0.187795 
110.00, 0.187779 
115.00, 0.187765 
120.00, 0.187752 
125.00, 0.187739 
130.00, 0.187714 
135.00, 0.187704 
140.00, 0.187694 
145.00, 0.187685 
150.00, 0.187677 
155.00, 0.187669 
160.00, 0.187661 
165.00, 0.187655 
170.00, 0.187649 
175.00, 0.187643 
180.00, 0.187637 
185.00, 0.187631 
190.00, 0.187625 
195.00, 0.187620 
200.00, 0.187615 
205.00, 0.187611 
210.00, 0.187607 
215.00, 0.187602 
220.00, 0.187599 
225.00, 0.187595 
230.00, 0.187592 
235.00, 0.187588 
240.00, 0.187584 
245.00, 0.187580 
250.00, 0.187577 
255.00, 0.187574 
260.00, 0.187571 
265.00, 0.187569 
270.00, 0.187566 
275.00, 0.187563 
280.00, 0.187560 
285.00, 0.187557 
290.00, 0.187554 
295.00, 0.187552 
300.00, 0.187549 
305.00, 0.187547 
310.00, 0.187545 
315.00, 0.187542 
320.00, 0.187540 
325.00, 0.187539 
330.00, 0.187536 
335.00, 0.187534 
340.00, 0.187532 
345.00, 0.187531 
350.00, 0.187528 
355.00, 0.187522 
360.00, 0.187521 
365.00, 0.187518 
370.00, 0.187518 
375.00, 0.187517 
380.00, 0.187515 
385.00, 0.187514 
390.00, 0.187513 
395.00, 0.187512 
400.00, 0.187510 
405.00, 0.187509 
405.00, 0.187509 
400.00, 0.187512 
395.00, 0.187513 
390.00, 0.187515 
385.00, 0.187517 
380.00, 0.187519 
375.00, 0.187521 
370.00, 0.187522 
365.00, 0.187524 
360.00, 0.187526 
355.00, 0.187527 
350.00, 0.187529 
345.00, 0.187531 
340.00, 0.187532 
335.00, 0.187535 
330.00, 0.187537 
325.00, 0.187540 
320.00, 0.187541 
315.00, 0.187544 
310.00, 0.187546 
305.00, 0.187547 
300.00, 0.187551 
295.00, 0.187553 
290.00, 0.187555 
285.00, 0.187558 
280.00, 0.187560 
275.00, 0.187563 
270.00, 0.187566 
265.00, 0.187568 
260.00, 0.187571 
255.00, 0.187574 
250.00, 0.187577 
245.00, 0.187580 
240.00, 0.187582 
235.00, 0.187587 
230.00, 0.187590 
225.00, 0.187594 
220.00, 0.187597 
215.00, 0.187601 
210.00, 0.187605 
205.00, 0.187609 
200.00, 0.187614 
195.00, 0.187619 
190.00, 0.187623 
185.00, 0.187629 
180.00, 0.187634 
175.00, 0.187640 
170.00, 0.187646 
165.00, 0.187652 
160.00, 0.187658 
155.00, 0.187665 
150.00, 0.187672 
145.00, 0.187680 
140.00, 0.187688 
135.00, 0.187697 
130.00, 0.187706 
125.00, 0.187717 
120.00, 0.187727 
115.00, 0.187740 
110.00, 0.187752 
105.00, 0.187767 
100.00, 0.187781 
95.00, 0.187799 
90.00, 0.187817 
85.00, 0.187837 
80.00, 0.187861 
75.00, 0.187886 
70.00, 0.187915 
65.00, 0.187948 
60.00, 0.187986 
55.00, 0.188030 
50.00, 0.188087 
45.00, 0.188159 
40.00, 0.188262 
35.00, 0.188405 
30.00, 0.188568 
25.00, 0.188784 
20.00, 0.189105 
15.00, 0.189871 
10.00, 0.190815 
5.00, 0.191822 
-3.06E-14, 0.192644 
-5.00, 0.193452 
-10.00, 0.194269 
-15.00, 0.194976 
-20.00, 0.195382 
-25.00, 0.195575 
-30.00, 0.195675 
-35.00, 0.195735 
-40.00, 0.195769 
-45.00, 0.195793 
-50.00, 0.195810 
-55.00, 0.195822 
-60.00, 0.195832 
-65.00, 0.195839 
-70.00, 0.195844 
-75.00, 0.195848 
-80.00, 0.195851 
-85.00, 0.195853 
-90.00, 0.195854 
-95.00, 0.195854 
-100.00, 0.195853 
-105.00, 0.195851 
-110.00, 0.195849 
-115.00, 0.195847 
-120.00, 0.195843 
-125.00, 0.195840 
-130.00, 0.195837 
-135.00, 0.195832 
-140.00, 0.195827 
-145.00, 0.195820 
-150.00, 0.195813 
-155.00, 0.195807 
-160.00, 0.195799 
-165.00, 0.195789 
-170.00, 0.195779 
-175.00, 0.195768 
-180.00, 0.195756 
-185.00, 0.195742 
-190.00, 0.195727 
-195.00, 0.195709 
-200.00, 0.195689 
-205.00, 0.195666 
-210.00, 0.195636 
-215.00, 0.195606 
-220.00, 0.195569 
-225.00, 0.195531 
-230.00, 0.195481 
-235.00, 0.195420 
-240.00, 0.195352 
-245.00, 0.195271 
-250.00, 0.195156 
-255.00, 0.195037 
-260.00, 0.194874 
-265.00, 0.194638 
-270.00, 0.194377 
-275.00, 0.194046 
-280.00, 0.193553 
-285.00, 0.193046 
-290.00, 0.192492 
-295.00, 0.191864 
-300.00, 0.191550 
-305.00, 0.190836 
-310.00, 0.190381 
-315.00, 0.189878 
-320.00, 0.189693 
-325.00, 0.189374 
-330.00, 0.189149 
-335.00, 0.189041 
-340.00, 0.188859 
-345.00, 0.188677 
-350.00, 0.188624 
-355.00, 0.188535 
-360.00, 0.188459 
-365.00, 0.188431 
-370.00, 0.188366 
-375.00, 0.188307 
-380.00, 0.188255 
-385.00, 0.188231 
-390.00, 0.188188 
-395.00, 0.188148 
-400.00, 0.188127 
