1. 292.
2. 292.
3. 292.
4. 292.
5. 292.
6. 292.
7. 292.
8. 292.
9. 295.
10. 295.
11. 292.
12. 292.
13. 292.
14. 292.
15. 291.
16. 290.
17. 291.
18. 293.
19. 293.
20. 294.
21. 292.
22. 292.
23. 294.5
24. 295.
25. 293.
26. 293.
27. 293.
28. 293.
29. 292.
30. 292.
31. 291.5
32. 292.
33. 291.
34. 293.
35. 293.
36. 294.
37. 293.
38. 293.
39. 293.
40. 293.
41. 291.5
42. 292.
43. 292.
44. 292.
45. 294.
46. 293.
47. 293.
48. 292.5
49. 295.
49. 293.
50. 295.
51. 294.5
53. 293.
54. 293.
55. 293.
56. 293.5
57. 292.
58. 292.
59. 295.
60. 295.
61. 294.
62. 292.
63. 292.
64. 292.
65. 293.
66. 293.
67. 294.
68. 294.
69. 294.
70. 294.5
71. 292.5
72. 292.
73. 294.
74. 293.
75. 293.
76. 293.5
77. 295.
78. 295.
79. 292.
80. 292.
83. 292.5
84. 295.
85. 294.
86. 294.
87. 293.
88. 293.
89. 293.5
90. 293.
91. 293.
92. 298.5
93. 295.
94. 295.
95. 295.
96. 295.
97. 295.
98. 295.
99. 295.
100. 295.
101. 294.
102. 294.
103. 295.
104. 295.
105. 293.
106. 294.
107. 294.
108. 295.
109. 295.
110. 295.
111. 295.
112. 293.
113. 295.
114. 295.
115. 295.
116. 295.
117. 295.
118. 295.
119. 295.
120. 295.
121. 296.
122. 296.
123. 296.
125. 295.
126. 295.
127. 295.
128. 295.
129. 295.
130. 295.
131. 295.
132. 296.
133. 295.
134. 296.
135. 299.
136. 299.
137. 295.
138. 295.
139. 295.
140. 296.
141. 297.5
142. 297.
143. 300.
144. 300.
145. 295.
146. 295.
147. 296.
148. 296.
149. 296.
150. 296.
151. 296.
152. 296.
153. 295.
154. 297.
155. 297.
156. 297.
157. 296.
158. 295.
159. 292.
160. 296.
161. 297.
161. 295.
162. 297.
163. 298.
164. 298.
165. 296.
166. 296.
167. 299.
168. 299.
169. 295.
170. 295.
171. 296.
172. 296.
173. 296.
174. 296.
175. 296.
176. 296.
177. 294.
178. 297.5
179. 297.
180. 303.
181. 303.
182. 300.
183. 299.
184. 299.
185. 303.
186. 300.5
187. 300.
188. 300.
189. 299.
190. 299.
191. 299.
193. 300.
194. 299.
195. 300.
196. 300.
197. 296.
198. 296.
199. 300.
200. 300.
201. 303.
202. 300.5
203. 300.
204. 300.
205. 301.
206. 301.
207. 301.
208. 304.
209. 303.
210. 300.
211. 300.
212. 305.
213. 302.
214. 308.
216. 303.
217. 303.
218. 307.
219. 307.
220. 307.
221. 306.
222. 306.
223. 307.
224. 307.
225. 308.
226. 306.
227. 307.
228. 308.
229. 309.
230. 309.5
231. 309.
232. 309.5
233. 307.
234. 311.
235. 311.
236. 315.
237. 313.
238. 313.
239. 313.5
240. 314.5
241. 315.
242. 318.5
243. 320.
244. 320.
245. 319.
246. 319.
247. 319.
248. 319.
249. 319.
250. 320.
251. 320.
252. 319.
253. 322.5
254. 323.
255. 323.
256. 323.
257. 324.
258. 324.
259. 324.
260. 327.
261. 328.
262. 328.
263. 329.
264. 329.
265. 330.
267. 331.
268. 331.
269. 333.
270. 333.
271. 333.
272. 330.
273. 336.
274. 332.
275. 337.
276. 337.
277. 339.
278. 339.
279. 339.
280. 339.
281. 344.
282. 344.
283. 343.
284. 341.5
285. 343.
286. 342.
287. 348.
288. 344.
290. 343.
291. 343.
292. 355.
292. 352.5
349. 347.5
350. 347.
351. 351.
352. 352.
353. 351.
354. 348.
355. 348.
356. 346.
357. 343.
358. 343.
359. 343.
360. 343.
361. 341.
362. 341.
363. 340.
364. 340.
365. 339.
365. 336.
366. 339.
368. 338.
369. 338.
370. 338.
371. 337.
372. 337.
373. 335.
374. 335.
376. 335.
377. 333.5
378. 333.
379. 332.
380. 332.
381. 331.
382. 331.
383. 331.
384. 331.
385. 327.
386. 327.
387. 326.
388. 326.
389. 324.
390. 324.
391. 324.
392. 324.
393. 323.
394. 323.
395. 322.5
396. 321.
397. 320.
398. 320.
399. 320.
400. 320.
401. 319.
402. 319.
403. 319.
404. 319.
405. 319.
406. 319.
407. 316.
408. 316.
409. 316.
410. 315.
411. 314.
412. 313.5
413. 314.
414. 313.
415. 314.
416. 313.5
417. 311.
418. 311.
421. 311.
422. 310.5
423. 310.
424. 310.
425. 310.
426. 309.5
427. 309.
428. 308.
429. 308.
430. 306.
431. 307.
432. 304.
433. 308.
434. 308.
435. 307.
436. 307.
437. 307.
438. 307.
439. 307.
440. 307.
441. 307.
442. 307.
443. 307.
444. 307.
445. 307.
446. 307.
447. 307.
448. 304.5
449. 305.
450. 305.
451. 305.
452. 305.
453. 304.
454. 304.
455. 304.
456. 304.
457. 304.
458. 304.
459. 304.
460. 303.
461. 303.
462. 303.
463. 304.
464. 304.
465. 304.
466. 303.
467. 304.
468. 304.
469. 303.
470. 303.
471. 304.
472. 304.
473. 303.
474. 303.
475. 303.
476. 303.
477. 303.
478. 303.
479. 303.5
480. 304.
481. 303.
482. 303.
483. 303.
484. 303.
485. 303.
486. 303.
487. 303.
488. 303.
489. 303.
490. 303.
491. 303.
492. 303.
493. 303.
494. 303.
495. 303.
496. 303.5
497. 303.
498. 303.
499. 303.
500. 303.
501. 303.
502. 303.
503. 303.
504. 303.
505. 303.
506. 303.
507. 303.
508. 303.
509. 303.
510. 303.
511. 303.5
512. 303.
513. 303.
514. 303.
515. 303.
516. 303.
517. 304.
518. 303.
519. 303.
520. 303.
521. 303.
522. 303.
523. 303.
524. 303.
525. 303.
526. 303.
527. 303.
528. 303.
529. 303.
530. 303.
531. 303.
532. 303.
533. 302.
534. 301.
535. 301.5
536. 301.5
537. 303.
538. 303.
539. 303.
540. 303.
541. 303.
542. 303.
543. 303.
544. 303.
545. 303.
546. 303.
547. 303.
548. 303.
549. 303.
550. 303.
551. 303.
552. 303.
553. 303.
554. 303.
555. 303.
556. 303.
557. 303.
558. 303.
559. 303.
560. 303.
561. 303.
562. 303.
563. 303.
564. 303.
565. 303.
566. 303.
567. 303.
568. 303.
569. 303.
570. 303.
571. 303.
572. 303.
573. 303.
574. 303.
575. 303.
576. 303.
577. 303.
578. 303.
579. 303.
580. 303.
581. 303.
582. 303.
583. 303.
584. 303.
585. 303.
586. 303.
587. 303.
588. 303.
589. 303.
590. 303.
591. 303.
592. 303.
593. 303.
594. 303.
595. 303.
596. 303.
597. 304.5
598. 303.
599. 303.
600. 303.
601. 303.
602. 303.
603. 303.
604. 303.
605. 303.
606. 303.
607. 303.
608. 303.
609. 303.
610. 303.
611. 303.
612. 303.5
613. 304.
614. 304.
615. 304.
616. 303.
617. 303.
618. 303.
619. 303.
620. 304.
621. 303.
622. 303.
623. 303.
624. 303.
625. 303.
626. 303.
627. 304.
628. 304.
631. 300.5
632. 301.
633. 303.
634. 303.
635. 303.
636. 303.
637. 303.
638. 303.5
639. 304.
640. 304.