1. 383.
2. 386.
3. 385.5
4. 386.
5. 384.
6. 384.
7. 384.
8. 385.
9. 386.
10. 385.
11. 385.
12. 385.
13. 384.
14. 383.
15. 384.
16. 384.
17. 387.
18. 387.
19. 387.
20. 383.
21. 383.
22. 386.5
23. 383.
24. 384.
25. 384.5
28. 387.
29. 387.
30. 387.
31. 388.5
32. 384.
33. 382.
34. 382.
35. 376.5
36. 376.
37. 382.
39. 388.
40. 388.
41. 384.
42. 384.
43. 387.
44. 386.5
45. 391.
46. 381.5
47. 384.
48. 384.
49. 383.
50. 383.
51. 385.
52. 386.
53. 384.
54. 383.
55. 383.
56. 384.
57. 383.
58. 383.
59. 385.
60. 386.5
62. 384.
63. 383.
64. 383.
65. 383.
66. 383.
67. 384.
68. 384.
69. 386.
70. 385.
71. 385.
72. 385.
73. 385.
74. 385.
75. 385.
76. 385.
77. 383.
78. 384.
79. 384.
80. 384.
81. 384.
82. 384.
83. 384.
84. 384.
85. 385.
86. 385.
87. 385.
88. 385.
89. 384.
90. 384.
91. 384.
92. 384.
93. 383.
95. 384.
96. 385.
97. 383.
98. 383.
99. 384.
100. 387.
101. 385.
102. 385.
103. 385.
104. 385.
105. 384.
106. 384.
107. 384.
108. 384.
109. 385.
110. 385.
111. 388.
112. 386.
113. 384.
114. 383.
115. 383.
116. 386.
117. 383.
118. 383.
119. 384.
120. 384.
122. 383.
123. 383.
124. 384.5
125. 384.
126. 384.
127. 383.
128. 387.
129. 385.5
130. 386.
131. 386.
132. 385.5
133. 387.
134. 387.
135. 387.
136. 387.
137. 383.
138. 387.
139. 388.
140. 388.
141. 387.
142. 387.
143. 386.
144. 385.
145. 387.
146. 387.
148. 384.
149. 387.
150. 387.
151. 387.
152. 387.
153. 388.
154. 388.
155. 388.
156. 388.
157. 388.
158. 388.
159. 387.5
160. 388.
162. 387.
163. 387.
164. 389.
165. 390.5
166. 390.
167. 387.
167. 384.
169. 391.
170. 391.
171. 391.
172. 391.
173. 391.
173. 388.
174. 392.
175. 392.
176. 387.
177. 391.
178. 391.
179. 392.
180. 392.
181. 392.
182. 392.
183. 395.
184. 395.
185. 395.
186. 395.
187. 395.
188. 395.
189. 399.
190. 399.
191. 396.
193. 400.
193. 396.
193. 394.
194. 399.5
195. 397.5
196. 397.5
197. 399.
198. 399.
199. 399.
200. 399.
201. 403.
202. 399.
203. 399.
204. 404.
204. 400.
205. 402.
206. 401.
207. 403.
208. 403.
209. 404.
210. 403.
211. 403.
212. 404.
213. 407.
214. 407.
215. 407.
216. 407.
217. 407.
218. 407.
219. 407.
220. 408.5
221. 410.
222. 411.
223. 411.
224. 414.
225. 413.
226. 412.
227. 415.
228. 414.5
229. 415.
230. 419.
231. 416.
232. 416.
233. 418.
234. 418.
235. 419.
236. 419.
237. 422.
238. 422.
239. 421.5
240. 421.5
241. 423.
242. 423.
243. 423.5
244. 427.
245. 424.
246. 424.
247. 427.
248. 427.
249. 427.
250. 427.
251. 428.
252. 428.
253. 429.5
254. 431.
255. 431.
256. 432.5
257. 432.5
258. 435.
259. 435.
260. 435.
261. 435.
262. 435.
263. 437.5
264. 437.
265. 439.
266. 439.
267. 439.
268. 440.
269. 439.5
270. 440.
271. 440.
272. 443.
273. 442.
274. 442.5
275. 443.
276. 447.
278. 446.
279. 440.5
280. 451.
357. 437.
358. 440.5
359. 444.
360. 448.
361. 451.
362. 447.
363. 446.5
364. 445.
365. 442.
366. 442.
368. 443.
369. 443.
370. 443.
371. 440.
372. 440.
373. 443.
374. 443.
376. 439.
377. 439.
378. 439.
379. 436.
380. 436.
381. 435.
382. 432.
383. 432.
384. 437.
385. 430.
386. 435.
387. 431.
388. 435.
389. 428.
390. 428.
391. 428.
392. 428.
393. 431.
394. 425.
395. 427.
396. 427.
397. 428.
397. 424.
398. 424.
399. 427.
400. 427.
401. 423.
403. 420.
404. 419.
405. 424.
406. 424.
408. 418.5
409. 419.
410. 419.
411. 417.5
412. 422.
413. 420.
414. 418.5
415. 416.
416. 416.
417. 415.
418. 415.
421. 413.
422. 412.5
423. 412.
424. 412.
425. 411.
426. 411.
427. 411.
428. 411.
429. 409.5
430. 409.5
431. 410.
432. 409.5
433. 407.
434. 407.
435. 407.
436. 407.
437. 407.
438. 407.
439. 404.
440. 404.
441. 406.
442. 405.5
443. 405.5
444. 405.
445. 402.
446. 402.
447. 403.
448. 406.
448. 403.
449. 403.
450. 403.
451. 403.
452. 403.
453. 400.
454. 400.
455. 400.
456. 400.
457. 399.
458. 399.
459. 399.
460. 399.
461. 400.
462. 400.
463. 400.
464. 400.
465. 399.
466. 399.
467. 398.
468. 398.
468. 396.
469. 399.
470. 399.
471. 398.
472. 397.
473. 396.
474. 399.
475. 399.
476. 398.
477. 396.
478. 396.
479. 396.
480. 396.
481. 396.
482. 396.
483. 396.
484. 396.
485. 396.
486. 396.
487. 396.
488. 396.
489. 396.
490. 396.
491. 396.
492. 396.
493. 396.
494. 396.
495. 396.
496. 396.
497. 396.
498. 396.
499. 396.
500. 395.
501. 396.
502. 396.
503. 396.
504. 396.
505. 396.
506. 396.
507. 396.
508. 396.
509. 395.5
510. 396.
511. 395.
512. 395.
513. 396.
514. 396.
515. 396.
516. 396.
517. 396.
518. 396.
519. 396.
520. 396.
521. 396.
522. 396.
523. 396.
524. 396.
525. 396.
526. 396.
527. 396.
528. 396.
529. 396.
530. 396.
531. 396.
532. 396.
533. 396.
534. 396.
535. 396.
536. 396.
537. 396.
538. 396.
539. 396.
540. 396.
541. 396.
542. 396.
543. 396.
544. 396.
545. 396.
546. 396.
547. 396.
548. 396.
549. 396.
550. 396.
551. 396.
552. 396.
553. 396.
554. 396.
555. 396.
556. 396.
557. 397.
558. 397.
559. 397.
560. 398.
561. 397.
562. 397.
563. 397.
564. 397.
565. 397.
566. 397.
567. 397.
568. 397.
569. 398.
570. 398.
571. 398.
572. 397.
573. 398.
574. 397.
575. 397.
576. 397.
577. 398.
578. 397.5
579. 397.
580. 397.5
581. 397.
582. 398.
583. 398.
584. 397.5
585. 399.
586. 399.
587. 399.
588. 399.
589. 398.
590. 398.
591. 398.
592. 398.
593. 398.
594. 398.
595. 398.
596. 398.
597. 399.
598. 399.5
599. 400.
600. 396.5
601. 399.
602. 399.
603. 399.
604. 399.
605. 399.
606. 399.
607. 399.
608. 400.
609. 399.
610. 399.
611. 399.
612. 399.
613. 399.
614. 399.
615. 399.
616. 399.
617. 399.
618. 399.
619. 399.
620. 399.
621. 400.
622. 400.
623. 400.
624. 400.
625. 399.
626. 399.
627. 399.
628. 399.
629. 399.
630. 399.
631. 399.
632. 399.5
633. 399.
634. 399.
635. 400.
636. 400.
637. 400.
638. 400.
639. 400.
640. 400.