1. 272.
2. 272.
3. 275.
4. 275.
5. 271.
8. 275.
9. 276.
10. 276.
11. 274.
12. 271.
13. 272.
14. 272.
15. 272.
16. 272.
21. 272.
22. 272.
23. 272.
24. 272.
25. 271.
26. 271.
27. 271.
28. 271.
29. 272.
30. 272.
31. 272.
32. 272.
33. 271.
34. 271.
35. 271.
36. 274.
37. 274.
38. 272.5
39. 274.5
40. 272.
42. 273.5
43. 273.
44. 275.
44. 272.
49. 273.5
50. 274.
53. 271.
54. 272.5
55. 272.5
57. 271.
59. 273.
60. 272.
63. 273.5
64. 273.5
73. 273.
76. 273.
77. 275.
78. 275.
81. 275.
82. 275.
83. 275.
84. 275.
85. 273.5
86. 273.
87. 276.
88. 276.
89. 273.5
90. 276.
91. 276.
92. 267.
93. 275.
94. 275.
95. 272.
96. 272.
97. 275.
98. 275.
99. 275.
100. 275.
101. 276.
102. 276.
103. 276.
104. 276.
105. 275.
106. 275.
107. 275.
108. 275.
109. 275.
110. 275.
111. 275.
112. 275.
113. 276.
114. 276.
115. 275.
116. 275.
118. 276.
119. 276.
120. 275.
122. 275.
123. 275.
124. 275.
125. 276.
126. 276.
127. 275.
128. 275.
131. 276.
132. 277.
136. 277.
137. 275.
138. 275.
139. 274.5
140. 273.5
141. 279.
144. 276.
145. 279.
146. 279.
147. 279.
148. 279.
151. 276.
152. 277.
153. 276.
154. 279.
155. 279.
156. 276.
161. 276.
162. 276.
163. 276.
167. 278.5
168. 279.
172. 277.
176. 279.
179. 283.
179. 280.
181. 279.
182. 279.
183. 280.
184. 280.
188. 277.
189. 283.
190. 283.
191. 280.
192. 280.
193. 280.
196. 283.
197. 283.
198. 283.
199. 283.
200. 283.
205. 282.
209. 287.
210. 287.
213. 287.
214. 287.
215. 288.
216. 290.5
220. 290.
221. 291.
222. 291.
224. 299.
225. 295.
226. 295.
230. 296.5
231. 299.5
231. 296.5
233. 300.
234. 300.
238. 305.
239. 307.5
240. 308.
241. 311.
242. 311.
243. 300.5
244. 315.
245. 314.
246. 314.
248. 316.5
249. 319.
251. 319.
252. 327.
252. 324.
253. 326.
254. 329.
256. 330.
257. 333.5
258. 335.
260. 341.
260. 339.
261. 342.
261. 339.
262. 341.
263. 347.
264. 349.5
264. 347.
265. 351.
268. 355.
269. 357.
270. 360.
271. 363.
272. 364.
272. 362.
273. 367.
274. 368.
275. 368.
276. 370.
277. 374.5
278. 375.
278. 372.
280. 378.
281. 379.
282. 382.
283. 378.
285. 384.
286. 394.
287. 394.5
288. 382.
288. 380.
296. 397.5
297. 397.
298. 395.
299. 392.
324. 312.
357. 383.5
359. 392.
361. 407.
361. 405.
361. 401.
363. 397.5
364. 393.5
365. 384.
366. 384.
367. 388.
368. 387.5
369. 387.5
369. 385.
370. 382.5
371. 381.
372. 382.
373. 378.
374. 378.5
375. 376.
376. 373.
377. 374.
378. 372.
379. 371.
379. 368.
380. 368.
381. 364.
382. 363.5
383. 364.
384. 364.
385. 361.5
386. 359.
387. 358.
389. 356.
390. 355.
391. 355.
392. 352.
393. 350.5
394. 351.
395. 347.
396. 347.
397. 341.5
398. 342.
399. 341.
400. 339.5
401. 343.
401. 341.
403. 333.
404. 332.5
405. 330.
406. 330.5
407. 328.5
408. 329.
409. 330.
410. 324.
411. 323.5
412. 324.5
413. 320.
414. 320.
415. 320.
416. 320.
417. 319.
418. 316.5
420. 315.
421. 312.5
422. 312.
423. 312.
424. 310.
425. 311.
426. 311.
427. 310.
428. 310.
429. 307.
430. 307.
431. 304.
432. 305.
433. 303.
434. 306.
435. 306.5
436. 300.5
440. 299.
441. 302.
442. 301.5
443. 301.5
444. 301.
445. 300.
446. 300.
447. 300.
448. 300.
449. 299.
450. 299.
451. 299.
452. 299.
453. 296.5
454. 299.
454. 296.5
455. 298.
456. 297.5
459. 296.
460. 296.
461. 295.
462. 295.
465. 297.
466. 297.
467. 297.
468. 298.
469. 296.
472. 296.
473. 295.
474. 295.
477. 293.
517. 292.
518. 292.
519. 292.
520. 292.
521. 292.
522. 292.
523. 292.
524. 292.
525. 294.
526. 293.
529. 295.
530. 295.
531. 294.5
532. 295.
532. 292.
533. 296.
534. 296.
535. 296.
536. 293.
540. 296.
541. 293.
542. 294.5
543. 293.
545. 296.
546. 296.
547. 295.5
548. 295.
549. 294.
550. 294.
551. 296.
551. 294.
552. 294.
553. 295.
554. 295.
555. 296.
556. 296.
557. 295.5
558. 295.
559. 296.
560. 296.
562. 296.
563. 296.
564. 294.
565. 295.
566. 295.
567. 295.
568. 295.
569. 295.
570. 295.
571. 295.
572. 296.
573. 295.
574. 295.
575. 296.
576. 297.5
577. 298.5
577. 294.5
578. 294.
579. 294.
580. 298.5
581. 298.5
582. 299.
583. 296.
584. 296.
585. 298.
586. 298.
587. 297.
588. 297.
589. 295.
590. 299.
591. 299.
592. 299.
593. 298.
594. 298.
595. 295.
596. 295.
597. 298.
598. 298.
599. 297.
600. 295.
601. 298.
602. 297.
603. 299.
604. 295.
605. 297.
606. 298.
607. 298.5
607. 296.
608. 299.
609. 300.
610. 299.5
610. 297.
611. 297.
612. 296.
613. 298.
614. 300.
615. 300.
616. 300.
617. 298.
618. 297.
619. 298.
620. 298.
621. 300.5
622. 300.
623. 299.
624. 296.
625. 298.
626. 297.5
627. 300.
628. 300.
629. 299.
630. 299.
631. 299.
632. 299.
633. 299.
634. 299.
635. 299.
636. 299.5
637. 297.
638. 299.
638. 296.
639. 302.
640. 302.