<?xml version="1.0" encoding="UTF-8" standalone="no"?>
<!-- Created with Inkscape (http://www.inkscape.org/) -->

<svg
   xmlns:dc="http://purl.org/dc/elements/1.1/"
   xmlns:cc="http://creativecommons.org/ns#"
   xmlns:rdf="http://www.w3.org/1999/02/22-rdf-syntax-ns#"
   xmlns:svg="http://www.w3.org/2000/svg"
   xmlns="http://www.w3.org/2000/svg"
   xmlns:sodipodi="http://sodipodi.sourceforge.net/DTD/sodipodi-0.dtd"
   xmlns:inkscape="http://www.inkscape.org/namespaces/inkscape"
   id="svg2"
   version="1.1"
   inkscape:version="0.91 r"
   xml:space="preserve"
   width="708.75"
   height="366.25"
   viewBox="0 0 708.75 366.25"
   sodipodi:docname="estimativa_erros.svg"><metadata
     id="metadata8"><rdf:RDF><cc:Work
         rdf:about=""><dc:format>image/svg+xml</dc:format><dc:type
           rdf:resource="http://purl.org/dc/dcmitype/StillImage" /><dc:title></dc:title></cc:Work></rdf:RDF></metadata><defs
     id="defs6"><marker
       inkscape:stockid="Arrow2Lend"
       orient="auto"
       refY="0.0"
       refX="0.0"
       id="Arrow2Lend"
       style="overflow:visible;"
       inkscape:isstock="true"><path
         id="path4547"
         style="fill-rule:evenodd;stroke-width:0.625;stroke-linejoin:round;stroke:#000000;stroke-opacity:1;fill:#000000;fill-opacity:1"
         d="M 8.7185878,4.0337352 L -2.2072895,0.016013256 L 8.7185884,-4.0017078 C 6.9730900,-1.6296469 6.9831476,1.6157441 8.7185878,4.0337352 z "
         transform="scale(1.1) rotate(180) translate(1,0)" /></marker><marker
       inkscape:stockid="TriangleInL"
       orient="auto"
       refY="0.0"
       refX="0.0"
       id="TriangleInL"
       style="overflow:visible"
       inkscape:isstock="true"><path
         id="path4659"
         d="M 5.77,0.0 L -2.88,5.0 L -2.88,-5.0 L 5.77,0.0 z "
         style="fill-rule:evenodd;stroke:#000000;stroke-width:1pt;stroke-opacity:1;fill:#000000;fill-opacity:1"
         transform="scale(-0.8)" /></marker><marker
       inkscape:stockid="Arrow2Lstart"
       orient="auto"
       refY="0.0"
       refX="0.0"
       id="Arrow2Lstart"
       style="overflow:visible"
       inkscape:isstock="true"><path
         id="path4544"
         style="fill-rule:evenodd;stroke-width:0.625;stroke-linejoin:round;stroke:#000000;stroke-opacity:1;fill:#000000;fill-opacity:1"
         d="M 8.7185878,4.0337352 L -2.2072895,0.016013256 L 8.7185884,-4.0017078 C 6.9730900,-1.6296469 6.9831476,1.6157441 8.7185878,4.0337352 z "
         transform="scale(1.1) translate(1,0)" /></marker><marker
       inkscape:stockid="TriangleOutL"
       orient="auto"
       refY="0.0"
       refX="0.0"
       id="TriangleOutL"
       style="overflow:visible"
       inkscape:isstock="true"><path
         id="path4668"
         d="M 5.77,0.0 L -2.88,5.0 L -2.88,-5.0 L 5.77,0.0 z "
         style="fill-rule:evenodd;stroke:#000000;stroke-width:1pt;stroke-opacity:1;fill:#000000;fill-opacity:1"
         transform="scale(0.8)" /></marker><marker
       inkscape:stockid="Arrow2Mend"
       orient="auto"
       refY="0.0"
       refX="0.0"
       id="Arrow2Mend"
       style="overflow:visible;"
       inkscape:isstock="true"><path
         id="path4553"
         style="fill-rule:evenodd;stroke-width:0.625;stroke-linejoin:round;stroke:#000000;stroke-opacity:1;fill:#000000;fill-opacity:1"
         d="M 8.7185878,4.0337352 L -2.2072895,0.016013256 L 8.7185884,-4.0017078 C 6.9730900,-1.6296469 6.9831476,1.6157441 8.7185878,4.0337352 z "
         transform="scale(0.6) rotate(180) translate(0,0)" /></marker><marker
       inkscape:stockid="Arrow1Lstart"
       orient="auto"
       refY="0.0"
       refX="0.0"
       id="Arrow1Lstart"
       style="overflow:visible"
       inkscape:isstock="true"><path
         id="path4526"
         d="M 0.0,0.0 L 5.0,-5.0 L -12.5,0.0 L 5.0,5.0 L 0.0,0.0 z "
         style="fill-rule:evenodd;stroke:#000000;stroke-width:1pt;stroke-opacity:1;fill:#000000;fill-opacity:1"
         transform="scale(0.8) translate(12.5,0)" /></marker><marker
       inkscape:stockid="Arrow1Lend"
       orient="auto"
       refY="0.0"
       refX="0.0"
       id="Arrow1Lend"
       style="overflow:visible;"
       inkscape:isstock="true"><path
         id="path4529"
         d="M 0.0,0.0 L 5.0,-5.0 L -12.5,0.0 L 5.0,5.0 L 0.0,0.0 z "
         style="fill-rule:evenodd;stroke:#000000;stroke-width:1pt;stroke-opacity:1;fill:#000000;fill-opacity:1"
         transform="scale(0.8) rotate(180) translate(12.5,0)" /></marker><clipPath
       clipPathUnits="userSpaceOnUse"
       id="clipPath68"><path
         d="m 0,0 566.929,0 0,292.923 L 0,292.923 0,0 Z"
         id="path70"
         inkscape:connector-curvature="0" /></clipPath><clipPath
       clipPathUnits="userSpaceOnUse"
       id="clipPath132"><path
         d="m 0,0 566.929,0 0,292.923 L 0,292.923 0,0 Z"
         id="path134"
         inkscape:connector-curvature="0" /></clipPath><clipPath
       clipPathUnits="userSpaceOnUse"
       id="clipPath146"><path
         d="m 0,0 566.929,0 0,292.923 L 0,292.923 0,0 Z"
         id="path148"
         inkscape:connector-curvature="0" /></clipPath><clipPath
       clipPathUnits="userSpaceOnUse"
       id="clipPath160"><path
         d="m 0,0 566.929,0 0,292.923 L 0,292.923 0,0 Z"
         id="path162"
         inkscape:connector-curvature="0" /></clipPath><clipPath
       clipPathUnits="userSpaceOnUse"
       id="clipPath174"><path
         d="m 0,0 566.929,0 0,292.923 L 0,292.923 0,0 Z"
         id="path176"
         inkscape:connector-curvature="0" /></clipPath><clipPath
       clipPathUnits="userSpaceOnUse"
       id="clipPath188"><path
         d="m 0,0 566.929,0 0,292.923 L 0,292.923 0,0 Z"
         id="path190"
         inkscape:connector-curvature="0" /></clipPath><clipPath
       clipPathUnits="userSpaceOnUse"
       id="clipPath202"><path
         d="m 0,0 566.929,0 0,292.923 L 0,292.923 0,0 Z"
         id="path204"
         inkscape:connector-curvature="0" /></clipPath><clipPath
       clipPathUnits="userSpaceOnUse"
       id="clipPath216"><path
         d="m 0,0 566.929,0 0,292.923 L 0,292.923 0,0 Z"
         id="path218"
         inkscape:connector-curvature="0" /></clipPath><clipPath
       clipPathUnits="userSpaceOnUse"
       id="clipPath232"><path
         d="m 0,0 566.929,0 0,292.923 L 0,292.923 0,0 Z"
         id="path234"
         inkscape:connector-curvature="0" /></clipPath><clipPath
       clipPathUnits="userSpaceOnUse"
       id="clipPath298"><path
         d="m 0,0 566.929,0 0,292.923 L 0,292.923 0,0 Z"
         id="path300"
         inkscape:connector-curvature="0" /></clipPath><clipPath
       clipPathUnits="userSpaceOnUse"
       id="clipPath312"><path
         d="m 0,0 566.929,0 0,292.923 L 0,292.923 0,0 Z"
         id="path314"
         inkscape:connector-curvature="0" /></clipPath><clipPath
       clipPathUnits="userSpaceOnUse"
       id="clipPath326"><path
         d="m 0,0 566.929,0 0,292.923 L 0,292.923 0,0 Z"
         id="path328"
         inkscape:connector-curvature="0" /></clipPath><clipPath
       clipPathUnits="userSpaceOnUse"
       id="clipPath340"><path
         d="m 0,0 566.929,0 0,292.923 L 0,292.923 0,0 Z"
         id="path342"
         inkscape:connector-curvature="0" /></clipPath><clipPath
       clipPathUnits="userSpaceOnUse"
       id="clipPath354"><path
         d="m 0,0 566.929,0 0,292.923 L 0,292.923 0,0 Z"
         id="path356"
         inkscape:connector-curvature="0" /></clipPath><clipPath
       clipPathUnits="userSpaceOnUse"
       id="clipPath368"><path
         d="m 0,0 566.929,0 0,292.923 L 0,292.923 0,0 Z"
         id="path370"
         inkscape:connector-curvature="0" /></clipPath><marker
       inkscape:stockid="Arrow2Lend"
       orient="auto"
       refY="0"
       refX="0"
       id="Arrow2Lend-5"
       style="overflow:visible"
       inkscape:isstock="true"><path
         inkscape:connector-curvature="0"
         id="path4547-1"
         style="fill:#000000;fill-opacity:1;fill-rule:evenodd;stroke:#000000;stroke-width:0.625;stroke-linejoin:round;stroke-opacity:1"
         d="M 8.7185878,4.0337352 -2.2072895,0.01601326 8.7185884,-4.0017078 c -1.7454984,2.3720609 -1.7354408,5.6174519 -6e-7,8.035443 z"
         transform="matrix(-1.1,0,0,-1.1,-1.1,0)" /></marker><marker
       inkscape:stockid="Arrow2Lstart"
       orient="auto"
       refY="0"
       refX="0"
       id="Arrow2Lstart-2"
       style="overflow:visible"
       inkscape:isstock="true"><path
         inkscape:connector-curvature="0"
         id="path4544-7"
         style="fill:#000000;fill-opacity:1;fill-rule:evenodd;stroke:#000000;stroke-width:0.625;stroke-linejoin:round;stroke-opacity:1"
         d="M 8.7185878,4.0337352 -2.2072895,0.01601326 8.7185884,-4.0017078 c -1.7454984,2.3720609 -1.7354408,5.6174519 -6e-7,8.035443 z"
         transform="matrix(1.1,0,0,1.1,1.1,0)" /></marker><marker
       inkscape:stockid="Arrow2Lend"
       orient="auto"
       refY="0"
       refX="0"
       id="Arrow2Lend-5-9"
       style="overflow:visible"
       inkscape:isstock="true"><path
         inkscape:connector-curvature="0"
         id="path4547-1-2"
         style="fill:#000000;fill-opacity:1;fill-rule:evenodd;stroke:#000000;stroke-width:0.625;stroke-linejoin:round;stroke-opacity:1"
         d="M 8.7185878,4.0337352 -2.2072895,0.01601326 8.7185884,-4.0017078 c -1.7454984,2.3720609 -1.7354408,5.6174519 -6e-7,8.035443 z"
         transform="matrix(-1.1,0,0,-1.1,-1.1,0)" /></marker><marker
       inkscape:stockid="Arrow2Lstart"
       orient="auto"
       refY="0"
       refX="0"
       id="Arrow2Lstart-2-3"
       style="overflow:visible"
       inkscape:isstock="true"><path
         inkscape:connector-curvature="0"
         id="path4544-7-3"
         style="fill:#000000;fill-opacity:1;fill-rule:evenodd;stroke:#000000;stroke-width:0.625;stroke-linejoin:round;stroke-opacity:1"
         d="M 8.7185878,4.0337352 -2.2072895,0.01601326 8.7185884,-4.0017078 c -1.7454984,2.3720609 -1.7354408,5.6174519 -6e-7,8.035443 z"
         transform="matrix(1.1,0,0,1.1,1.1,0)" /></marker></defs><sodipodi:namedview
     pagecolor="#ffffff"
     bordercolor="#666666"
     borderopacity="1"
     objecttolerance="10"
     gridtolerance="10"
     guidetolerance="10"
     inkscape:pageopacity="0"
     inkscape:pageshadow="2"
     inkscape:window-width="1920"
     inkscape:window-height="1018"
     id="namedview4"
     showgrid="false"
     showguides="true"
     inkscape:guide-bbox="true"
     inkscape:zoom="1.7439153"
     inkscape:cx="356.11901"
     inkscape:cy="222.68824"
     inkscape:window-x="0"
     inkscape:window-y="0"
     inkscape:window-maximized="1"
     inkscape:current-layer="g10" /><g
     id="g10"
     inkscape:groupmode="layer"
     inkscape:label="estimativa_erros"
     transform="matrix(1.25,0,0,-1.25,0,366.25)"><g
       id="g12"><path
         d="m 0,0 566.929,0 0,292.923 L 0,292.923 0,0 Z"
         style="fill:#ffffff;fill-opacity:1;fill-rule:evenodd;stroke:#ffffff;stroke-width:0.002;stroke-linecap:butt;stroke-linejoin:miter;stroke-miterlimit:10;stroke-dasharray:none;stroke-opacity:1"
         id="path14"
         inkscape:connector-curvature="0" /></g><g
       id="g16"><path
         d="m 63.3531,29.7258 454.031,0 0,234.091 -454.031,0 0,-234.091 z"
         style="fill:#ffffff;fill-opacity:1;fill-rule:evenodd;stroke:#ffffff;stroke-width:0.002;stroke-linecap:butt;stroke-linejoin:miter;stroke-miterlimit:10;stroke-dasharray:none;stroke-opacity:1"
         id="path18"
         inkscape:connector-curvature="0" /></g><path
       d="m 63.3531,29.7258 454.031,0 0,234.091 -454.031,0 0,-234.091 z"
       style="fill:none;stroke:#000000;stroke-width:0.75;stroke-linecap:butt;stroke-linejoin:miter;stroke-miterlimit:10;stroke-dasharray:none;stroke-opacity:1"
       id="path20"
       inkscape:connector-curvature="0" /><g
       id="g22"
       transform="translate(-0.6881068,1.1468447)"><path
         d="m 63.3531,29.7258 454.031,0 0,234.091 -454.031,0 0,-234.091 z"
         style="fill:#ffffff;fill-opacity:1;fill-rule:evenodd;stroke:#ffffff;stroke-width:0.002;stroke-linecap:butt;stroke-linejoin:miter;stroke-miterlimit:10;stroke-dasharray:none;stroke-opacity:1"
         id="path24"
         inkscape:connector-curvature="0" /></g><path
       d="m 63.3531,29.7258 454.031,0 0,234.091 -454.031,0 0,-234.091 z"
       style="fill:none;stroke:#000000;stroke-width:0.75;stroke-linecap:butt;stroke-linejoin:miter;stroke-miterlimit:10;stroke-dasharray:none;stroke-opacity:1"
       id="path26"
       inkscape:connector-curvature="0" /><path
       d="m 63.3531,29.7258 454.0309,0"
       style="fill:none;stroke:#000000;stroke-width:0.75;stroke-linecap:butt;stroke-linejoin:miter;stroke-miterlimit:10;stroke-dasharray:none;stroke-opacity:1"
       id="path28"
       inkscape:connector-curvature="0" /><path
       d="m 101.189,263.817 0,-234.0912"
       style="fill:none;stroke:#000000;stroke-width:0.75;stroke-linecap:butt;stroke-linejoin:miter;stroke-miterlimit:10;stroke-dasharray:1, 2;stroke-dashoffset:0;stroke-opacity:1"
       id="path30"
       inkscape:connector-curvature="0" /><path
       d="m 195.779,263.817 0,-234.0912"
       style="fill:none;stroke:#000000;stroke-width:0.75;stroke-linecap:butt;stroke-linejoin:miter;stroke-miterlimit:10;stroke-dasharray:1, 2;stroke-dashoffset:0;stroke-opacity:1"
       id="path32"
       inkscape:connector-curvature="0" /><path
       d="m 290.368,263.817 0,-234.0912"
       style="fill:none;stroke:#000000;stroke-width:0.75;stroke-linecap:butt;stroke-linejoin:miter;stroke-miterlimit:10;stroke-dasharray:1, 2;stroke-dashoffset:0;stroke-opacity:1"
       id="path34"
       inkscape:connector-curvature="0" /><path
       d="m 384.958,263.817 0,-234.0912"
       style="fill:none;stroke:#000000;stroke-width:0.75;stroke-linecap:butt;stroke-linejoin:miter;stroke-miterlimit:10;stroke-dasharray:1, 2;stroke-dashoffset:0;stroke-opacity:1"
       id="path36"
       inkscape:connector-curvature="0" /><path
       d="m 479.548,263.817 0,-234.0912"
       style="fill:none;stroke:#000000;stroke-width:0.75;stroke-linecap:butt;stroke-linejoin:miter;stroke-miterlimit:10;stroke-dasharray:1, 2;stroke-dashoffset:0;stroke-opacity:1"
       id="path38"
       inkscape:connector-curvature="0" /><path
       d="m 101.189,263.817 0,-234.0912"
       style="fill:none;stroke:#000000;stroke-width:0.75;stroke-linecap:butt;stroke-linejoin:miter;stroke-miterlimit:10;stroke-dasharray:1, 2;stroke-dashoffset:0;stroke-opacity:1"
       id="path40"
       inkscape:connector-curvature="0" /><path
       d="m 479.548,263.817 0,-234.0912"
       style="fill:none;stroke:#000000;stroke-width:0.75;stroke-linecap:butt;stroke-linejoin:miter;stroke-miterlimit:10;stroke-dasharray:1, 2;stroke-dashoffset:0;stroke-opacity:1"
       id="path42"
       inkscape:connector-curvature="0" /><path
       d="m 63.3531,29.7258 0,234.0912"
       style="fill:none;stroke:#000000;stroke-width:0.75;stroke-linecap:butt;stroke-linejoin:miter;stroke-miterlimit:10;stroke-dasharray:none;stroke-opacity:1"
       id="path44"
       inkscape:connector-curvature="0" /><path
       d="m 517.384,61.1768 -454.0309,0"
       style="fill:none;stroke:#000000;stroke-width:0.75;stroke-linecap:butt;stroke-linejoin:miter;stroke-miterlimit:10;stroke-dasharray:1, 2;stroke-dashoffset:0;stroke-opacity:1"
       id="path46"
       inkscape:connector-curvature="0" /><path
       d="m 517.384,100.988 -454.0309,0"
       style="fill:none;stroke:#000000;stroke-width:0.75;stroke-linecap:butt;stroke-linejoin:miter;stroke-miterlimit:10;stroke-dasharray:1, 2;stroke-dashoffset:0;stroke-opacity:1"
       id="path48"
       inkscape:connector-curvature="0" /><path
       d="m 517.384,140.8 -454.0309,0"
       style="fill:none;stroke:#000000;stroke-width:0.75;stroke-linecap:butt;stroke-linejoin:miter;stroke-miterlimit:10;stroke-dasharray:1, 2;stroke-dashoffset:0;stroke-opacity:1"
       id="path50"
       inkscape:connector-curvature="0" /><path
       d="m 517.384,180.611 -454.0309,0"
       style="fill:none;stroke:#000000;stroke-width:0.75;stroke-linecap:butt;stroke-linejoin:miter;stroke-miterlimit:10;stroke-dasharray:1, 2;stroke-dashoffset:0;stroke-opacity:1"
       id="path52"
       inkscape:connector-curvature="0" /><path
       d="m 517.384,220.422 -454.0309,0"
       style="fill:none;stroke:#000000;stroke-width:0.75;stroke-linecap:butt;stroke-linejoin:miter;stroke-miterlimit:10;stroke-dasharray:1, 2;stroke-dashoffset:0;stroke-opacity:1"
       id="path54"
       inkscape:connector-curvature="0" /><path
       d="m 517.384,260.234 -454.0309,0"
       style="fill:none;stroke:#000000;stroke-width:0.75;stroke-linecap:butt;stroke-linejoin:miter;stroke-miterlimit:10;stroke-dasharray:1, 2;stroke-dashoffset:0;stroke-opacity:1"
       id="path56"
       inkscape:connector-curvature="0" /><path
       d="m 517.384,61.1768 -454.0309,0"
       style="fill:none;stroke:#000000;stroke-width:0.75;stroke-linecap:butt;stroke-linejoin:miter;stroke-miterlimit:10;stroke-dasharray:1, 2;stroke-dashoffset:0;stroke-opacity:1"
       id="path58"
       inkscape:connector-curvature="0" /><path
       d="m 517.384,260.234 -454.0309,0"
       style="fill:none;stroke:#000000;stroke-width:0.75;stroke-linecap:butt;stroke-linejoin:miter;stroke-miterlimit:10;stroke-dasharray:1, 2;stroke-dashoffset:0;stroke-opacity:1"
       id="path60"
       inkscape:connector-curvature="0" /><path
       d="m 63.3531,29.7258 454.0309,0"
       style="fill:none;stroke:#000000;stroke-width:0.75;stroke-linecap:butt;stroke-linejoin:miter;stroke-miterlimit:10;stroke-dasharray:none;stroke-opacity:1"
       id="path62"
       inkscape:connector-curvature="0" /><g
       id="g64"><g
         id="g66"
         clip-path="url(#clipPath68)"><g
           id="g72"
           transform="translate(492.147,10.9366)"><text
             transform="scale(1,-1)"
             style="font-variant:normal;font-weight:normal;font-size:9.45866966px;font-family:Helvetica;-inkscape-font-specification:Helvetica;writing-mode:lr-tb;fill:#000000;fill-opacity:1;fill-rule:nonzero;stroke:none"
             id="text74"><tspan
               x="0 6.8291597 9.9788971 17.337742 22.596762"
               y="0"
               sodipodi:role="line"
               id="tspan76">H(Oe)</tspan></text>
</g></g></g><path
       d="m 101.189,36.7635 0,-7.0377"
       style="fill:none;stroke:#000000;stroke-width:0.75;stroke-linecap:butt;stroke-linejoin:miter;stroke-miterlimit:10;stroke-dasharray:none;stroke-opacity:1"
       id="path78"
       inkscape:connector-curvature="0" /><path
       d="m 120.107,33.2447 0,-3.5189"
       style="fill:none;stroke:#000000;stroke-width:0.75;stroke-linecap:butt;stroke-linejoin:miter;stroke-miterlimit:10;stroke-dasharray:none;stroke-opacity:1"
       id="path80"
       inkscape:connector-curvature="0" /><path
       d="m 139.025,33.2447 0,-3.5189"
       style="fill:none;stroke:#000000;stroke-width:0.75;stroke-linecap:butt;stroke-linejoin:miter;stroke-miterlimit:10;stroke-dasharray:none;stroke-opacity:1"
       id="path82"
       inkscape:connector-curvature="0" /><path
       d="m 157.943,33.2447 0,-3.5189"
       style="fill:none;stroke:#000000;stroke-width:0.75;stroke-linecap:butt;stroke-linejoin:miter;stroke-miterlimit:10;stroke-dasharray:none;stroke-opacity:1"
       id="path84"
       inkscape:connector-curvature="0" /><path
       d="m 176.861,33.2447 0,-3.5189"
       style="fill:none;stroke:#000000;stroke-width:0.75;stroke-linecap:butt;stroke-linejoin:miter;stroke-miterlimit:10;stroke-dasharray:none;stroke-opacity:1"
       id="path86"
       inkscape:connector-curvature="0" /><path
       d="m 195.779,36.7635 0,-7.0377"
       style="fill:none;stroke:#000000;stroke-width:0.75;stroke-linecap:butt;stroke-linejoin:miter;stroke-miterlimit:10;stroke-dasharray:none;stroke-opacity:1"
       id="path88"
       inkscape:connector-curvature="0" /><path
       d="m 214.697,33.2447 0,-3.5189"
       style="fill:none;stroke:#000000;stroke-width:0.75;stroke-linecap:butt;stroke-linejoin:miter;stroke-miterlimit:10;stroke-dasharray:none;stroke-opacity:1"
       id="path90"
       inkscape:connector-curvature="0" /><path
       d="m 233.615,33.2447 0,-3.5189"
       style="fill:none;stroke:#000000;stroke-width:0.75;stroke-linecap:butt;stroke-linejoin:miter;stroke-miterlimit:10;stroke-dasharray:none;stroke-opacity:1"
       id="path92"
       inkscape:connector-curvature="0" /><path
       d="m 252.533,33.2447 0,-3.5189"
       style="fill:none;stroke:#000000;stroke-width:0.75;stroke-linecap:butt;stroke-linejoin:miter;stroke-miterlimit:10;stroke-dasharray:none;stroke-opacity:1"
       id="path94"
       inkscape:connector-curvature="0" /><path
       d="m 271.451,33.2447 0,-3.5189"
       style="fill:none;stroke:#000000;stroke-width:0.75;stroke-linecap:butt;stroke-linejoin:miter;stroke-miterlimit:10;stroke-dasharray:none;stroke-opacity:1"
       id="path96"
       inkscape:connector-curvature="0" /><path
       d="m 290.368,36.7635 0,-7.0377"
       style="fill:none;stroke:#000000;stroke-width:0.75;stroke-linecap:butt;stroke-linejoin:miter;stroke-miterlimit:10;stroke-dasharray:none;stroke-opacity:1"
       id="path98"
       inkscape:connector-curvature="0" /><path
       d="m 309.286,33.2447 0,-3.5189"
       style="fill:none;stroke:#000000;stroke-width:0.75;stroke-linecap:butt;stroke-linejoin:miter;stroke-miterlimit:10;stroke-dasharray:none;stroke-opacity:1"
       id="path100"
       inkscape:connector-curvature="0" /><path
       d="m 328.204,33.2447 0,-3.5189"
       style="fill:none;stroke:#000000;stroke-width:0.75;stroke-linecap:butt;stroke-linejoin:miter;stroke-miterlimit:10;stroke-dasharray:none;stroke-opacity:1"
       id="path102"
       inkscape:connector-curvature="0" /><path
       d="m 347.122,33.2447 0,-3.5189"
       style="fill:none;stroke:#000000;stroke-width:0.75;stroke-linecap:butt;stroke-linejoin:miter;stroke-miterlimit:10;stroke-dasharray:none;stroke-opacity:1"
       id="path104"
       inkscape:connector-curvature="0" /><path
       d="m 366.04,33.2447 0,-3.5189"
       style="fill:none;stroke:#000000;stroke-width:0.75;stroke-linecap:butt;stroke-linejoin:miter;stroke-miterlimit:10;stroke-dasharray:none;stroke-opacity:1"
       id="path106"
       inkscape:connector-curvature="0" /><path
       d="m 384.958,36.7635 0,-7.0377"
       style="fill:none;stroke:#000000;stroke-width:0.75;stroke-linecap:butt;stroke-linejoin:miter;stroke-miterlimit:10;stroke-dasharray:none;stroke-opacity:1"
       id="path108"
       inkscape:connector-curvature="0" /><path
       d="m 403.876,33.2447 0,-3.5189"
       style="fill:none;stroke:#000000;stroke-width:0.75;stroke-linecap:butt;stroke-linejoin:miter;stroke-miterlimit:10;stroke-dasharray:none;stroke-opacity:1"
       id="path110"
       inkscape:connector-curvature="0" /><path
       d="m 422.794,33.2447 0,-3.5189"
       style="fill:none;stroke:#000000;stroke-width:0.75;stroke-linecap:butt;stroke-linejoin:miter;stroke-miterlimit:10;stroke-dasharray:none;stroke-opacity:1"
       id="path112"
       inkscape:connector-curvature="0" /><path
       d="m 441.712,33.2447 0,-3.5189"
       style="fill:none;stroke:#000000;stroke-width:0.75;stroke-linecap:butt;stroke-linejoin:miter;stroke-miterlimit:10;stroke-dasharray:none;stroke-opacity:1"
       id="path114"
       inkscape:connector-curvature="0" /><path
       d="m 460.63,33.2447 0,-3.5189"
       style="fill:none;stroke:#000000;stroke-width:0.75;stroke-linecap:butt;stroke-linejoin:miter;stroke-miterlimit:10;stroke-dasharray:none;stroke-opacity:1"
       id="path116"
       inkscape:connector-curvature="0" /><path
       d="m 479.548,36.7635 0,-7.0377"
       style="fill:none;stroke:#000000;stroke-width:0.75;stroke-linecap:butt;stroke-linejoin:miter;stroke-miterlimit:10;stroke-dasharray:none;stroke-opacity:1"
       id="path118"
       inkscape:connector-curvature="0" /><path
       d="m 101.189,36.7635 0,-7.0377"
       style="fill:none;stroke:#000000;stroke-width:0.75;stroke-linecap:butt;stroke-linejoin:miter;stroke-miterlimit:10;stroke-dasharray:none;stroke-opacity:1"
       id="path120"
       inkscape:connector-curvature="0" /><path
       d="m 82.2711,33.2447 0,-3.5189"
       style="fill:none;stroke:#000000;stroke-width:0.75;stroke-linecap:butt;stroke-linejoin:miter;stroke-miterlimit:10;stroke-dasharray:none;stroke-opacity:1"
       id="path122"
       inkscape:connector-curvature="0" /><path
       d="m 479.548,36.7635 0,-7.0377"
       style="fill:none;stroke:#000000;stroke-width:0.75;stroke-linecap:butt;stroke-linejoin:miter;stroke-miterlimit:10;stroke-dasharray:none;stroke-opacity:1"
       id="path124"
       inkscape:connector-curvature="0" /><path
       d="m 498.466,33.2447 0,-3.5189"
       style="fill:none;stroke:#000000;stroke-width:0.75;stroke-linecap:butt;stroke-linejoin:miter;stroke-miterlimit:10;stroke-dasharray:none;stroke-opacity:1"
       id="path126"
       inkscape:connector-curvature="0" /><g
       id="g128"><g
         id="g130"
         clip-path="url(#clipPath132)"><g
           id="g136"
           transform="translate(101.681,20.0997)"><text
             transform="scale(1,-1)"
             style="font-variant:normal;font-weight:normal;font-size:9.45866966px;font-family:Helvetica;-inkscape-font-specification:Helvetica;writing-mode:lr-tb;fill:#000000;fill-opacity:1;fill-rule:nonzero;stroke:none"
             id="text138"><tspan
               x="0"
               y="0"
               id="tspan140">1</tspan></text>
</g></g></g><g
       id="g142"><g
         id="g144"
         clip-path="url(#clipPath146)"><g
           id="g150"
           transform="translate(96.6558,20.0997)"><text
             transform="scale(1,-1)"
             style="font-variant:normal;font-weight:normal;font-size:9.45866966px;font-family:Symbol;-inkscape-font-specification:Symbol;writing-mode:lr-tb;fill:#000000;fill-opacity:1;fill-rule:nonzero;stroke:none"
             id="text152"><tspan
               x="0"
               y="0"
               id="tspan154">−</tspan></text>
</g></g></g><g
       id="g156"><g
         id="g158"
         clip-path="url(#clipPath160)"><g
           id="g164"
           transform="translate(191.538,20.0997)"><text
             transform="scale(1,-1)"
             style="font-variant:normal;font-weight:normal;font-size:9.45866966px;font-family:Helvetica;-inkscape-font-specification:Helvetica;writing-mode:lr-tb;fill:#000000;fill-opacity:1;fill-rule:nonzero;stroke:none"
             id="text166"><tspan
               x="0 5.2590203 7.8885307"
               y="0"
               sodipodi:role="line"
               id="tspan168">0.5</tspan></text>
</g></g></g><g
       id="g170"><g
         id="g172"
         clip-path="url(#clipPath174)"><g
           id="g178"
           transform="translate(186.513,20.0997)"><text
             transform="scale(1,-1)"
             style="font-variant:normal;font-weight:normal;font-size:9.45866966px;font-family:Symbol;-inkscape-font-specification:Symbol;writing-mode:lr-tb;fill:#000000;fill-opacity:1;fill-rule:nonzero;stroke:none"
             id="text180"><tspan
               x="0"
               y="0"
               id="tspan182">−</tspan></text>
</g></g></g><g
       id="g184"><g
         id="g186"
         clip-path="url(#clipPath188)"><g
           id="g192"
           transform="translate(287.603,20.0997)"><text
             transform="scale(1,-1)"
             style="font-variant:normal;font-weight:normal;font-size:9.45866966px;font-family:Helvetica;-inkscape-font-specification:Helvetica;writing-mode:lr-tb;fill:#000000;fill-opacity:1;fill-rule:nonzero;stroke:none"
             id="text194"><tspan
               x="0"
               y="0"
               id="tspan196">0</tspan></text>
</g></g></g><g
       id="g198"><g
         id="g200"
         clip-path="url(#clipPath202)"><g
           id="g206"
           transform="translate(378.347,20.0997)"><text
             transform="scale(1,-1)"
             style="font-variant:normal;font-weight:normal;font-size:9.45866966px;font-family:Helvetica;-inkscape-font-specification:Helvetica;writing-mode:lr-tb;fill:#000000;fill-opacity:1;fill-rule:nonzero;stroke:none"
             id="text208"><tspan
               x="0 5.2590203 7.8885307"
               y="0"
               sodipodi:role="line"
               id="tspan210">0.5</tspan></text>
</g></g></g><g
       id="g212"><g
         id="g214"
         clip-path="url(#clipPath216)"><g
           id="g220"
           transform="translate(477.663,20.0997)"><text
             transform="scale(1,-1)"
             style="font-variant:normal;font-weight:normal;font-size:9.45866966px;font-family:Helvetica;-inkscape-font-specification:Helvetica;writing-mode:lr-tb;fill:#000000;fill-opacity:1;fill-rule:nonzero;stroke:none"
             id="text222"><tspan
               x="0"
               y="0"
               id="tspan224">1</tspan></text>
</g></g></g><path
       d="m 63.3531,29.7258 0,234.0912"
       style="fill:none;stroke:#000000;stroke-width:0.75;stroke-linecap:butt;stroke-linejoin:miter;stroke-miterlimit:10;stroke-dasharray:none;stroke-opacity:1"
       id="path226"
       inkscape:connector-curvature="0" /><g
       id="g228"><g
         id="g230"
         clip-path="url(#clipPath232)"><g
           id="g236"
           transform="matrix(0,1,-1,0,24.5334,237.649)"><text
             transform="scale(1,-1)"
             style="font-variant:normal;font-weight:normal;font-size:9.45866966px;font-family:Helvetica;-inkscape-font-specification:Helvetica;writing-mode:lr-tb;fill:#000000;fill-opacity:1;fill-rule:nonzero;stroke:none"
             id="text238"><tspan
               x="0 6.3089328 9.4586697 17.337742 23.646675"
               y="0"
               sodipodi:role="line"
               id="tspan240">V(mV)</tspan></text>
</g></g></g><path
       d="m 76.945,61.1768 -13.5919,0"
       style="fill:none;stroke:#000000;stroke-width:0.75;stroke-linecap:butt;stroke-linejoin:miter;stroke-miterlimit:10;stroke-dasharray:none;stroke-opacity:1"
       id="path242"
       inkscape:connector-curvature="0" /><path
       d="m 70.1491,71.1297 -6.796,0"
       style="fill:none;stroke:#000000;stroke-width:0.75;stroke-linecap:butt;stroke-linejoin:miter;stroke-miterlimit:10;stroke-dasharray:none;stroke-opacity:1"
       id="path244"
       inkscape:connector-curvature="0" /><path
       d="m 70.1491,81.0825 -6.796,0"
       style="fill:none;stroke:#000000;stroke-width:0.75;stroke-linecap:butt;stroke-linejoin:miter;stroke-miterlimit:10;stroke-dasharray:none;stroke-opacity:1"
       id="path246"
       inkscape:connector-curvature="0" /><path
       d="m 70.1491,91.0353 -6.796,0"
       style="fill:none;stroke:#000000;stroke-width:0.75;stroke-linecap:butt;stroke-linejoin:miter;stroke-miterlimit:10;stroke-dasharray:none;stroke-opacity:1"
       id="path248"
       inkscape:connector-curvature="0" /><path
       d="m 76.945,100.988 -13.5919,0"
       style="fill:none;stroke:#000000;stroke-width:0.75;stroke-linecap:butt;stroke-linejoin:miter;stroke-miterlimit:10;stroke-dasharray:none;stroke-opacity:1"
       id="path250"
       inkscape:connector-curvature="0" /><path
       d="m 70.1491,110.941 -6.796,0"
       style="fill:none;stroke:#000000;stroke-width:0.75;stroke-linecap:butt;stroke-linejoin:miter;stroke-miterlimit:10;stroke-dasharray:none;stroke-opacity:1"
       id="path252"
       inkscape:connector-curvature="0" /><path
       d="m 70.1491,120.894 -6.796,0"
       style="fill:none;stroke:#000000;stroke-width:0.75;stroke-linecap:butt;stroke-linejoin:miter;stroke-miterlimit:10;stroke-dasharray:none;stroke-opacity:1"
       id="path254"
       inkscape:connector-curvature="0" /><path
       d="m 70.1491,130.847 -6.796,0"
       style="fill:none;stroke:#000000;stroke-width:0.75;stroke-linecap:butt;stroke-linejoin:miter;stroke-miterlimit:10;stroke-dasharray:none;stroke-opacity:1"
       id="path256"
       inkscape:connector-curvature="0" /><path
       d="m 76.945,140.8 -13.5919,0"
       style="fill:none;stroke:#000000;stroke-width:0.75;stroke-linecap:butt;stroke-linejoin:miter;stroke-miterlimit:10;stroke-dasharray:none;stroke-opacity:1"
       id="path258"
       inkscape:connector-curvature="0" /><path
       d="m 70.1491,150.752 -6.796,0"
       style="fill:none;stroke:#000000;stroke-width:0.75;stroke-linecap:butt;stroke-linejoin:miter;stroke-miterlimit:10;stroke-dasharray:none;stroke-opacity:1"
       id="path260"
       inkscape:connector-curvature="0" /><path
       d="m 70.1491,160.705 -6.796,0"
       style="fill:none;stroke:#000000;stroke-width:0.75;stroke-linecap:butt;stroke-linejoin:miter;stroke-miterlimit:10;stroke-dasharray:none;stroke-opacity:1"
       id="path262"
       inkscape:connector-curvature="0" /><path
       d="m 70.1491,170.658 -6.796,0"
       style="fill:none;stroke:#000000;stroke-width:0.75;stroke-linecap:butt;stroke-linejoin:miter;stroke-miterlimit:10;stroke-dasharray:none;stroke-opacity:1"
       id="path264"
       inkscape:connector-curvature="0" /><path
       d="m 76.945,180.611 -13.5919,0"
       style="fill:none;stroke:#000000;stroke-width:0.75;stroke-linecap:butt;stroke-linejoin:miter;stroke-miterlimit:10;stroke-dasharray:none;stroke-opacity:1"
       id="path266"
       inkscape:connector-curvature="0" /><path
       d="m 70.1491,190.564 -6.796,0"
       style="fill:none;stroke:#000000;stroke-width:0.75;stroke-linecap:butt;stroke-linejoin:miter;stroke-miterlimit:10;stroke-dasharray:none;stroke-opacity:1"
       id="path268"
       inkscape:connector-curvature="0" /><path
       d="m 70.1491,200.517 -6.796,0"
       style="fill:none;stroke:#000000;stroke-width:0.75;stroke-linecap:butt;stroke-linejoin:miter;stroke-miterlimit:10;stroke-dasharray:none;stroke-opacity:1"
       id="path270"
       inkscape:connector-curvature="0" /><path
       d="m 70.1491,210.469 -6.796,0"
       style="fill:none;stroke:#000000;stroke-width:0.75;stroke-linecap:butt;stroke-linejoin:miter;stroke-miterlimit:10;stroke-dasharray:none;stroke-opacity:1"
       id="path272"
       inkscape:connector-curvature="0" /><path
       d="m 76.945,220.422 -13.5919,0"
       style="fill:none;stroke:#000000;stroke-width:0.75;stroke-linecap:butt;stroke-linejoin:miter;stroke-miterlimit:10;stroke-dasharray:none;stroke-opacity:1"
       id="path274"
       inkscape:connector-curvature="0" /><path
       d="m 70.1491,230.375 -6.796,0"
       style="fill:none;stroke:#000000;stroke-width:0.75;stroke-linecap:butt;stroke-linejoin:miter;stroke-miterlimit:10;stroke-dasharray:none;stroke-opacity:1"
       id="path276"
       inkscape:connector-curvature="0" /><path
       d="m 70.1491,240.328 -6.796,0"
       style="fill:none;stroke:#000000;stroke-width:0.75;stroke-linecap:butt;stroke-linejoin:miter;stroke-miterlimit:10;stroke-dasharray:none;stroke-opacity:1"
       id="path278"
       inkscape:connector-curvature="0" /><path
       d="m 70.1491,250.281 -6.796,0"
       style="fill:none;stroke:#000000;stroke-width:0.75;stroke-linecap:butt;stroke-linejoin:miter;stroke-miterlimit:10;stroke-dasharray:none;stroke-opacity:1"
       id="path280"
       inkscape:connector-curvature="0" /><path
       d="m 76.945,260.234 -13.5919,0"
       style="fill:none;stroke:#000000;stroke-width:0.75;stroke-linecap:butt;stroke-linejoin:miter;stroke-miterlimit:10;stroke-dasharray:none;stroke-opacity:1"
       id="path282"
       inkscape:connector-curvature="0" /><path
       d="m 76.945,61.1768 -13.5919,0"
       style="fill:none;stroke:#000000;stroke-width:0.75;stroke-linecap:butt;stroke-linejoin:miter;stroke-miterlimit:10;stroke-dasharray:none;stroke-opacity:1"
       id="path284"
       inkscape:connector-curvature="0" /><path
       d="m 70.1491,51.224 -6.796,0"
       style="fill:none;stroke:#000000;stroke-width:0.75;stroke-linecap:butt;stroke-linejoin:miter;stroke-miterlimit:10;stroke-dasharray:none;stroke-opacity:1"
       id="path286"
       inkscape:connector-curvature="0" /><path
       d="m 70.1491,41.2711 -6.796,0"
       style="fill:none;stroke:#000000;stroke-width:0.75;stroke-linecap:butt;stroke-linejoin:miter;stroke-miterlimit:10;stroke-dasharray:none;stroke-opacity:1"
       id="path288"
       inkscape:connector-curvature="0" /><path
       d="m 70.1491,31.3183 -6.796,0"
       style="fill:none;stroke:#000000;stroke-width:0.75;stroke-linecap:butt;stroke-linejoin:miter;stroke-miterlimit:10;stroke-dasharray:none;stroke-opacity:1"
       id="path290"
       inkscape:connector-curvature="0" /><path
       d="m 76.945,260.234 -13.5919,0"
       style="fill:none;stroke:#000000;stroke-width:0.75;stroke-linecap:butt;stroke-linejoin:miter;stroke-miterlimit:10;stroke-dasharray:none;stroke-opacity:1"
       id="path292"
       inkscape:connector-curvature="0" /><g
       id="g294"><g
         id="g296"
         clip-path="url(#clipPath298)"><g
           id="g302"
           transform="translate(31.6274,57.6388)"><text
             transform="scale(1,-1)"
             style="font-variant:normal;font-weight:normal;font-size:9.45866966px;font-family:Helvetica;-inkscape-font-specification:Helvetica;writing-mode:lr-tb;fill:#000000;fill-opacity:1;fill-rule:nonzero;stroke:none"
             id="text304"><tspan
               x="0 5.2590203 10.518041 15.777061 18.406572 23.665592"
               y="0"
               sodipodi:role="line"
               id="tspan306">110.34</tspan></text>
</g></g></g><g
       id="g308"><g
         id="g310"
         clip-path="url(#clipPath312)"><g
           id="g316"
           transform="translate(31.6274,97.5426)"><text
             transform="scale(1,-1)"
             style="font-variant:normal;font-weight:normal;font-size:9.45866966px;font-family:Helvetica;-inkscape-font-specification:Helvetica;writing-mode:lr-tb;fill:#000000;fill-opacity:1;fill-rule:nonzero;stroke:none"
             id="text318"><tspan
               x="0 5.2590203 10.518041 15.777061 18.406572 23.665592"
               y="0"
               sodipodi:role="line"
               id="tspan320">110.36</tspan></text>
</g></g></g><g
       id="g322"><g
         id="g324"
         clip-path="url(#clipPath326)"><g
           id="g330"
           transform="translate(31.6274,137.446)"><text
             transform="scale(1,-1)"
             style="font-variant:normal;font-weight:normal;font-size:9.45866966px;font-family:Helvetica;-inkscape-font-specification:Helvetica;writing-mode:lr-tb;fill:#000000;fill-opacity:1;fill-rule:nonzero;stroke:none"
             id="text332"><tspan
               x="0 5.2590203 10.518041 15.777061 18.406572 23.665592"
               y="0"
               sodipodi:role="line"
               id="tspan334">110.38</tspan></text>
</g></g></g><g
       id="g336"><g
         id="g338"
         clip-path="url(#clipPath340)"><g
           id="g344"
           transform="translate(36.9479,177.35)"><text
             transform="scale(1,-1)"
             style="font-variant:normal;font-weight:normal;font-size:9.45866966px;font-family:Helvetica;-inkscape-font-specification:Helvetica;writing-mode:lr-tb;fill:#000000;fill-opacity:1;fill-rule:nonzero;stroke:none"
             id="text346"><tspan
               x="0 5.2590203 10.518041 15.777061 18.406572"
               y="0"
               sodipodi:role="line"
               id="tspan348">110.4</tspan></text>
</g></g></g><g
       id="g350"><g
         id="g352"
         clip-path="url(#clipPath354)"><g
           id="g358"
           transform="translate(31.6274,216.958)"><text
             transform="scale(1,-1)"
             style="font-variant:normal;font-weight:normal;font-size:9.45866966px;font-family:Helvetica;-inkscape-font-specification:Helvetica;writing-mode:lr-tb;fill:#000000;fill-opacity:1;fill-rule:nonzero;stroke:none"
             id="text360"><tspan
               x="0 5.2590203 10.518041 15.777061 18.406572 23.665592"
               y="0"
               sodipodi:role="line"
               id="tspan362">110.42</tspan></text>
</g></g></g><g
       id="g364"><g
         id="g366"
         clip-path="url(#clipPath368)"><g
           id="g372"
           transform="translate(31.6274,256.862)"><text
             transform="scale(1,-1)"
             style="font-variant:normal;font-weight:normal;font-size:9.45866966px;font-family:Helvetica;-inkscape-font-specification:Helvetica;writing-mode:lr-tb;fill:#000000;fill-opacity:1;fill-rule:nonzero;stroke:none"
             id="text374"><tspan
               x="0 5.2590203 10.518041 15.777061 18.406572 23.665592"
               y="0"
               sodipodi:role="line"
               id="tspan376">110.44</tspan></text>
</g></g></g><path
       d="m 100.598,49.2334 c 0,0.7882 1.182,0.7882 1.182,0 0,-0.7882 -1.182,-0.7882 -1.182,0 z m 1.892,0 c 0,0.7882 1.182,0.7882 1.182,0 0,-0.7882 -1.182,-0.7882 -1.182,0 z m 1.891,13.934 c 0,0.7882 1.183,0.7882 1.183,0 0,-0.7882 -1.183,-0.7882 -1.183,0 z m 1.892,1.9906 c 0,0.7882 1.183,0.7882 1.183,0 0,-0.7883 -1.183,-0.7883 -1.183,0 z m 1.892,-1.9906 c 0,0.7882 1.182,0.7882 1.182,0 0,-0.7882 -1.182,-0.7882 -1.182,0 z m 1.892,0 c 0,0.7882 1.182,0.7882 1.182,0 0,-0.7882 -1.182,-0.7882 -1.182,0 z m 1.892,0 c 0,0.7882 1.182,0.7882 1.182,0 0,-0.7882 -1.182,-0.7882 -1.182,0 z m 1.891,0 c 0,0.7882 1.183,0.7882 1.183,0 0,-0.7882 -1.183,-0.7882 -1.183,0 z m 1.892,0 c 0,0.7882 1.183,0.7882 1.183,0 0,-0.7882 -1.183,-0.7882 -1.183,0 z m 1.892,1.9906 c 0,0.7882 1.182,0.7882 1.182,0 0,-0.7883 -1.182,-0.7883 -1.182,0 z m 1.892,-1.9906 c 0,0.7882 1.182,0.7882 1.182,0 0,-0.7882 -1.182,-0.7882 -1.182,0 z m 1.892,1.9906 c 0,0.7882 1.182,0.7882 1.182,0 0,-0.7883 -1.182,-0.7883 -1.182,0 z m 1.891,0 c 0,0.7882 1.183,0.7882 1.183,0 0,-0.7883 -1.183,-0.7883 -1.183,0 z m 1.892,0 c 0,0.7882 1.182,0.7882 1.182,0 0,-0.7883 -1.182,-0.7883 -1.182,0 z m 1.892,1.9905 c 0,0.7882 1.182,0.7882 1.182,0 0,-0.7882 -1.182,-0.7882 -1.182,0 z m 1.892,0 c 0,0.7882 1.182,0.7882 1.182,0 0,-0.7882 -1.182,-0.7882 -1.182,0 z m 1.892,0 c 0,0.7882 1.182,0.7882 1.182,0 0,-0.7882 -1.182,-0.7882 -1.182,0 z m 1.891,1.9906 c 0,0.7882 1.183,0.7882 1.183,0 0,-0.7882 -1.183,-0.7882 -1.183,0 z m 1.892,0 c 0,0.7882 1.182,0.7882 1.182,0 0,-0.7882 -1.182,-0.7882 -1.182,0 z m 1.892,0 c 0,0.7882 1.182,0.7882 1.182,0 0,-0.7882 -1.182,-0.7882 -1.182,0 z m 1.892,-1.9906 c 0,0.7882 1.182,0.7882 1.182,0 0,-0.7882 -1.182,-0.7882 -1.182,0 z m 1.892,3.9812 c 0,0.7882 1.182,0.7882 1.182,0 0,-0.7883 -1.182,-0.7883 -1.182,0 z m 1.891,0 c 0,0.7882 1.183,0.7882 1.183,0 0,-0.7883 -1.183,-0.7883 -1.183,0 z m 1.892,0 c 0,0.7882 1.182,0.7882 1.182,0 0,-0.7883 -1.182,-0.7883 -1.182,0 z m 1.892,0 c 0,0.7882 1.182,0.7882 1.182,0 0,-0.7883 -1.182,-0.7883 -1.182,0 z m 1.892,1.9905 c 0,0.7882 1.182,0.7882 1.182,0 0,-0.7882 -1.182,-0.7882 -1.182,0 z m 1.891,1.9906 c 0,0.7882 1.183,0.7882 1.183,0 0,-0.7882 -1.183,-0.7882 -1.183,0 z m 1.892,-1.9906 c 0,0.7882 1.183,0.7882 1.183,0 0,-0.7882 -1.183,-0.7882 -1.183,0 z m 1.892,3.9812 c 0,0.7882 1.182,0.7882 1.182,0 0,-0.7883 -1.182,-0.7883 -1.182,0 z m 1.892,0 c 0,0.7882 1.182,0.7882 1.182,0 0,-0.7883 -1.182,-0.7883 -1.182,0 z m 1.892,0 c 0,0.7882 1.182,0.7882 1.182,0 0,-0.7883 -1.182,-0.7883 -1.182,0 z m 1.891,0 c 0,0.7882 1.183,0.7882 1.183,0 0,-0.7883 -1.183,-0.7883 -1.183,0 z m 1.892,13.9339 c 0,0.7883 1.183,0.7883 1.183,0 0,-0.7882 -1.183,-0.7882 -1.183,0 z m 1.892,0 c 0,0.7883 1.182,0.7883 1.182,0 0,-0.7882 -1.182,-0.7882 -1.182,0 z m 1.892,0 c 0,0.7883 1.182,0.7883 1.182,0 0,-0.7882 -1.182,-0.7882 -1.182,0 z m 1.892,1.9906 c 0,0.7882 1.182,0.7882 1.182,0 0,-0.7882 -1.182,-0.7882 -1.182,0 z m 1.891,0 c 0,0.7882 1.183,0.7882 1.183,0 0,-0.7882 -1.183,-0.7882 -1.183,0 z m 1.892,-1.9906 c 0,0.7883 1.183,0.7883 1.183,0 0,-0.7882 -1.183,-0.7882 -1.183,0 z m 1.892,0 c 0,0.7883 1.182,0.7883 1.182,0 0,-0.7882 -1.182,-0.7882 -1.182,0 z m 1.892,1.9906 c 0,0.7882 1.182,0.7882 1.182,0 0,-0.7882 -1.182,-0.7882 -1.182,0 z m 1.892,0 c 0,0.7882 1.182,0.7882 1.182,0 0,-0.7882 -1.182,-0.7882 -1.182,0 z m 1.891,0 c 0,0.7882 1.183,0.7882 1.183,0 0,-0.7882 -1.183,-0.7882 -1.183,0 z m 1.892,0 c 0,0.7882 1.183,0.7882 1.183,0 0,-0.7882 -1.183,-0.7882 -1.183,0 z m 1.892,0 c 0,0.7882 1.182,0.7882 1.182,0 0,-0.7882 -1.182,-0.7882 -1.182,0 z m 1.892,0 c 0,0.7882 1.182,0.7882 1.182,0 0,-0.7882 -1.182,-0.7882 -1.182,0 z m 1.892,0 c 0,0.7882 1.182,0.7882 1.182,0 0,-0.7882 -1.182,-0.7882 -1.182,0 z m 1.891,1.9906 c 0,0.7882 1.183,0.7882 1.183,0 0,-0.7882 -1.183,-0.7882 -1.183,0 z m 1.892,0 c 0,0.7882 1.183,0.7882 1.183,0 0,-0.7882 -1.183,-0.7882 -1.183,0 z m 1.892,1.9905 c 0,0.7883 1.182,0.7883 1.182,0 0,-0.7882 -1.182,-0.7882 -1.182,0 z m 1.892,0 c 0,0.7883 1.182,0.7883 1.182,0 0,-0.7882 -1.182,-0.7882 -1.182,0 z m 1.892,0 c 0,0.7883 1.182,0.7883 1.182,0 0,-0.7882 -1.182,-0.7882 -1.182,0 z m 1.891,0 c 0,0.7883 1.183,0.7883 1.183,0 0,-0.7882 -1.183,-0.7882 -1.183,0 z m 1.892,0 c 0,0.7883 1.182,0.7883 1.182,0 0,-0.7882 -1.182,-0.7882 -1.182,0 z m 1.892,0 c 0,0.7883 1.182,0.7883 1.182,0 0,-0.7882 -1.182,-0.7882 -1.182,0 z m 1.892,0 c 0,0.7883 1.182,0.7883 1.182,0 0,-0.7882 -1.182,-0.7882 -1.182,0 z m 1.892,0 c 0,0.7883 1.182,0.7883 1.182,0 0,-0.7882 -1.182,-0.7882 -1.182,0 z m 1.891,1.9906 c 0,0.7882 1.183,0.7882 1.183,0 0,-0.7882 -1.183,-0.7882 -1.183,0 z m 1.892,-1.9906 c 0,0.7883 1.182,0.7883 1.182,0 0,-0.7882 -1.182,-0.7882 -1.182,0 z m 1.892,0 c 0,0.7883 1.182,0.7883 1.182,0 0,-0.7882 -1.182,-0.7882 -1.182,0 z m 1.892,1.9906 c 0,0.7882 1.182,0.7882 1.182,0 0,-0.7882 -1.182,-0.7882 -1.182,0 z m 1.891,0 c 0,0.7882 1.183,0.7882 1.183,0 0,-0.7882 -1.183,-0.7882 -1.183,0 z m 1.892,15.9244 c 0,0.788 1.183,0.788 1.183,0 0,-0.788 -1.183,-0.788 -1.183,0 z m 1.892,1.991 c 0,0.788 1.182,0.788 1.182,0 0,-0.788 -1.182,-0.788 -1.182,0 z m 1.892,0 c 0,0.788 1.182,0.788 1.182,0 0,-0.788 -1.182,-0.788 -1.182,0 z m 1.892,0 c 0,0.788 1.182,0.788 1.182,0 0,-0.788 -1.182,-0.788 -1.182,0 z m 1.891,0 c 0,0.788 1.183,0.788 1.183,0 0,-0.788 -1.183,-0.788 -1.183,0 z m 1.892,0 c 0,0.788 1.183,0.788 1.183,0 0,-0.788 -1.183,-0.788 -1.183,0 z m 1.892,1.99 c 0,0.789 1.182,0.789 1.182,0 0,-0.788 -1.182,-0.788 -1.182,0 z m 1.892,1.991 c 0,0.788 1.182,0.788 1.182,0 0,-0.788 -1.182,-0.788 -1.182,0 z m 1.892,0 c 0,0.788 1.182,0.788 1.182,0 0,-0.788 -1.182,-0.788 -1.182,0 z m 1.891,-1.991 c 0,0.789 1.183,0.789 1.183,0 0,-0.788 -1.183,-0.788 -1.183,0 z m 1.892,1.991 c 0,0.788 1.183,0.788 1.183,0 0,-0.788 -1.183,-0.788 -1.183,0 z m 1.892,0 c 0,0.788 1.182,0.788 1.182,0 0,-0.788 -1.182,-0.788 -1.182,0 z m 1.892,0 c 0,0.788 1.182,0.788 1.182,0 0,-0.788 -1.182,-0.788 -1.182,0 z m 1.892,1.99 c 0,0.789 1.182,0.789 1.182,0 0,-0.788 -1.182,-0.788 -1.182,0 z m 1.891,0 c 0,0.789 1.183,0.789 1.183,0 0,-0.788 -1.183,-0.788 -1.183,0 z m 1.892,1.991 c 0,0.788 1.183,0.788 1.183,0 0,-0.788 -1.183,-0.788 -1.183,0 z m 1.892,0 c 0,0.788 1.182,0.788 1.182,0 0,-0.788 -1.182,-0.788 -1.182,0 z m 1.892,0 c 0,0.788 1.182,0.788 1.182,0 0,-0.788 -1.182,-0.788 -1.182,0 z m 1.892,0 c 0,0.788 1.182,0.788 1.182,0 0,-0.788 -1.182,-0.788 -1.182,0 z m 1.891,0 c 0,0.788 1.183,0.788 1.183,0 0,-0.788 -1.183,-0.788 -1.183,0 z m 1.892,0 c 0,0.788 1.183,0.788 1.183,0 0,-0.788 -1.183,-0.788 -1.183,0 z m 1.892,0 c 0,0.788 1.182,0.788 1.182,0 0,-0.788 -1.182,-0.788 -1.182,0 z m 1.892,0 c 0,0.788 1.182,0.788 1.182,0 0,-0.788 -1.182,-0.788 -1.182,0 z m 1.892,0 c 0,0.788 1.182,0.788 1.182,0 0,-0.788 -1.182,-0.788 -1.182,0 z m 1.891,0 c 0,0.788 1.183,0.788 1.183,0 0,-0.788 -1.183,-0.788 -1.183,0 z m 1.892,1.991 c 0,0.788 1.182,0.788 1.182,0 0,-0.789 -1.182,-0.789 -1.182,0 z m 1.892,0 c 0,0.788 1.182,0.788 1.182,0 0,-0.789 -1.182,-0.789 -1.182,0 z m 1.892,13.934 c 0,0.788 1.182,0.788 1.182,0 0,-0.789 -1.182,-0.789 -1.182,0 z m 1.892,1.99 c 0,0.788 1.182,0.788 1.182,0 0,-0.788 -1.182,-0.788 -1.182,0 z m 1.891,1.991 c 0,0.788 1.183,0.788 1.183,0 0,-0.789 -1.183,-0.789 -1.183,0 z m 1.892,1.99 c 0,0.788 1.182,0.788 1.182,0 0,-0.788 -1.182,-0.788 -1.182,0 z m 1.892,-1.99 c 0,0.788 1.182,0.788 1.182,0 0,-0.789 -1.182,-0.789 -1.182,0 z m 1.892,-1.991 c 0,0.788 1.182,0.788 1.182,0 0,-0.788 -1.182,-0.788 -1.182,0 z m 1.892,1.991 c 0,0.788 1.182,0.788 1.182,0 0,-0.789 -1.182,-0.789 -1.182,0 z m 1.891,0 c 0,0.788 1.183,0.788 1.183,0 0,-0.789 -1.183,-0.789 -1.183,0 z m 1.892,1.99 c 0,0.788 1.182,0.788 1.182,0 0,-0.788 -1.182,-0.788 -1.182,0 z m 1.892,0 c 0,0.788 1.182,0.788 1.182,0 0,-0.788 -1.182,-0.788 -1.182,0 z m 1.892,0 c 0,0.788 1.182,0.788 1.182,0 0,-0.788 -1.182,-0.788 -1.182,0 z m 1.891,0 c 0,0.788 1.183,0.788 1.183,0 0,-0.788 -1.183,-0.788 -1.183,0 z m 1.892,0 c 0,0.788 1.183,0.788 1.183,0 0,-0.788 -1.183,-0.788 -1.183,0 z m 1.892,0 c 0,0.788 1.182,0.788 1.182,0 0,-0.788 -1.182,-0.788 -1.182,0 z m 1.892,0 c 0,0.788 1.182,0.788 1.182,0 0,-0.788 -1.182,-0.788 -1.182,0 z m 1.892,0 c 0,0.788 1.182,0.788 1.182,0 0,-0.788 -1.182,-0.788 -1.182,0 z m 1.891,1.991 c 0,0.788 1.183,0.788 1.183,0 0,-0.788 -1.183,-0.788 -1.183,0 z m 1.892,1.99 c 0,0.789 1.183,0.789 1.183,0 0,-0.788 -1.183,-0.788 -1.183,0 z m 1.892,-1.99 c 0,0.788 1.182,0.788 1.182,0 0,-0.788 -1.182,-0.788 -1.182,0 z m 1.892,1.99 c 0,0.789 1.182,0.789 1.182,0 0,-0.788 -1.182,-0.788 -1.182,0 z m 1.892,-1.99 c 0,0.788 1.182,0.788 1.182,0 0,-0.788 -1.182,-0.788 -1.182,0 z m 1.891,1.99 c 0,0.789 1.183,0.789 1.183,0 0,-0.788 -1.183,-0.788 -1.183,0 z m 1.892,0 c 0,0.789 1.183,0.789 1.183,0 0,-0.788 -1.183,-0.788 -1.183,0 z m 1.892,0 c 0,0.789 1.182,0.789 1.182,0 0,-0.788 -1.182,-0.788 -1.182,0 z m 1.892,0 c 0,0.789 1.182,0.789 1.182,0 0,-0.788 -1.182,-0.788 -1.182,0 z m 1.892,0 c 0,0.789 1.182,0.789 1.182,0 0,-0.788 -1.182,-0.788 -1.182,0 z m 1.891,0 c 0,0.789 1.183,0.789 1.183,0 0,-0.788 -1.183,-0.788 -1.183,0 z m 1.892,1.991 c 0,0.788 1.183,0.788 1.183,0 0,-0.788 -1.183,-0.788 -1.183,0 z m 1.892,0 c 0,0.788 1.182,0.788 1.182,0 0,-0.788 -1.182,-0.788 -1.182,0 z m 1.892,17.915 c 0,0.788 1.182,0.788 1.182,0 0,-0.788 -1.182,-0.788 -1.182,0 z m 1.892,0 c 0,0.788 1.182,0.788 1.182,0 0,-0.788 -1.182,-0.788 -1.182,0 z m 1.891,0 c 0,0.788 1.183,0.788 1.183,0 0,-0.788 -1.183,-0.788 -1.183,0 z m 1.892,0 c 0,0.788 1.182,0.788 1.182,0 0,-0.788 -1.182,-0.788 -1.182,0 z m 1.892,1.991 c 0,0.788 1.182,0.788 1.182,0 0,-0.789 -1.182,-0.789 -1.182,0 z m 1.892,0 c 0,0.788 1.182,0.788 1.182,0 0,-0.789 -1.182,-0.789 -1.182,0 z m 1.892,0 c 0,0.788 1.182,0.788 1.182,0 0,-0.789 -1.182,-0.789 -1.182,0 z m 1.891,0 c 0,0.788 1.183,0.788 1.183,0 0,-0.789 -1.183,-0.789 -1.183,0 z m 1.892,1.99 c 0,0.788 1.182,0.788 1.182,0 0,-0.788 -1.182,-0.788 -1.182,0 z m 1.892,0 c 0,0.788 1.182,0.788 1.182,0 0,-0.788 -1.182,-0.788 -1.182,0 z m 1.892,-1.99 c 0,0.788 1.182,0.788 1.182,0 0,-0.789 -1.182,-0.789 -1.182,0 z m 1.891,1.99 c 0,0.788 1.183,0.788 1.183,0 0,-0.788 -1.183,-0.788 -1.183,0 z m 1.892,0 c 0,0.788 1.183,0.788 1.183,0 0,-0.788 -1.183,-0.788 -1.183,0 z m 1.892,1.991 c 0,0.788 1.182,0.788 1.182,0 0,-0.788 -1.182,-0.788 -1.182,0 z m 1.892,1.99 c 0,0.789 1.182,0.789 1.182,0 0,-0.788 -1.182,-0.788 -1.182,0 z m 1.892,0 c 0,0.789 1.182,0.789 1.182,0 0,-0.788 -1.182,-0.788 -1.182,0 z m 1.891,0 c 0,0.789 1.183,0.789 1.183,0 0,-0.788 -1.183,-0.788 -1.183,0 z m 1.892,0 c 0,0.789 1.183,0.789 1.183,0 0,-0.788 -1.183,-0.788 -1.183,0 z m 1.892,1.991 c 0,0.788 1.182,0.788 1.182,0 0,-0.788 -1.182,-0.788 -1.182,0 z m 1.892,0 c 0,0.788 1.182,0.788 1.182,0 0,-0.788 -1.182,-0.788 -1.182,0 z m 1.892,0 c 0,0.788 1.182,0.788 1.182,0 0,-0.788 -1.182,-0.788 -1.182,0 z m 1.891,0 c 0,0.788 1.183,0.788 1.183,0 0,-0.788 -1.183,-0.788 -1.183,0 z m 1.892,0 c 0,0.788 1.183,0.788 1.183,0 0,-0.788 -1.183,-0.788 -1.183,0 z m 1.892,1.991 c 0,0.788 1.182,0.788 1.182,0 0,-0.789 -1.182,-0.789 -1.182,0 z m 1.892,0 c 0,0.788 1.182,0.788 1.182,0 0,-0.789 -1.182,-0.789 -1.182,0 z m 1.892,0 c 0,0.788 1.182,0.788 1.182,0 0,-0.789 -1.182,-0.789 -1.182,0 z m 1.891,1.99 c 0,0.788 1.183,0.788 1.183,0 0,-0.788 -1.183,-0.788 -1.183,0 z m 1.892,0 c 0,0.788 1.183,0.788 1.183,0 0,-0.788 -1.183,-0.788 -1.183,0 z m 1.892,0 c 0,0.788 1.182,0.788 1.182,0 0,-0.788 -1.182,-0.788 -1.182,0 z m 1.892,1.991 c 0,0.788 1.182,0.788 1.182,0 0,-0.789 -1.182,-0.789 -1.182,0 z m 1.892,15.924 c 0,0.788 1.182,0.788 1.182,0 0,-0.788 -1.182,-0.788 -1.182,0 z m 1.891,0 c 0,0.788 1.183,0.788 1.183,0 0,-0.788 -1.183,-0.788 -1.183,0 z m 1.892,0 c 0,0.788 1.183,0.788 1.183,0 0,-0.788 -1.183,-0.788 -1.183,0 z m 1.892,0 c 0,0.788 1.182,0.788 1.182,0 0,-0.788 -1.182,-0.788 -1.182,0 z m 1.892,0 c 0,0.788 1.182,0.788 1.182,0 0,-0.788 -1.182,-0.788 -1.182,0 z m 1.892,0 c 0,0.788 1.182,0.788 1.182,0 0,-0.788 -1.182,-0.788 -1.182,0 z m 1.891,0 c 0,0.788 1.183,0.788 1.183,0 0,-0.788 -1.183,-0.788 -1.183,0 z m 1.892,1.991 c 0,0.788 1.182,0.788 1.182,0 0,-0.788 -1.182,-0.788 -1.182,0 z m 1.892,-1.991 c 0,0.788 1.182,0.788 1.182,0 0,-0.788 -1.182,-0.788 -1.182,0 z m 1.892,0 c 0,0.788 1.182,0.788 1.182,0 0,-0.788 -1.182,-0.788 -1.182,0 z m 1.892,0 c 0,0.788 1.182,0.788 1.182,0 0,-0.788 -1.182,-0.788 -1.182,0 z m 1.891,0 c 0,0.788 1.183,0.788 1.183,0 0,-0.788 -1.183,-0.788 -1.183,0 z m 1.892,0 c 0,0.788 1.182,0.788 1.182,0 0,-0.788 -1.182,-0.788 -1.182,0 z m 1.892,1.991 c 0,0.788 1.182,0.788 1.182,0 0,-0.788 -1.182,-0.788 -1.182,0 z m 1.892,0 c 0,0.788 1.182,0.788 1.182,0 0,-0.788 -1.182,-0.788 -1.182,0 z m 1.892,0 c 0,0.788 1.182,0.788 1.182,0 0,-0.788 -1.182,-0.788 -1.182,0 z m 1.891,0 c 0,0.788 1.183,0.788 1.183,0 0,-0.788 -1.183,-0.788 -1.183,0 z m 1.892,0 c 0,0.788 1.182,0.788 1.182,0 0,-0.788 -1.182,-0.788 -1.182,0 z m 1.892,0 c 0,0.788 1.182,0.788 1.182,0 0,-0.788 -1.182,-0.788 -1.182,0 z m 1.892,0 c 0,0.788 1.182,0.788 1.182,0 0,-0.788 -1.182,-0.788 -1.182,0 z m 1.891,1.99 c 0,0.789 1.183,0.789 1.183,0 0,-0.788 -1.183,-0.788 -1.183,0 z m 1.892,0 c 0,0.789 1.183,0.789 1.183,0 0,-0.788 -1.183,-0.788 -1.183,0 z m 1.892,1.991 c 0,0.788 1.182,0.788 1.182,0 0,-0.788 -1.182,-0.788 -1.182,0 z m 1.892,0 c 0,0.788 1.182,0.788 1.182,0 0,-0.788 -1.182,-0.788 -1.182,0 z m 1.892,0 c 0,0.788 1.182,0.788 1.182,0 0,-0.788 -1.182,-0.788 -1.182,0 z m 1.891,1.99 c 0,0.789 1.183,0.789 1.183,0 0,-0.788 -1.183,-0.788 -1.183,0 z m 1.892,0 c 0,0.789 1.183,0.789 1.183,0 0,-0.788 -1.183,-0.788 -1.183,0 z m 1.892,1.991 c 0,0.788 1.182,0.788 1.182,0 0,-0.788 -1.182,-0.788 -1.182,0 z m 1.892,0 c 0,0.788 1.182,0.788 1.182,0 0,-0.788 -1.182,-0.788 -1.182,0 z m 1.892,17.915 c 0,0.788 1.182,0.788 1.182,0 0,-0.788 -1.182,-0.788 -1.182,0 z m 1.891,0 c 0,0.788 1.183,0.788 1.183,0 0,-0.788 -1.183,-0.788 -1.183,0 z m 1.892,0 c 0,0.788 1.183,0.788 1.183,0 0,-0.788 -1.183,-0.788 -1.183,0 z m 1.892,0 c 0,0.788 1.182,0.788 1.182,0 0,-0.788 -1.182,-0.788 -1.182,0 z m 1.892,1.991 c 0,0.788 1.182,0.788 1.182,0 0,-0.789 -1.182,-0.789 -1.182,0 z m 1.892,0 c 0,0.788 1.182,0.788 1.182,0 0,-0.789 -1.182,-0.789 -1.182,0 z m 1.891,-1.991 c 0,0.788 1.183,0.788 1.183,0 0,-0.788 -1.183,-0.788 -1.183,0 z m 1.892,1.991 c 0,0.788 1.183,0.788 1.183,0 0,-0.789 -1.183,-0.789 -1.183,0 z m 1.892,-1.991 c 0,0.788 1.182,0.788 1.182,0 0,-0.788 -1.182,-0.788 -1.182,0 z m 1.892,1.991 c 0,0.788 1.182,0.788 1.182,0 0,-0.789 -1.182,-0.789 -1.182,0 z m 1.892,-1.991 c 0,0.788 1.182,0.788 1.182,0 0,-0.788 -1.182,-0.788 -1.182,0 z m 1.891,1.991 c 0,0.788 1.183,0.788 1.183,0 0,-0.789 -1.183,-0.789 -1.183,0 z m 1.892,0 c 0,0.788 1.183,0.788 1.183,0 0,-0.789 -1.183,-0.789 -1.183,0 z m 1.892,0 c 0,0.788 1.182,0.788 1.182,0 0,-0.789 -1.182,-0.789 -1.182,0 z m 1.892,0 c 0,0.788 1.182,0.788 1.182,0 0,-0.789 -1.182,-0.789 -1.182,0 z m 1.892,1.99 c 0,0.789 1.182,0.789 1.182,0 0,-0.788 -1.182,-0.788 -1.182,0 z m 1.891,0 c 0,0.789 1.183,0.789 1.183,0 0,-0.788 -1.183,-0.788 -1.183,0 z m 1.892,0 c 0,0.789 1.182,0.789 1.182,0 0,-0.788 -1.182,-0.788 -1.182,0 z m 1.892,0 c 0,0.789 1.182,0.789 1.182,0 0,-0.788 -1.182,-0.788 -1.182,0 z m 1.892,0 c 0,0.789 1.182,0.789 1.182,0 0,-0.788 -1.182,-0.788 -1.182,0 z m 1.892,0 c 0,0.789 1.182,0.789 1.182,0 0,-0.788 -1.182,-0.788 -1.182,0 z m 1.891,1.991 c 0,0.788 1.183,0.788 1.183,0 0,-0.788 -1.183,-0.788 -1.183,0 z m 1.892,0 c 0,0.788 1.182,0.788 1.182,0 0,-0.788 -1.182,-0.788 -1.182,0 z m 1.892,0 c 0,0.788 1.182,0.788 1.182,0 0,-0.788 -1.182,-0.788 -1.182,0 z m 1.892,-1.991 c 0,0.789 1.182,0.789 1.182,0 0,-0.788 -1.182,-0.788 -1.182,0 z m 0,3.981 c 0,0.789 1.182,0.789 1.182,0 0,-0.788 -1.182,-0.788 -1.182,0 z m -1.892,-1.99 c 0,0.788 1.182,0.788 1.182,0 0,-0.788 -1.182,-0.788 -1.182,0 z m -1.892,1.99 c 0,0.789 1.182,0.789 1.182,0 0,-0.788 -1.182,-0.788 -1.182,0 z m -1.892,0 c 0,0.789 1.183,0.789 1.183,0 0,-0.788 -1.183,-0.788 -1.183,0 z m -1.891,0 c 0,0.789 1.182,0.789 1.182,0 0,-0.788 -1.182,-0.788 -1.182,0 z m -1.892,0 c 0,0.789 1.182,0.789 1.182,0 0,-0.788 -1.182,-0.788 -1.182,0 z m -1.892,0 c 0,0.789 1.182,0.789 1.182,0 0,-0.788 -1.182,-0.788 -1.182,0 z m -1.892,0 c 0,0.789 1.182,0.789 1.182,0 0,-0.788 -1.182,-0.788 -1.182,0 z m -1.892,0 c 0,0.789 1.183,0.789 1.183,0 0,-0.788 -1.183,-0.788 -1.183,0 z m -1.891,1.991 c 0,0.788 1.182,0.788 1.182,0 0,-0.788 -1.182,-0.788 -1.182,0 z m -1.892,-1.991 c 0,0.789 1.182,0.789 1.182,0 0,-0.788 -1.182,-0.788 -1.182,0 z m -1.892,0 c 0,0.789 1.182,0.789 1.182,0 0,-0.788 -1.182,-0.788 -1.182,0 z m -1.892,1.991 c 0,0.788 1.183,0.788 1.183,0 0,-0.788 -1.183,-0.788 -1.183,0 z m -1.892,0 c 0,0.788 1.183,0.788 1.183,0 0,-0.788 -1.183,-0.788 -1.183,0 z m -1.891,0 c 0,0.788 1.182,0.788 1.182,0 0,-0.788 -1.182,-0.788 -1.182,0 z m -1.892,0 c 0,0.788 1.182,0.788 1.182,0 0,-0.788 -1.182,-0.788 -1.182,0 z m -1.892,0 c 0,0.788 1.182,0.788 1.182,0 0,-0.788 -1.182,-0.788 -1.182,0 z m -1.892,0 c 0,0.788 1.183,0.788 1.183,0 0,-0.788 -1.183,-0.788 -1.183,0 z m -1.892,-1.991 c 0,0.789 1.183,0.789 1.183,0 0,-0.788 -1.183,-0.788 -1.183,0 z m -1.891,1.991 c 0,0.788 1.182,0.788 1.182,0 0,-0.788 -1.182,-0.788 -1.182,0 z m -1.892,1.991 c 0,0.788 1.182,0.788 1.182,0 0,-0.789 -1.182,-0.789 -1.182,0 z m -1.892,0 c 0,0.788 1.182,0.788 1.182,0 0,-0.789 -1.182,-0.789 -1.182,0 z m -1.892,1.99 c 0,0.788 1.183,0.788 1.183,0 0,-0.788 -1.183,-0.788 -1.183,0 z m -1.892,0 c 0,0.788 1.183,0.788 1.183,0 0,-0.788 -1.183,-0.788 -1.183,0 z m -1.891,0 c 0,0.788 1.182,0.788 1.182,0 0,-0.788 -1.182,-0.788 -1.182,0 z m -1.892,-15.924 c 0,0.788 1.182,0.788 1.182,0 0,-0.789 -1.182,-0.789 -1.182,0 z m -1.892,-1.991 c 0,0.788 1.182,0.788 1.182,0 0,-0.788 -1.182,-0.788 -1.182,0 z m -1.892,0 c 0,0.788 1.183,0.788 1.183,0 0,-0.788 -1.183,-0.788 -1.183,0 z m -1.892,0 c 0,0.788 1.183,0.788 1.183,0 0,-0.788 -1.183,-0.788 -1.183,0 z m -1.891,0 c 0,0.788 1.182,0.788 1.182,0 0,-0.788 -1.182,-0.788 -1.182,0 z m -1.892,1.991 c 0,0.788 1.182,0.788 1.182,0 0,-0.789 -1.182,-0.789 -1.182,0 z m -1.892,0 c 0,0.788 1.182,0.788 1.182,0 0,-0.789 -1.182,-0.789 -1.182,0 z m -1.892,0 c 0,0.788 1.183,0.788 1.183,0 0,-0.789 -1.183,-0.789 -1.183,0 z m -1.892,0 c 0,0.788 1.183,0.788 1.183,0 0,-0.789 -1.183,-0.789 -1.183,0 z m -1.891,0 c 0,0.788 1.182,0.788 1.182,0 0,-0.789 -1.182,-0.789 -1.182,0 z m -1.892,1.99 c 0,0.788 1.182,0.788 1.182,0 0,-0.788 -1.182,-0.788 -1.182,0 z m -1.892,0 c 0,0.788 1.182,0.788 1.182,0 0,-0.788 -1.182,-0.788 -1.182,0 z m -1.892,0 c 0,0.788 1.183,0.788 1.183,0 0,-0.788 -1.183,-0.788 -1.183,0 z m -1.891,1.991 c 0,0.788 1.182,0.788 1.182,0 0,-0.789 -1.182,-0.789 -1.182,0 z m -1.892,-1.991 c 0,0.788 1.182,0.788 1.182,0 0,-0.788 -1.182,-0.788 -1.182,0 z m -1.892,1.991 c 0,0.788 1.182,0.788 1.182,0 0,-0.789 -1.182,-0.789 -1.182,0 z m -1.892,0 c 0,0.788 1.182,0.788 1.182,0 0,-0.789 -1.182,-0.789 -1.182,0 z m -1.892,0 c 0,0.788 1.183,0.788 1.183,0 0,-0.789 -1.183,-0.789 -1.183,0 z m -1.891,0 c 0,0.788 1.182,0.788 1.182,0 0,-0.789 -1.182,-0.789 -1.182,0 z m -1.892,1.99 c 0,0.789 1.182,0.789 1.182,0 0,-0.788 -1.182,-0.788 -1.182,0 z m -1.892,0 c 0,0.789 1.182,0.789 1.182,0 0,-0.788 -1.182,-0.788 -1.182,0 z m -1.892,0 c 0,0.789 1.182,0.789 1.182,0 0,-0.788 -1.182,-0.788 -1.182,0 z m -1.892,0 c 0,0.789 1.183,0.789 1.183,0 0,-0.788 -1.183,-0.788 -1.183,0 z m -1.891,0 c 0,0.789 1.182,0.789 1.182,0 0,-0.788 -1.182,-0.788 -1.182,0 z m -1.892,0 c 0,0.789 1.182,0.789 1.182,0 0,-0.788 -1.182,-0.788 -1.182,0 z m -1.892,0 c 0,0.789 1.182,0.789 1.182,0 0,-0.788 -1.182,-0.788 -1.182,0 z m -1.892,0 c 0,0.789 1.183,0.789 1.183,0 0,-0.788 -1.183,-0.788 -1.183,0 z m -1.892,1.991 c 0,0.788 1.183,0.788 1.183,0 0,-0.788 -1.183,-0.788 -1.183,0 z m -1.891,-1.991 c 0,0.789 1.182,0.789 1.182,0 0,-0.788 -1.182,-0.788 -1.182,0 z M 376.8,218.432 c 0,0.788 1.182,0.788 1.182,0 0,-0.788 -1.182,-0.788 -1.182,0 z m -1.892,1.99 c 0,0.789 1.182,0.789 1.182,0 0,-0.788 -1.182,-0.788 -1.182,0 z m -1.892,0 c 0,0.789 1.183,0.789 1.183,0 0,-0.788 -1.183,-0.788 -1.183,0 z m -1.892,0 c 0,0.789 1.183,0.789 1.183,0 0,-0.788 -1.183,-0.788 -1.183,0 z m -1.891,-1.99 c 0,0.788 1.182,0.788 1.182,0 0,-0.788 -1.182,-0.788 -1.182,0 z m -1.892,1.99 c 0,0.789 1.182,0.789 1.182,0 0,-0.788 -1.182,-0.788 -1.182,0 z m -1.892,0 c 0,0.789 1.182,0.789 1.182,0 0,-0.788 -1.182,-0.788 -1.182,0 z m -1.892,0 c 0,0.789 1.183,0.789 1.183,0 0,-0.788 -1.183,-0.788 -1.183,0 z m -1.892,0 c 0,0.789 1.183,0.789 1.183,0 0,-0.788 -1.183,-0.788 -1.183,0 z m -1.891,1.991 c 0,0.788 1.182,0.788 1.182,0 0,-0.788 -1.182,-0.788 -1.182,0 z m -1.892,1.99 c 0,0.789 1.182,0.789 1.182,0 0,-0.788 -1.182,-0.788 -1.182,0 z m -1.892,-1.99 c 0,0.788 1.182,0.788 1.182,0 0,-0.788 -1.182,-0.788 -1.182,0 z m -1.892,0 c 0,0.788 1.183,0.788 1.183,0 0,-0.788 -1.183,-0.788 -1.183,0 z m -1.892,1.99 c 0,0.789 1.183,0.789 1.183,0 0,-0.788 -1.183,-0.788 -1.183,0 z m -1.891,0 c 0,0.789 1.182,0.789 1.182,0 0,-0.788 -1.182,-0.788 -1.182,0 z m -1.892,0 c 0,0.789 1.182,0.789 1.182,0 0,-0.788 -1.182,-0.788 -1.182,0 z m -1.892,0 c 0,0.789 1.182,0.789 1.182,0 0,-0.788 -1.182,-0.788 -1.182,0 z m -1.892,0 c 0,0.789 1.183,0.789 1.183,0 0,-0.788 -1.183,-0.788 -1.183,0 z m -1.892,1.991 c 0,0.788 1.183,0.788 1.183,0 0,-0.788 -1.183,-0.788 -1.183,0 z m -1.891,0 c 0,0.788 1.182,0.788 1.182,0 0,-0.788 -1.182,-0.788 -1.182,0 z m -1.892,0 c 0,0.788 1.182,0.788 1.182,0 0,-0.788 -1.182,-0.788 -1.182,0 z m -1.892,0 c 0,0.788 1.182,0.788 1.182,0 0,-0.788 -1.182,-0.788 -1.182,0 z m -1.892,1.991 c 0,0.788 1.183,0.788 1.183,0 0,-0.789 -1.183,-0.789 -1.183,0 z m -1.891,0 c 0,0.788 1.182,0.788 1.182,0 0,-0.789 -1.182,-0.789 -1.182,0 z m -1.892,0 c 0,0.788 1.182,0.788 1.182,0 0,-0.789 -1.182,-0.789 -1.182,0 z m -1.892,0 c 0,0.788 1.182,0.788 1.182,0 0,-0.789 -1.182,-0.789 -1.182,0 z m -1.892,0 c 0,0.788 1.182,0.788 1.182,0 0,-0.789 -1.182,-0.789 -1.182,0 z m -1.892,1.99 c 0,0.788 1.183,0.788 1.183,0 0,-0.788 -1.183,-0.788 -1.183,0 z m -1.891,0 c 0,0.788 1.182,0.788 1.182,0 0,-0.788 -1.182,-0.788 -1.182,0 z m -1.892,0 c 0,0.788 1.182,0.788 1.182,0 0,-0.788 -1.182,-0.788 -1.182,0 z m -1.892,-13.934 c 0,0.788 1.182,0.788 1.182,0 0,-0.788 -1.182,-0.788 -1.182,0 z m -1.892,0 c 0,0.788 1.183,0.788 1.183,0 0,-0.788 -1.183,-0.788 -1.183,0 z m -1.892,-1.99 c 0,0.788 1.183,0.788 1.183,0 0,-0.789 -1.183,-0.789 -1.183,0 z m -1.891,1.99 c 0,0.788 1.182,0.788 1.182,0 0,-0.788 -1.182,-0.788 -1.182,0 z m -1.892,0 c 0,0.788 1.182,0.788 1.182,0 0,-0.788 -1.182,-0.788 -1.182,0 z m -1.892,1.991 c 0,0.788 1.182,0.788 1.182,0 0,-0.788 -1.182,-0.788 -1.182,0 z m -1.892,0 c 0,0.788 1.183,0.788 1.183,0 0,-0.788 -1.183,-0.788 -1.183,0 z m -1.892,0 c 0,0.788 1.183,0.788 1.183,0 0,-0.788 -1.183,-0.788 -1.183,0 z m -1.891,0 c 0,0.788 1.182,0.788 1.182,0 0,-0.788 -1.182,-0.788 -1.182,0 z m -1.892,1.99 c 0,0.789 1.182,0.789 1.182,0 0,-0.788 -1.182,-0.788 -1.182,0 z m -1.892,-1.99 c 0,0.788 1.182,0.788 1.182,0 0,-0.788 -1.182,-0.788 -1.182,0 z m -1.892,1.99 c 0,0.789 1.183,0.789 1.183,0 0,-0.788 -1.183,-0.788 -1.183,0 z m -1.892,0 c 0,0.789 1.183,0.789 1.183,0 0,-0.788 -1.183,-0.788 -1.183,0 z m -1.891,-1.99 c 0,0.788 1.182,0.788 1.182,0 0,-0.788 -1.182,-0.788 -1.182,0 z m -1.892,0 c 0,0.788 1.182,0.788 1.182,0 0,-0.788 -1.182,-0.788 -1.182,0 z m -1.892,1.99 c 0,0.789 1.182,0.789 1.182,0 0,-0.788 -1.182,-0.788 -1.182,0 z m -1.892,0 c 0,0.789 1.183,0.789 1.183,0 0,-0.788 -1.183,-0.788 -1.183,0 z m -1.892,1.991 c 0,0.788 1.183,0.788 1.183,0 0,-0.788 -1.183,-0.788 -1.183,0 z m -1.891,0 c 0,0.788 1.182,0.788 1.182,0 0,-0.788 -1.182,-0.788 -1.182,0 z m -1.892,1.99 c 0,0.789 1.182,0.789 1.182,0 0,-0.788 -1.182,-0.788 -1.182,0 z m -1.892,0 c 0,0.789 1.182,0.789 1.182,0 0,-0.788 -1.182,-0.788 -1.182,0 z m -1.892,0 c 0,0.789 1.183,0.789 1.183,0 0,-0.788 -1.183,-0.788 -1.183,0 z m -1.891,1.991 c 0,0.788 1.182,0.788 1.182,0 0,-0.788 -1.182,-0.788 -1.182,0 z m -1.892,0 c 0,0.788 1.182,0.788 1.182,0 0,-0.788 -1.182,-0.788 -1.182,0 z m -1.892,0 c 0,0.788 1.182,0.788 1.182,0 0,-0.788 -1.182,-0.788 -1.182,0 z m -1.892,0 c 0,0.788 1.182,0.788 1.182,0 0,-0.788 -1.182,-0.788 -1.182,0 z m -1.892,1.991 c 0,0.788 1.183,0.788 1.183,0 0,-0.789 -1.183,-0.789 -1.183,0 z m -1.891,0 c 0,0.788 1.182,0.788 1.182,0 0,-0.789 -1.182,-0.789 -1.182,0 z m -1.892,0 c 0,0.788 1.182,0.788 1.182,0 0,-0.789 -1.182,-0.789 -1.182,0 z m -1.892,-13.934 c 0,0.788 1.182,0.788 1.182,0 0,-0.789 -1.182,-0.789 -1.182,0 z m -1.892,0 c 0,0.788 1.182,0.788 1.182,0 0,-0.789 -1.182,-0.789 -1.182,0 z m -1.892,0 c 0,0.788 1.183,0.788 1.183,0 0,-0.789 -1.183,-0.789 -1.183,0 z m -1.891,1.99 c 0,0.788 1.182,0.788 1.182,0 0,-0.788 -1.182,-0.788 -1.182,0 z m -1.892,0 c 0,0.788 1.182,0.788 1.182,0 0,-0.788 -1.182,-0.788 -1.182,0 z m -1.892,0 c 0,0.788 1.182,0.788 1.182,0 0,-0.788 -1.182,-0.788 -1.182,0 z m -1.892,0 c 0,0.788 1.183,0.788 1.183,0 0,-0.788 -1.183,-0.788 -1.183,0 z m -1.892,1.991 c 0,0.788 1.183,0.788 1.183,0 0,-0.788 -1.183,-0.788 -1.183,0 z m -1.891,0 c 0,0.788 1.182,0.788 1.182,0 0,-0.788 -1.182,-0.788 -1.182,0 z m -1.892,0 c 0,0.788 1.182,0.788 1.182,0 0,-0.788 -1.182,-0.788 -1.182,0 z m -1.892,0 c 0,0.788 1.182,0.788 1.182,0 0,-0.788 -1.182,-0.788 -1.182,0 z m -1.892,0 c 0,0.788 1.183,0.788 1.183,0 0,-0.788 -1.183,-0.788 -1.183,0 z m -1.892,0 c 0,0.788 1.183,0.788 1.183,0 0,-0.788 -1.183,-0.788 -1.183,0 z m -1.891,0 c 0,0.788 1.182,0.788 1.182,0 0,-0.788 -1.182,-0.788 -1.182,0 z m -1.892,0 c 0,0.788 1.182,0.788 1.182,0 0,-0.788 -1.182,-0.788 -1.182,0 z m -1.892,1.99 c 0,0.789 1.182,0.789 1.182,0 0,-0.788 -1.182,-0.788 -1.182,0 z m -1.892,-1.99 c 0,0.788 1.183,0.788 1.183,0 0,-0.788 -1.183,-0.788 -1.183,0 z m -1.892,1.99 c 0,0.789 1.183,0.789 1.183,0 0,-0.788 -1.183,-0.788 -1.183,0 z m -1.891,0 c 0,0.789 1.182,0.789 1.182,0 0,-0.788 -1.182,-0.788 -1.182,0 z m -1.892,0 c 0,0.789 1.182,0.789 1.182,0 0,-0.788 -1.182,-0.788 -1.182,0 z m -1.892,0 c 0,0.789 1.182,0.789 1.182,0 0,-0.788 -1.182,-0.788 -1.182,0 z m -1.892,1.991 c 0,0.788 1.183,0.788 1.183,0 0,-0.788 -1.183,-0.788 -1.183,0 z m -1.892,1.99 c 0,0.789 1.183,0.789 1.183,0 0,-0.788 -1.183,-0.788 -1.183,0 z m -1.891,0 c 0,0.789 1.182,0.789 1.182,0 0,-0.788 -1.182,-0.788 -1.182,0 z m -1.892,-1.99 c 0,0.788 1.182,0.788 1.182,0 0,-0.788 -1.182,-0.788 -1.182,0 z m -1.892,0 c 0,0.788 1.182,0.788 1.182,0 0,-0.788 -1.182,-0.788 -1.182,0 z m -1.892,1.99 c 0,0.789 1.183,0.789 1.183,0 0,-0.788 -1.183,-0.788 -1.183,0 z m -1.892,-15.924 c 0,0.788 1.183,0.788 1.183,0 0,-0.788 -1.183,-0.788 -1.183,0 z m -1.891,1.99 c 0,0.789 1.182,0.789 1.182,0 0,-0.788 -1.182,-0.788 -1.182,0 z m -1.892,-1.99 c 0,0.788 1.182,0.788 1.182,0 0,-0.788 -1.182,-0.788 -1.182,0 z m -1.892,1.99 c 0,0.789 1.182,0.789 1.182,0 0,-0.788 -1.182,-0.788 -1.182,0 z m -1.892,1.991 c 0,0.788 1.183,0.788 1.183,0 0,-0.788 -1.183,-0.788 -1.183,0 z m -1.891,0 c 0,0.788 1.182,0.788 1.182,0 0,-0.788 -1.182,-0.788 -1.182,0 z m -1.892,-1.991 c 0,0.789 1.182,0.789 1.182,0 0,-0.788 -1.182,-0.788 -1.182,0 z m -1.892,1.991 c 0,0.788 1.182,0.788 1.182,0 0,-0.788 -1.182,-0.788 -1.182,0 z m -1.892,0 c 0,0.788 1.182,0.788 1.182,0 0,-0.788 -1.182,-0.788 -1.182,0 z m -1.892,0 c 0,0.788 1.183,0.788 1.183,0 0,-0.788 -1.183,-0.788 -1.183,0 z m -1.891,0 c 0,0.788 1.182,0.788 1.182,0 0,-0.788 -1.182,-0.788 -1.182,0 z m -1.892,0 c 0,0.788 1.182,0.788 1.182,0 0,-0.788 -1.182,-0.788 -1.182,0 z m -1.892,1.991 c 0,0.788 1.182,0.788 1.182,0 0,-0.789 -1.182,-0.789 -1.182,0 z m -1.892,0 c 0,0.788 1.183,0.788 1.183,0 0,-0.789 -1.183,-0.789 -1.183,0 z m -1.892,0 c 0,0.788 1.183,0.788 1.183,0 0,-0.789 -1.183,-0.789 -1.183,0 z m -1.891,0 c 0,0.788 1.182,0.788 1.182,0 0,-0.789 -1.182,-0.789 -1.182,0 z m -1.892,-1.991 c 0,0.788 1.182,0.788 1.182,0 0,-0.788 -1.182,-0.788 -1.182,0 z m -1.892,1.991 c 0,0.788 1.182,0.788 1.182,0 0,-0.789 -1.182,-0.789 -1.182,0 z m -1.892,1.99 c 0,0.788 1.183,0.788 1.183,0 0,-0.788 -1.183,-0.788 -1.183,0 z m -1.892,-1.99 c 0,0.788 1.183,0.788 1.183,0 0,-0.789 -1.183,-0.789 -1.183,0 z m -1.891,0 c 0,0.788 1.182,0.788 1.182,0 0,-0.789 -1.182,-0.789 -1.182,0 z m -1.892,1.99 c 0,0.788 1.182,0.788 1.182,0 0,-0.788 -1.182,-0.788 -1.182,0 z m -1.892,0 c 0,0.788 1.182,0.788 1.182,0 0,-0.788 -1.182,-0.788 -1.182,0 z m -1.892,0 c 0,0.788 1.183,0.788 1.183,0 0,-0.788 -1.183,-0.788 -1.183,0 z m -1.892,1.991 c 0,0.788 1.183,0.788 1.183,0 0,-0.788 -1.183,-0.788 -1.183,0 z m -1.891,0 c 0,0.788 1.182,0.788 1.182,0 0,-0.788 -1.182,-0.788 -1.182,0 z m -1.892,0 c 0,0.788 1.182,0.788 1.182,0 0,-0.788 -1.182,-0.788 -1.182,0 z m -1.892,1.99 c 0,0.789 1.182,0.789 1.182,0 0,-0.788 -1.182,-0.788 -1.182,0 z m -1.892,0 c 0,0.789 1.183,0.789 1.183,0 0,-0.788 -1.183,-0.788 -1.183,0 z m -1.892,-11.943 c 0,0.788 1.183,0.788 1.183,0 0,-0.788 -1.183,-0.788 -1.183,0 z m -1.891,0 c 0,0.788 1.182,0.788 1.182,0 0,-0.788 -1.182,-0.788 -1.182,0 z m -1.892,0 c 0,0.788 1.182,0.788 1.182,0 0,-0.788 -1.182,-0.788 -1.182,0 z m -1.892,0 c 0,0.788 1.182,0.788 1.182,0 0,-0.788 -1.182,-0.788 -1.182,0 z m -1.892,0 c 0,0.788 1.183,0.788 1.183,0 0,-0.788 -1.183,-0.788 -1.183,0 z m -1.892,1.99 c 0,0.789 1.183,0.789 1.183,0 0,-0.788 -1.183,-0.788 -1.183,0 z m -1.891,0 c 0,0.789 1.182,0.789 1.182,0 0,-0.788 -1.182,-0.788 -1.182,0 z m -1.892,1.991 c 0,0.788 1.182,0.788 1.182,0 0,-0.788 -1.182,-0.788 -1.182,0 z m -1.892,-1.991 c 0,0.789 1.182,0.789 1.182,0 0,-0.788 -1.182,-0.788 -1.182,0 z m -1.892,0 c 0,0.789 1.183,0.789 1.183,0 0,-0.788 -1.183,-0.788 -1.183,0 z m -1.891,0 c 0,0.789 1.182,0.789 1.182,0 0,-0.788 -1.182,-0.788 -1.182,0 z m -1.892,0 c 0,0.789 1.182,0.789 1.182,0 0,-0.788 -1.182,-0.788 -1.182,0 z m -1.892,1.991 c 0,0.788 1.182,0.788 1.182,0 0,-0.788 -1.182,-0.788 -1.182,0 z m -1.892,0 c 0,0.788 1.182,0.788 1.182,0 0,-0.788 -1.182,-0.788 -1.182,0 z m -1.892,-1.991 c 0,0.789 1.183,0.789 1.183,0 0,-0.788 -1.183,-0.788 -1.183,0 z m -1.891,1.991 c 0,0.788 1.182,0.788 1.182,0 0,-0.788 -1.182,-0.788 -1.182,0 z m -1.892,0 c 0,0.788 1.182,0.788 1.182,0 0,-0.788 -1.182,-0.788 -1.182,0 z m -1.892,0 c 0,0.788 1.182,0.788 1.182,0 0,-0.788 -1.182,-0.788 -1.182,0 z m -1.892,0 c 0,0.788 1.182,0.788 1.182,0 0,-0.788 -1.182,-0.788 -1.182,0 z m -1.892,0 c 0,0.788 1.183,0.788 1.183,0 0,-0.788 -1.183,-0.788 -1.183,0 z m -1.891,0 c 0,0.788 1.182,0.788 1.182,0 0,-0.788 -1.182,-0.788 -1.182,0 z m -1.892,0 c 0,0.788 1.182,0.788 1.182,0 0,-0.788 -1.182,-0.788 -1.182,0 z m -1.892,1.991 c 0,0.788 1.182,0.788 1.182,0 0,-0.789 -1.182,-0.789 -1.182,0 z m -1.892,0 c 0,0.788 1.183,0.788 1.183,0 0,-0.789 -1.183,-0.789 -1.183,0 z m -1.892,0 c 0,0.788 1.183,0.788 1.183,0 0,-0.789 -1.183,-0.789 -1.183,0 z m -1.891,1.99 c 0,0.788 1.182,0.788 1.182,0 0,-0.788 -1.182,-0.788 -1.182,0 z m -1.892,0 c 0,0.788 1.182,0.788 1.182,0 0,-0.788 -1.182,-0.788 -1.182,0 z m -1.892,1.991 c 0,0.788 1.182,0.788 1.182,0 0,-0.788 -1.182,-0.788 -1.182,0 z m -1.892,0 c 0,0.788 1.183,0.788 1.183,0 0,-0.788 -1.183,-0.788 -1.183,0 z m -1.892,-1.991 c 0,0.788 1.183,0.788 1.183,0 0,-0.788 -1.183,-0.788 -1.183,0 z m -1.891,-13.934 c 0,0.788 1.182,0.788 1.182,0 0,-0.788 -1.182,-0.788 -1.182,0 z m -1.892,1.991 c 0,0.788 1.182,0.788 1.182,0 0,-0.788 -1.182,-0.788 -1.182,0 z"
       style="fill:none;stroke:#000000;stroke-width:0.75;stroke-linecap:butt;stroke-linejoin:miter;stroke-miterlimit:10;stroke-dasharray:none;stroke-opacity:1"
       id="path378"
       inkscape:connector-curvature="0" /><path
       style="fill:none;fill-rule:evenodd;stroke:#000000;stroke-width:0.62654382px;stroke-linecap:butt;stroke-linejoin:miter;stroke-opacity:1;marker-start:url(#Arrow2Lend-5);marker-end:url(#Arrow2Lstart-2)"
       d="m 377.61627,196.03172 56.35784,-0.36574"
       id="path4520-4"
       inkscape:connector-curvature="0"
       sodipodi:nodetypes="cc" /><path
       style="fill:none;fill-rule:evenodd;stroke:#000000;stroke-width:0.708601px;stroke-linecap:butt;stroke-linejoin:miter;stroke-opacity:1;marker-start:url(#Arrow2Lend-5-9);marker-end:url(#Arrow2Lstart-2-3)"
       d="m 446.51385,201.30184 -0.008,12.5903"
       id="path4520-4-6"
       inkscape:connector-curvature="0"
       sodipodi:nodetypes="cc" /><text
       xml:space="preserve"
       style="font-style:normal;font-weight:normal;font-size:32px;line-height:125%;font-family:sans-serif;letter-spacing:0px;word-spacing:0px;fill:#000000;fill-opacity:1;stroke:none;stroke-width:1px;stroke-linecap:butt;stroke-linejoin:miter;stroke-opacity:1"
       x="237.11934"
       y="-274.09827"
       id="text17532"
       sodipodi:linespacing="125%"
       transform="scale(1,-1)"><tspan
         sodipodi:role="line"
         id="tspan17534"
         x="237.11934"
         y="-274.09827" /></text>
<text
       xml:space="preserve"
       style="font-style:normal;font-weight:normal;font-size:18.83679008px;line-height:125%;font-family:sans-serif;letter-spacing:0px;word-spacing:0px;fill:#000000;fill-opacity:1;stroke:none;stroke-width:1px;stroke-linecap:butt;stroke-linejoin:miter;stroke-opacity:1"
       x="456.83023"
       y="-201.11859"
       id="text17536"
       sodipodi:linespacing="125%"
       transform="scale(1,-1)"><tspan
         sodipodi:role="line"
         x="456.83023"
         y="-201.11859"
         style="font-style:normal;font-variant:normal;font-weight:normal;font-stretch:normal;font-family:FreeSerif;-inkscape-font-specification:FreeSerif"
         id="tspan17540">≈ 0.1 mV</tspan></text>
<text
       xml:space="preserve"
       style="font-style:normal;font-weight:normal;font-size:18.83679008px;line-height:125%;font-family:sans-serif;letter-spacing:0px;word-spacing:0px;fill:#000000;fill-opacity:1;stroke:none;stroke-width:1px;stroke-linecap:butt;stroke-linejoin:miter;stroke-opacity:1"
       x="385.64325"
       y="-163.95677"
       id="text17536-2"
       sodipodi:linespacing="125%"
       transform="scale(1,-1)"><tspan
         sodipodi:role="line"
         x="385.64325"
         y="-163.95677"
         style="font-style:normal;font-variant:normal;font-weight:normal;font-stretch:normal;font-family:FreeSerif;-inkscape-font-specification:FreeSerif"
         id="tspan17540-7">≈ 0.28 Oe</tspan></text>
</g></svg>