1. 4. 0.0 1.0
2. 4. 0.0 1.0
3. 1. 0.0 1.0
4. 1. 0.0 1.0
5. 4.5 0.0 1.0
6. 5. 0.0 1.0
7. 3. 0.0 1.0
8. 3. 0.0 1.0
9. -3. 0.0 1.0
10. 3. 0.0 1.0
11. 2.5 0.0 1.0
12. 1. 0.0 1.0
13. 5. 0.0 1.0
14. 4. 0.0 1.0
15. 4. 0.0 1.0
16. 4. 0.0 1.0
17. 1. 0.0 1.0
18. 1. 0.0 1.0
19. 1. 0.0 1.0
20. 1. 0.0 1.0
21. 4. 0.0 1.0
22. 4. 0.0 1.0
23. 2. 0.0 1.0
24. 1. 0.0 1.0
25. 3. 0.0 1.0
26. 3. 0.0 1.0
27. 3. 0.0 1.0
28. 3. 0.0 1.0
29. 3.5 0.0 1.0
30. 4. 0.0 1.0
31. 3. 0.0 1.0
32. 4.5 0.0 1.0
33. 3. 0.0 1.0
34. 3. 0.0 1.0
35. 3. 0.0 1.0
36. 3. 0.0 1.0
37. 1. 0.0 1.0
38. 1. 0.0 1.0
39. 2. 0.0 1.0
40. 2. 0.0 1.0
41. 3. 0.0 1.0
42. 4. 0.0 1.0
43. 5. 0.0 1.0
44. 1. 0.0 1.0
45. 4. 0.0 1.0
46. 4. 0.0 1.0
47. 2. 0.0 1.0
48. 3. 0.0 1.0
49. 3. 0.0 1.0
50. 4. 0.0 1.0
51. 4. 0.0 1.0
52. 4. 0.0 1.0
53. 1.5 0.0 1.0
54. 2.5 0.0 1.0
55. 3. 0.0 1.0
56. 3.5 0.0 1.0
57. 3. 0.0 1.0
58. 3. 0.0 1.0
59. 5.5 0.0 1.0
60. -1.5 0.0 1.0
61. 1. 0.0 1.0
62. 1. 0.0 1.0
63. 4. 0.0 1.0
64. 3.5 0.0 1.0
65. 1. 0.0 1.0
66. 1. 0.0 1.0
67. 6. 0.0 1.0
68. 6. 0.0 1.0
69. 5.75 0.0 1.0
70. 6. 0.0 1.0
71. 0.5 0.0 1.0
72. 3.5 0.0 1.0
73. 3. 0.0 1.0
74. 3. 0.0 1.0
75. 2. 0.0 1.0
76. 2. 0.0 1.0
77. 6. 0.0 1.0
78. 4. 0.0 1.0
79. 6. 0.0 1.0
80. 3. 0.0 1.0
81. 4. 0.0 1.0
82. 4. 0.0 1.0
83. 4. 0.0 1.0
84. 4.5 0.0 1.0
85. 4. 0.0 1.0
86. 3.5 0.0 1.0
87. 3. 0.0 1.0
88. 3. 0.0 1.0
89. 4. 0.0 1.0
90. 4. 0.0 1.0
91. 3. 0.0 1.0
92. 4. 0.0 1.0
93. 4. 0.0 1.0
94. 4. 0.0 1.0
95. 3. 0.0 1.0
96. 3. 0.0 1.0
97. 3. 0.0 1.0
98. 1. 0.0 1.0
99. 0.5 0.0 1.0
100. 0.75 0.0 1.0
101. 2. 0.0 1.0
102. 5. 0.0 1.0
103. 2.75 0.0 1.0
104. 4. 0.0 1.0
105. 7. 0.0 1.0
106. 7. 0.0 1.0
107. 2. 0.0 1.0
108. 2.5 0.0 1.0
109. 4. 0.0 1.0
110. 4. 0.0 1.0
111. 1. 0.0 1.0
112. 1. 0.0 1.0
113. 3. 0.0 1.0
114. 3. 0.0 1.0
115. 2. 0.0 1.0
116. 2.5 0.0 1.0
117. 1.25 0.0 1.0
118. 1. 0.0 1.0
119. 4. 0.0 1.0
120. 5.5 0.0 1.0
121. 4. 0.0 1.0
122. 5. 0.0 1.0
123. 4. 0.0 1.0
124. -1. 0.0 1.0
125. -0.5 0.0 1.0
126. 7. 0.0 1.0
127. 5.5 0.0 1.0
128. 2. 0.0 1.0
129. 2. 0.0 1.0
130. 2. 0.0 1.0
131. 7. 0.0 1.0
132. 1. 0.0 1.0
133. 2.5 0.0 1.0
134. 2.75 0.0 1.0
135. 2. 0.0 1.0
136. 2. 0.0 1.0
137. 1. 0.0 1.0
138. 1. 0.0 1.0
139. 4. 0.0 1.0
140. 4. 0.0 1.0
141. 2. 0.0 1.0
142. 2.5 0.0 1.0
143. 4. 0.0 1.0
144. 4. 0.0 1.0
145. 2.5 0.0 1.0
146. 3. 0.0 1.0
147. 3. 0.0 1.0
148. 1. 0.0 1.0
149. 1. 0.0 1.0
150. 5. 0.0 1.0
151. 4. 0.0 1.0
152. 5. 0.0 1.0
153. 5. 0.0 1.0
154. 4. 0.0 1.0
155. 4. 0.0 1.0
156. 4. 0.0 1.0
157. 2.5 0.0 1.0
158. 1.5 0.0 1.0
159. 2.5 0.0 1.0
160. 0. 0.0 1.0
161. 3. 0.0 1.0
162. 3. 0.0 1.0
163. 3. 0.0 1.0
164. 3. 0.0 1.0
165. 4. 0.0 1.0
166. 4. 0.0 1.0
167. 3. 0.0 1.0
168. 3. 0.0 1.0
169. 4. 0.0 1.0
170. -1. 0.0 1.0
171. 3.5 0.0 1.0
172. 2. 0.0 1.0
173. 0. 0.0 1.0
174. 3. 0.0 1.0
175. 3. 0.0 1.0
176. 4. 0.0 1.0
177. 3. 0.0 1.0
178. 3. 0.0 1.0
179. 4. 0.0 1.0
180. 2.5 0.0 1.0
182. 2. 0.0 1.0
183. 3. 0.0 1.0
184. 0. 0.0 1.0
185. 0.6666666666666572 0.0 1.0
186. 1. 0.0 1.0
187. 2. 0.0 1.0
188. 0.5 0.0 1.0
190. 8. 0.0 1.0
192. 0. 0.0 1.0
193. 2.5 0.0 1.0
194. 2.5 0.0 1.0
195. 3. 0.0 1.0
196. -3. 0.0 1.0
197. 1. 0.0 1.0
198. 4.5 0.0 1.0
199. 2. 0.0 1.0
200. 5. 0.0 1.0
201. 1.5 0.0 1.0
202. 1.8333333333333428 0.0 1.0
203. 1.6666666666666856 0.0 1.0
204. 2. 0.0 1.0
205. 3. 0.0 1.0
206. 3. 0.0 1.0
207. 4.5 0.0 1.0
208. 2. 0.0 1.0
209. 6. 0.0 1.0
210. 6. 0.0 1.0
211. 5. 0.0 1.0
212. 4. 0.0 1.0
213. 2.5 0.0 1.0
214. 1. 0.0 1.0
215. 1. 0.0 1.0
216. 4. 0.0 1.0
217. 8. 0.0 1.0
218. 4. 0.0 1.0
219. 3.5 0.0 1.0
220. 2.5 0.0 1.0
221. 8. 0.0 1.0
222. 4. 0.0 1.0
223. 4.5 0.0 1.0
224. 3.25 0.0 1.0
225. 4. 0.0 1.0
226. 4. 0.0 1.0
227. 5. 0.0 1.0
228. 4.5 0.0 1.0
229. 3. 0.0 1.0
230. 4. 0.0 1.0
231. 4. 0.0 1.0
232. 4. 0.0 1.0
233. 4. 0.0 1.0
234. 4.5 0.0 1.0
235. 5. 0.0 1.0
236. 6. 0.0 1.0
237. 7. 0.0 1.0
238. 5. 0.0 1.0
239. 5. 0.0 1.0
240. 5. 0.0 1.0
241. 3.5 0.0 1.0
242. 3. 0.0 1.0
243. 5. 0.0 1.0
244. 7.5 0.0 1.0
245. 5. 0.0 1.0
246. 5. 0.0 1.0
247. 4. 0.0 1.0
248. 4. 0.0 1.0
249. 5. 0.0 1.0
250. 5. 0.0 1.0
251. 5. 0.0 1.0
252. 4. 0.0 1.0
253. 4. 0.0 1.0
254. 4. 0.0 1.0
255. 4. 0.0 1.0
256. 6. 0.0 1.0
257. 5.5 0.0 1.0
258. 7. 0.0 1.0
259. 8. 0.0 1.0
261. 4. 0.0 1.0
262. 5. 0.0 1.0
263. 5. 0.0 1.0
264. 5. 0.0 1.0
265. 7. 0.0 1.0
266. 7. 0.0 1.0
269. 4.5 0.0 1.0
270. 5.5 0.0 1.0
271. 7. 0.0 1.0
272. 7. 0.0 1.0
273. 5. 0.0 1.0
274. 5. 0.0 1.0
275. 5. 0.0 1.0
276. 7. 0.0 1.0
277. 5. 0.0 1.0
278. 1.5 0.0 1.0
279. 8. 0.0 1.0
280. 9. 0.0 1.0
281. 7. 0.0 1.0
282. 7.5 0.0 1.0
283. 7. 0.0 1.0
284. 7. 0.0 1.0
285. 6. 0.0 1.0
286. 5. 0.0 1.0
287. 7. 0.0 1.0
288. 7. 0.0 1.0
289. 7. 0.0 1.0
290. 8. 0.0 1.0
291. 7. 0.0 1.0
292. 12. 0.0 1.0
293. 15. 0.0 1.0
294. 11. 0.0 1.0
295. 7. 0.0 1.0
296. 7. 0.0 1.0
297. 4. 0.0 1.0
298. 8. 0.0 1.0
299. 10.5 0.0 1.0
300. 7. 0.0 1.0
301. 9. 0.0 1.0
302. 8.75 0.0 1.0
303. 9.5 0.0 1.0
304. 10.5 0.0 1.0
305. 9. 0.0 1.0
306. 4. 0.0 1.0
307. 8.5 0.0 1.0
308. 10.5 0.0 1.0
309. 10.5 0.0 1.0
310. 12. 0.0 1.0
311. 8. 0.0 1.0
312. 8.5 0.0 1.0
313. 11. 0.0 1.0
314. 5.5 0.0 1.0
315. 11. 0.0 1.0
316. 12. 0.0 1.0
317. 11. 0.0 1.0
318. 12. 0.0 1.0
319. 9. 0.0 1.0
320. 9. 0.0 1.0
321. 9. 0.0 1.0
322. 10. 0.0 1.0
323. 11. 0.0 1.0
324. 11. 0.0 1.0
325. 5. 0.0 1.0
326. 5. 0.0 1.0
327. 10. 0.0 1.0
328. 10. 0.0 1.0
329. 13. 0.0 1.0
330. 13. 0.0 1.0
331. 9. 0.0 1.0
332. 8.75 0.0 1.0
333. 8. 0.0 1.0
334. 7. 0.0 1.0
335. 5. 0.0 1.0
336. 5. 0.0 1.0
337. 10. 0.0 1.0
338. 9. 0.0 1.0
339. 8. 0.0 1.0
340. 7.5 0.0 1.0
341. 6. 0.0 1.0
342. 6. 0.0 1.0
343. 7. 0.0 1.0
345. 7. 0.0 1.0
346. 7. 0.0 1.0
347. 4. 0.0 1.0
348. 6.75 0.0 1.0
349. 5.5 0.0 1.0
350. 4.5 0.0 1.0
351. 7. 0.0 1.0
352. 6. 0.0 1.0
353. 6. 0.0 1.0
354. 6. 0.0 1.0
355. 6. 0.0 1.0
356. 6. 0.0 1.0
357. 7. 0.0 1.0
358. 7. 0.0 1.0
359. 5. 0.0 1.0
360. 7. 0.0 1.0
361. 7. 0.0 1.0
362. 7. 0.0 1.0
363. 4. 0.0 1.0
364. 8. 0.0 1.0
365. 7. 0.0 1.0
366. 4. 0.0 1.0
367. 4. 0.0 1.0
368. 7. 0.0 1.0
369. 6. 0.0 1.0
370. 3. 0.0 1.0
371. 3. 0.0 1.0
372. 6. 0.0 1.0
373. 6. 0.0 1.0
374. 6. 0.0 1.0
375. 6. 0.0 1.0
376. 3.5 0.0 1.0
377. 4. 0.0 1.0
378. 7. 0.0 1.0
379. 7. 0.0 1.0
380. 3. 0.0 1.0
381. 3. 0.0 1.0
382. 3. 0.0 1.0
383. 3.5 0.0 1.0
384. 4. 0.0 1.0
385. 3. 0.0 1.0
386. 3. 0.0 1.0
387. 6. 0.0 1.0
388. 7. 0.0 1.0
389. 3. 0.0 1.0
390. 4. 0.0 1.0
391. 4. 0.0 1.0
392. 2. 0.0 1.0
393. 4. 0.0 1.0
394. 3. 0.0 1.0
395. 3. 0.0 1.0
396. 4. 0.0 1.0
397. 5. 0.0 1.0
398. 4. 0.0 1.0
399. 4. 0.0 1.0
400. 4.5 0.0 1.0
401. 2. 0.0 1.0
402. 6. 0.0 1.0
403. 2.25 0.0 1.0
404. 4. 0.0 1.0
405. 1.5 0.0 1.0
406. 1.5 0.0 1.0
407. 4. 0.0 1.0
408. 6. 0.0 1.0
409. 2.5 0.0 1.0
410. 3. 0.0 1.0
411. 3.5 0.0 1.0
412. 5. 0.0 1.0
413. 4. 0.0 1.0
414. 1. 0.0 1.0
415. 1.5 0.0 1.0
416. 4. 0.0 1.0
417. 4. 0.0 1.0
418. 4. 0.0 1.0
419. 7. 0.0 1.0
420. 6. 0.0 1.0
421. 2. 0.0 1.0
422. 2. 0.0 1.0
423. 2. 0.0 1.0
424. 3. 0.0 1.0
425. 3. 0.0 1.0
426. 3. 0.0 1.0
427. 4. 0.0 1.0
428. 3. 0.0 1.0
429. 3. 0.0 1.0
430. 3. 0.0 1.0
431. 3. 0.0 1.0
432. 4. 0.0 1.0
433. 4. 0.0 1.0
434. 3. 0.0 1.0
435. 3. 0.0 1.0
436. 4. 0.0 1.0
437. 4. 0.0 1.0
439. 3. 0.0 1.0
440. 0. 0.0 1.0
441. 5. 0.0 1.0
442. 4. 0.0 1.0
443. 4. 0.0 1.0
444. 4. 0.0 1.0
445. 2. 0.0 1.0
446. 3. 0.0 1.0
447. 3. 0.0 1.0
448. 4. 0.0 1.0
449. 0.5 0.0 1.0
450. 4. 0.0 1.0
451. 4. 0.0 1.0
452. 4.5 0.0 1.0
453. 2. 0.0 1.0
454. 3. 0.0 1.0
455. 3.0000000000000284 0.0 1.0
456. 3.0000000000000284 0.0 1.0
457. 3. 0.0 1.0
458. 3. 0.0 1.0
459. 3. 0.0 1.0
460. 4. 0.0 1.0
461. 3. 0.0 1.0
462. 3. 0.0 1.0
463. 3. 0.0 1.0
464. 4. 0.0 1.0
465. 3. 0.0 1.0
466. 3. 0.0 1.0
467. 3.5 0.0 1.0
468. 3.5 0.0 1.0
469. 3. 0.0 1.0
470. 3. 0.0 1.0
471. 3. 0.0 1.0
472. 3. 0.0 1.0
473. 2. 0.0 1.0
474. 3. 0.0 1.0
475. 1.75 0.0 1.0
476. 0.5 0.0 1.0
477. 3. 0.0 1.0
478. 1.5 0.0 1.0
479. 0. 0.0 1.0
481. 2. 0.0 1.0
482. 3. 0.0 1.0
483. 2.5 0.0 1.0
484. 3. 0.0 1.0
485. 3. 0.0 1.0
486. 3.5 0.0 1.0
487. 2. 0.0 1.0
488. 3.25 0.0 1.0
489. 1.5 0.0 1.0
490. 1. 0.0 1.0
491. 1. 0.0 1.0
492. 1. 0.0 1.0
493. 3. 0.0 1.0
494. 1.5 0.0 1.0
495. 3. 0.0 1.0
496. 2.25 0.0 1.0
497. 1. 0.0 1.0
498. 2. 0.0 1.0
499. 1. 0.0 1.0
500. 1. 0.0 1.0
501. 1. 0.0 1.0
502. 4. 0.0 1.0
503. 4. 0.0 1.0
504. 1. 0.0 1.0
505. 2.5 0.0 1.0
506. 3. 0.0 1.0
507. 3. 0.0 1.0
508. 1. 0.0 1.0
509. 1.75 0.0 1.0
510. 1. 0.0 1.0
511. 2.25 0.0 1.0
512. 2.5 0.0 1.0
513. 3. 0.0 1.0
514. 3. 0.0 1.0
515. 2.5 0.0 1.0
516. 3. 0.0 1.0
517. 0.5 0.0 1.0
518. 4. 0.0 1.0
519. 2.5 0.0 1.0
520. 3. 0.0 1.0
521. -1. 0.0 1.0
522. 2. 0.0 1.0
523. 1. 0.0 1.0
524. 2. 0.0 1.0
525. 2. 0.0 1.0
526. 3. 0.0 1.0
527. 2. 0.0 1.0
528. 2. 0.0 1.0
529. 1. 0.0 1.0
530. 1. 0.0 1.0
531. 2. 0.0 1.0
532. 3. 0.0 1.0
533. 3. 0.0 1.0
534. 2. 0.0 1.0
535. 2. 0.0 1.0
536. 2. 0.0 1.0
537. 2. 0.0 1.0
538. 2.5 0.0 1.0
539. 2.5 0.0 1.0
540. 3. 0.0 1.0
541. 2. 0.0 1.0
542. 2. 0.0 1.0
543. 2. 0.0 1.0
544. 2. 0.0 1.0
545. 3. 0.0 1.0
546. 2.25 0.0 1.0
547. 2. 0.0 1.0
548. 2. 0.0 1.0
549. 2.5 0.0 1.0
550. 2. 0.0 1.0
551. 2.5 0.0 1.0
552. 3. 0.0 1.0
553. 2.5 0.0 1.0
554. 1. 0.0 1.0
555. 1. 0.0 1.0
556. 2. 0.0 1.0
557. 1. 0.0 1.0
558. 0. 0.0 1.0
559. 3.5 0.0 1.0
560. 3. 0.0 1.0
561. 3. 0.0 1.0
562. 1.5 0.0 1.0
563. 2.5 0.0 1.0
564. 3. 0.0 1.0
565. 3. 0.0 1.0
566. 2.5 0.0 1.0
567. 3. 0.0 1.0
568. 3. 0.0 1.0
569. 2. 0.0 1.0
570. 1.25 0.0 1.0
571. 0. 0.0 1.0
572. 0.5 0.0 1.0
573. -0.5 0.0 1.0
574. -0.5 0.0 1.0
575. 2. 0.0 1.0
576. 2. 0.0 1.0
577. 3. 0.0 1.0
578. 1. 0.0 1.0
579. 0. 0.0 1.0
580. 4. 0.0 1.0
581. 1. 0.0 1.0
582. 4. 0.0 1.0
583. 4. 0.0 1.0
584. 4. 0.0 1.0
585. 0.5 0.0 1.0
586. 3.5 0.0 1.0
587. 4. 0.0 1.0
588. 4. 0.0 1.0
589. 2. 0.0 1.0
590. 2. 0.0 1.0
591. 2. 0.0 1.0
592. 2. 0.0 1.0
593. 1. 0.0 1.0
594. 3. 0.0 1.0
595. 2.5 0.0 1.0
596. 1. 0.0 1.0
597. 3. 0.0 1.0
598. 0.5 0.0 1.0
599. -0.5 0.0 1.0
600. 1. 0.0 1.0
601. 3. 0.0 1.0
602. 3. 0.0 1.0
603. 3. 0.0 1.0
604. 3.5 0.0 1.0
605. 3.5 0.0 1.0
606. 3. 0.0 1.0
607. 3. 0.0 1.0
608. 3.5 0.0 1.0
609. 3.5 0.0 1.0
610. 3. 0.0 1.0
611. 3. 0.0 1.0
612. 2.5 0.0 1.0
613. 0. 0.0 1.0
614. 0. 0.0 1.0
615. 0.5 0.0 1.0
616. 0.5 0.0 1.0
617. 2. 0.0 1.0
618. 4. 0.0 1.0
619. 2. 0.0 1.0
620. 2.5 0.0 1.0
621. 2.5 0.0 1.0
622. 3. 0.0 1.0
623. 3. 0.0 1.0
624. 3. 0.0 1.0
625. 4. 0.0 1.0
626. 2. 0.0 1.0
627. 2.25 0.0 1.0
628. 2. 0.0 1.0
629. 3. 0.0 1.0
630. 3. 0.0 1.0
631. 1. 0.0 1.0
632. 1.5 0.0 1.0
633. 4. 0.0 1.0
634. 1. 0.0 1.0
635. 1. 0.0 1.0
636. 1. 0.0 1.0
637. 2.25 0.0 1.0
638. -0.5 0.0 1.0
639. 3.75 0.0 1.0
640. 4. 0.0 1.0
